%YAML 1.1
%TAG !u! tag:unity3d.com,2011:
--- !u!1 &100000
GameObject:
  m_ObjectHideFlags: 0
  m_PrefabParentObject: {fileID: 0}
  m_PrefabInternal: {fileID: 100100000}
  serializedVersion: 4
  m_Component:
  - 4: {fileID: 400000}
  - 137: {fileID: 13700000}
  m_Layer: 0
  m_Name: go_RetinaIris
  m_TagString: Untagged
  m_Icon: {fileID: 0}
  m_NavMeshLayer: 0
  m_StaticEditorFlags: 0
  m_IsActive: 1
--- !u!4 &400000
Transform:
  m_ObjectHideFlags: 1
  m_PrefabParentObject: {fileID: 0}
  m_PrefabInternal: {fileID: 100100000}
  m_GameObject: {fileID: 100000}
  m_LocalRotation: {x: 0, y: -0, z: -0, w: 1}
  m_LocalPosition: {x: -.00451976759, y: .00683043245, z: .0315927789}
  m_LocalScale: {x: 1, y: 1, z: 1}
  m_Children: []
  m_Father: {fileID: 0}
  m_RootOrder: 0
--- !u!137 &13700000
SkinnedMeshRenderer:
  m_ObjectHideFlags: 1
  m_PrefabParentObject: {fileID: 0}
  m_PrefabInternal: {fileID: 100100000}
  m_GameObject: {fileID: 100000}
  m_Enabled: 1
  m_CastShadows: 1
  m_ReceiveShadows: 1
  m_LightmapIndex: 255
  m_LightmapTilingOffset: {x: 1, y: 1, z: 0, w: 0}
  m_Materials:
  - {fileID: 2100000, guid: 616957ddba92b704c8efab562fcd8191, type: 2}
  - {fileID: 2100000, guid: d7654d8c23e136e4dae216081e4ba709, type: 2}
  - {fileID: 2100000, guid: 5546afa7e1f99d848afa6e21a241dacf, type: 2}
  - {fileID: 2100000, guid: b3ca6ee0d0c59df45834a84a77eb5106, type: 2}
  - {fileID: 2100000, guid: 287c72f96cd4f1840b4d1e78a883deda, type: 2}
  - {fileID: 2100000, guid: c9af049213d0abd4da3793cdb3e8648e, type: 2}
  - {fileID: 2100000, guid: 804513553280f9a468019ac23b2c3454, type: 2}
  - {fileID: 2100000, guid: 86c2521bac34c8247bc0079a35f02bcd, type: 2}
  - {fileID: 2100000, guid: dc6fb9e6226e9914d85effac76a326fb, type: 2}
  m_SubsetIndices: 
  m_StaticBatchRoot: {fileID: 0}
  m_UseLightProbes: 0
  m_LightProbeAnchor: {fileID: 0}
  m_ScaleInLightmap: 1
  m_SortingLayerID: 0
  m_SortingOrder: 0
  serializedVersion: 2
  m_Quality: 0
  m_UpdateWhenOffscreen: 0
  m_Mesh: {fileID: 4300016, guid: a03fe9905255ce6419a6780fb558d5cf, type: 3}
  m_Bones:
  - {fileID: 0}
  m_BlendShapeWeights:
  - 0
  - 0
  - 0
  - 0
  - 0
  - 0
  m_RootBone: {fileID: 0}
  m_AABB:
    m_Center: {x: -.0552669168, y: -.0004433617, z: -.0280117579}
    m_Extent: {x: .0641376376, y: .0594079122, z: .0285167992}
  m_DirtyAABB: 0
--- !u!1001 &100100000
Prefab:
  m_ObjectHideFlags: 1
  serializedVersion: 2
  m_Modification:
    m_TransformParent: {fileID: 0}
    m_Modifications: []
    m_RemovedComponents: []
  m_ParentPrefab: {fileID: 0}
  m_RootGameObject: {fileID: 100000}
  m_IsPrefabParent: 1
  m_IsExploded: 1
