%YAML 1.1
%TAG !u! tag:unity3d.com,2011:
--- !u!21 &2100000
Material:
  serializedVersion: 3
  m_ObjectHideFlags: 0
  m_PrefabParentObject: {fileID: 0}
  m_PrefabInternal: {fileID: 0}
  m_Name: blinn6
  m_Shader: {fileID: 4800000, guid: 0f9690e2ecb1b5948a37119fca783265, type: 3}
  m_ShaderKeywords: []
  m_CustomRenderQueue: -1
  m_SavedProperties:
    serializedVersion: 2
    m_TexEnvs:
      data:
        first:
          name: _MainTex
        second:
          m_Texture: {fileID: 0}
          m_Scale: {x: .5, y: .5}
          m_Offset: {x: 0, y: 0}
      data:
        first:
          name: _BumpMap
        second:
          m_Texture: {fileID: 2800000, guid: bd7e955ba27e606458c3256896537d22, type: 3}
          m_Scale: {x: 1, y: 1}
          m_Offset: {x: 0, y: 0}
      data:
        first:
          name: _SpecTex
        second:
          m_Texture: {fileID: 0}
          m_Scale: {x: 1, y: 1}
          m_Offset: {x: 0, y: 0}
      data:
        first:
          name: _node_2
        second:
          m_Texture: {fileID: 2800000, guid: d2a29e2b9017122448041393681ed4ea, type: 3}
          m_Scale: {x: 1, y: 1}
          m_Offset: {x: 0, y: 0}
      data:
        first:
          name: _node_8
        second:
          m_Texture: {fileID: 2800000, guid: bd7e955ba27e606458c3256896537d22, type: 3}
          m_Scale: {x: 1, y: 1}
          m_Offset: {x: 0, y: 0}
      data:
        first:
          name: _node_64
        second:
          m_Texture: {fileID: 8900000, guid: a596436b21c6d484bb9b3b6385e3e666, type: 2}
          m_Scale: {x: 1, y: 1}
          m_Offset: {x: 0, y: 0}
    m_Floats:
      data:
        first:
          name: _Cutoff
        second: .5
      data:
        first:
          name: _Shininess
        second: 7.3316884
      data:
        first:
          name: _SpecInt
        second: 1
      data:
        first:
          name: _Fresnel
        second: 0
      data:
        first:
          name: _specular
        second: .160714313
      data:
        first:
          name: _gloss
        second: 2.26999998
      data:
        first:
          name: _Refraction
        second: .0199999996
      data:
        first:
          name: _node_47
        second: 0
      data:
        first:
          name: _node_15
        second: .160714284
      data:
        first:
          name: _node_35
        second: .0700000003
      data:
        first:
          name: _alpha
        second: .188949957
    m_Colors:
      data:
        first:
          name: _Color
        second: {r: 0, g: 0, b: 0, a: 0}
      data:
        first:
          name: _SpecColor
        second: {r: .91911763, g: .91911763, b: .91911763, a: 1}
      data:
        first:
          name: _node_54
        second: {r: 1, g: 1, b: 1, a: 1}
