%YAML 1.1
%TAG !u! tag:unity3d.com,2011:
--- !u!21 &2100000
Material:
  serializedVersion: 3
  m_ObjectHideFlags: 0
  m_PrefabParentObject: {fileID: 0}
  m_PrefabInternal: {fileID: 0}
  m_Name: CornScar
  m_Shader: {fileID: 4800000, guid: 23d947d851d2fd24a9dfd136d9538f13, type: 3}
  m_ShaderKeywords: []
  m_CustomRenderQueue: -1
  m_SavedProperties:
    serializedVersion: 2
    m_TexEnvs:
      data:
        first:
          name: _MainTex
        second:
          m_Texture: {fileID: 2800000, guid: 1242877baa885874180ded58f8de48f7, type: 3}
          m_Scale: {x: 1, y: 1}
          m_Offset: {x: 0, y: 0}
      data:
        first:
          name: _BumpMap
        second:
          m_Texture: {fileID: 2800000, guid: f0019af81614b1f4ca8ca9018740001f, type: 3}
          m_Scale: {x: 5, y: 5}
          m_Offset: {x: 0, y: 0}
      data:
        first:
          name: _SpecTex
        second:
          m_Texture: {fileID: 0}
          m_Scale: {x: 1, y: 1}
          m_Offset: {x: 0, y: 0}
    m_Floats:
      data:
        first:
          name: _Shininess
        second: 4
      data:
        first:
          name: _SpecInt
        second: 1
      data:
        first:
          name: _Fresnel
        second: 0
    m_Colors:
      data:
        first:
          name: _Color
        second: {r: .99999994, g: .99999994, b: .99999994, a: 0}
      data:
        first:
          name: _SpecColor
        second: {r: 1, g: 1, b: 1, a: 1}
