%YAML 1.1
%TAG !u! tag:unity3d.com,2011:
--- !u!21 &2100000
Material:
  serializedVersion: 3
  m_ObjectHideFlags: 0
  m_PrefabParentObject: {fileID: 0}
  m_PrefabInternal: {fileID: 0}
  m_Name: dipcol
  m_Shader: {fileID: 4800000, guid: 6c878572b37d9444fbe97119bbf1c765, type: 3}
  m_ShaderKeywords: []
  m_CustomRenderQueue: -1
  m_SavedProperties:
    serializedVersion: 2
    m_TexEnvs:
      data:
        first:
          name: _MainTex
        second:
          m_Texture: {fileID: 2800000, guid: 0324f30e2c66fe74685b86b0f1fd15c7, type: 3}
          m_Scale: {x: 1, y: 1}
          m_Offset: {x: 0, y: 0}
      data:
        first:
          name: _BumpMap
        second:
          m_Texture: {fileID: 2800000, guid: 9105b6d7746a9f54698985d602bd686d, type: 3}
          m_Scale: {x: 1, y: 1}
          m_Offset: {x: 0, y: 0}
      data:
        first:
          name: _SpecTex
        second:
          m_Texture: {fileID: 2800000, guid: 0324f30e2c66fe74685b86b0f1fd15c7, type: 3}
          m_Scale: {x: 1, y: 1}
          m_Offset: {x: 0, y: 0}
      data:
        first:
          name: _node_14
        second:
          m_Texture: {fileID: 2800000, guid: 3f1b1283c083adf49988c5bc98d9e98c, type: 3}
          m_Scale: {x: 1, y: 1}
          m_Offset: {x: 0, y: 0}
      data:
        first:
          name: _node_2
        second:
          m_Texture: {fileID: 2800000, guid: 0324f30e2c66fe74685b86b0f1fd15c7, type: 3}
          m_Scale: {x: 1, y: 1}
          m_Offset: {x: 0, y: 0}
      data:
        first:
          name: _node_8
        second:
          m_Texture: {fileID: 2800000, guid: 0324f30e2c66fe74685b86b0f1fd15c7, type: 3}
          m_Scale: {x: 1, y: 1}
          m_Offset: {x: 0, y: 0}
      data:
        first:
          name: _node_25
        second:
          m_Texture: {fileID: 8900000, guid: a596436b21c6d484bb9b3b6385e3e666, type: 2}
          m_Scale: {x: 1, y: 1}
          m_Offset: {x: 0, y: 0}
      data:
        first:
          name: _node_64
        second:
          m_Texture: {fileID: 2800000, guid: 3f1b1283c083adf49988c5bc98d9e98c, type: 3}
          m_Scale: {x: 1, y: 1}
          m_Offset: {x: 0, y: 0}
      data:
        first:
          name: _node_31
        second:
          m_Texture: {fileID: 8900000, guid: a596436b21c6d484bb9b3b6385e3e666, type: 2}
          m_Scale: {x: 1, y: 1}
          m_Offset: {x: 0, y: 0}
      data:
        first:
          name: _node_88
        second:
          m_Texture: {fileID: 2800000, guid: 9105b6d7746a9f54698985d602bd686d, type: 3}
          m_Scale: {x: 1, y: 1}
          m_Offset: {x: 0, y: 0}
    m_Floats:
      data:
        first:
          name: _Reflection
        second: .0535714291
      data:
        first:
          name: _Shininess
        second: 7.99999952
      data:
        first:
          name: _SpecInt
        second: 2.24000001
      data:
        first:
          name: _Fresnel
        second: 0
      data:
        first:
          name: _Gloss
        second: .375
      data:
        first:
          name: _Diffuse
        second: .75
      data:
        first:
          name: _Specular
        second: 1
      data:
        first:
          name: _node_8
        second: .600000024
      data:
        first:
          name: _node_39
        second: 0
      data:
        first:
          name: _node_31
        second: .135290414
      data:
        first:
          name: _node_46
        second: 0
      data:
        first:
          name: _node_32
        second: .12500006
      data:
        first:
          name: _node_40
        second: .92284435
      data:
        first:
          name: _node_76
        second: -.790000021
      data:
        first:
          name: _node_53
        second: 0
    m_Colors:
      data:
        first:
          name: _Color
        second: {r: 1, g: 1, b: 1, a: 1}
      data:
        first:
          name: _SpecColor
        second: {r: 1, g: 1, b: 1, a: 1}
      data:
        first:
          name: _node_25
        second: {r: .5, g: .5, b: .5, a: 1}
