%YAML 1.1
%TAG !u! tag:unity3d.com,2011:
--- !u!21 &2100000
Material:
  serializedVersion: 3
  m_ObjectHideFlags: 0
  m_PrefabParentObject: {fileID: 0}
  m_PrefabInternal: {fileID: 0}
  m_Name: textcb
  m_Shader: {fileID: 4800000, guid: 6c878572b37d9444fbe97119bbf1c765, type: 3}
  m_ShaderKeywords: []
  m_CustomRenderQueue: -1
  m_SavedProperties:
    serializedVersion: 2
    m_TexEnvs:
      data:
        first:
          name: _MainTex
        second:
          m_Texture: {fileID: 2800000, guid: e97d9f9abbde77e4195589d13f81c133, type: 3}
          m_Scale: {x: 1, y: 1}
          m_Offset: {x: 0, y: 0}
      data:
        first:
          name: _BumpMap
        second:
          m_Texture: {fileID: 2800000, guid: 7b14c880b3f24d74a887ff963a4c9f64, type: 3}
          m_Scale: {x: 1, y: 1}
          m_Offset: {x: 0, y: 0}
      data:
        first:
          name: _SpecTex
        second:
          m_Texture: {fileID: 2800000, guid: e97d9f9abbde77e4195589d13f81c133, type: 3}
          m_Scale: {x: 1, y: 1}
          m_Offset: {x: 0, y: 0}
      data:
        first:
          name: _node_4
        second:
          m_Texture: {fileID: 8900000, guid: a596436b21c6d484bb9b3b6385e3e666, type: 2}
          m_Scale: {x: 1, y: 1}
          m_Offset: {x: 0, y: 0}
      data:
        first:
          name: _node_3
        second:
          m_Texture: {fileID: 2800000, guid: 7b14c880b3f24d74a887ff963a4c9f64, type: 3}
          m_Scale: {x: 1, y: 1}
          m_Offset: {x: 0, y: 0}
      data:
        first:
          name: _node_2
        second:
          m_Texture: {fileID: 2800000, guid: cdcfe8c15eb33e3418cf1b5a7a1976b9, type: 3}
          m_Scale: {x: 1, y: 1}
          m_Offset: {x: 0, y: 0}
      data:
        first:
          name: _node_66
        second:
          m_Texture: {fileID: 2800000, guid: b2fa9f8611a6c6b488667af38f85e179, type: 3}
          m_Scale: {x: 1, y: 1}
          m_Offset: {x: 0, y: 0}
    m_Floats:
      data:
        first:
          name: _Shininess
        second: 6.86039829
      data:
        first:
          name: _SpecInt
        second: 4.96000004
      data:
        first:
          name: _Fresnel
        second: 0
      data:
        first:
          name: _gloss
        second: .501984179
      data:
        first:
          name: _Reflect
        second: .0535714291
      data:
        first:
          name: _node_25
        second: 0
      data:
        first:
          name: _node_60
        second: 0
      data:
        first:
          name: _diffuse
        second: 1
      data:
        first:
          name: _node_41
        second: 0
      data:
        first:
          name: _Specula
        second: .625
      data:
        first:
          name: _node_81
        second: .1068376
      data:
        first:
          name: _node_94
        second: 5
      data:
        first:
          name: _node_108
        second: 0
      data:
        first:
          name: _offset
        second: .00297574536
      data:
        first:
          name: _tesselation
        second: 5
      data:
        first:
          name: _node_126
        second: .124999985
      data:
        first:
          name: _node_198
        second: 0
    m_Colors:
      data:
        first:
          name: _Color
        second: {r: .79411763, g: .597762764, b: .525519013, a: 1}
      data:
        first:
          name: _SpecColor
        second: {r: 1, g: 1, b: 1, a: 1}
      data:
        first:
          name: _node_117
        second: {r: .5, g: .5, b: .5, a: 1}
