%YAML 1.1
%TAG !u! tag:unity3d.com,2011:
--- !u!1 &100000
GameObject:
  m_ObjectHideFlags: 0
  m_PrefabParentObject: {fileID: 0}
  m_PrefabInternal: {fileID: 100100000}
  serializedVersion: 4
  m_Component:
  - 4: {fileID: 400000}
  - 114: {fileID: 11400000}
  m_Layer: 0
  m_Name: Roboto-Large
  m_TagString: Untagged
  m_Icon: {fileID: 0}
  m_NavMeshLayer: 0
  m_StaticEditorFlags: 0
  m_IsActive: 1
--- !u!4 &400000
Transform:
  m_ObjectHideFlags: 1
  m_PrefabParentObject: {fileID: 0}
  m_PrefabInternal: {fileID: 100100000}
  m_GameObject: {fileID: 100000}
  m_LocalRotation: {x: 0, y: 0, z: 0, w: 1}
  m_LocalPosition: {x: 0, y: 0, z: 0}
  m_LocalScale: {x: 1, y: 1, z: 1}
  m_Children: []
  m_Father: {fileID: 0}
  m_RootOrder: 0
--- !u!114 &11400000
MonoBehaviour:
  m_ObjectHideFlags: 1
  m_PrefabParentObject: {fileID: 0}
  m_PrefabInternal: {fileID: 100100000}
  m_GameObject: {fileID: 100000}
  m_Enabled: 1
  m_EditorHideFlags: 0
  m_Script: {fileID: 11500000, guid: 0b4eb3a400afab046abb8471a9d746d6, type: 3}
  m_Name: 
  m_EditorClassIdentifier: 
  mMat: {fileID: 2100000, guid: 7814b1ab2cb4abb4e89f53ac5fd8bb94, type: 2}
  mUVRect:
    serializedVersion: 2
    x: 0
    y: -.499267578
    width: .5
    height: .25
  mFont:
    mSize: 128
    mBase: 0
    mWidth: 1024
    mHeight: 1024
    mSpriteName: 
    mSaved:
    - index: 32
      x: 0
      y: 3
      width: 0
      height: -3
      offsetX: 0
      offsetY: 3
      advance: 32
      channel: 15
      kerning: 
    - index: 33
      x: 84
      y: 613
      width: 16
      height: 91
      offsetX: 10
      offsetY: 11
      advance: 35
      channel: 15
      kerning: 
    - index: 34
      x: 542
      y: 745
      width: 33
      height: 33
      offsetX: 4
      offsetY: 4
      advance: 41
      channel: 15
      kerning: 
    - index: 35
      x: 104
      y: 461
      width: 70
      height: 92
      offsetX: 4
      offsetY: 10
      advance: 79
      channel: 15
      kerning: 
    - index: 36
      x: 0
      y: 118
      width: 60
      height: 119
      offsetX: 6
      offsetY: -4
      advance: 72
      channel: 15
      kerning: 
    - index: 37
      x: 0
      y: 610
      width: 83
      height: 94
      offsetX: 6
      offsetY: 9
      advance: 94
      channel: 15
      kerning: 
    - index: 38
      x: 0
      y: 238
      width: 76
      height: 94
      offsetX: 4
      offsetY: 9
      advance: 82
      channel: 15
      kerning: 
    - index: 39
      x: 80
      y: 357
      width: 13
      height: 33
      offsetX: 4
      offsetY: 5
      advance: 21
      channel: 15
      kerning: 
    - index: 40
      x: 301
      y: 613
      width: 35
      height: 131
      offsetX: 8
      offsetY: 0
      advance: 44
      channel: 15
      kerning: 
    - index: 41
      x: 301
      y: 482
      width: 35
      height: 130
      offsetX: 0
      offsetY: 1
      advance: 43
      channel: 15
      kerning: 
    - index: 42
      x: 596
      y: 784
      width: 54
      height: 55
      offsetX: 1
      offsetY: 11
      advance: 56
      channel: 15
      kerning: 
    - index: 43
      x: 678
      y: 866
      width: 62
      height: 66
      offsetX: 4
      offsetY: 27
      advance: 71
      channel: 15
      kerning: 
    - index: 44
      x: 80
      y: 391
      width: 21
      height: 33
      offsetX: 3
      offsetY: 87
      advance: 29
      channel: 15
      kerning: 
    - index: 45
      x: 61
      y: 119
      width: 33
      height: 13
      offsetX: 4
      offsetY: 56
      advance: 42
      channel: 15
      kerning: 
    - index: 46
      x: 80
      y: 802
      width: 16
      height: 15
      offsetX: 10
      offsetY: 87
      advance: 36
      channel: 15
      kerning: 
    - index: 47
      x: 240
      y: 254
      width: 50
      height: 99
      offsetX: 0
      offsetY: 11
      advance: 52
      channel: 15
      kerning: 
    - index: 48
      x: 364
      y: 745
      width: 60
      height: 94
      offsetX: 6
      offsetY: 9
      advance: 73
      channel: 15
      kerning: 
    - index: 49
      x: 970
      y: 841
      width: 35
      height: 91
      offsetX: 11
      offsetY: 11
      advance: 73
      channel: 15
      kerning: 
    - index: 50
      x: 176
      y: 158
      width: 62
      height: 93
      offsetX: 5
      offsetY: 9
      advance: 73
      channel: 15
      kerning: 
    - index: 51
      x: 240
      y: 745
      width: 61
      height: 94
      offsetX: 5
      offsetY: 9
      advance: 73
      channel: 15
      kerning: 
    - index: 52
      x: 698
      y: 933
      width: 66
      height: 91
      offsetX: 4
      offsetY: 11
      advance: 73
      channel: 15
      kerning: 
    - index: 53
      x: 500
      y: 840
      width: 59
      height: 92
      offsetX: 8
      offsetY: 11
      advance: 73
      channel: 15
      kerning: 
    - index: 54
      x: 176
      y: 350
      width: 62
      height: 94
      offsetX: 7
      offsetY: 9
      advance: 73
      channel: 15
      kerning: 
    - index: 55
      x: 310
      y: 840
      width: 63
      height: 92
      offsetX: 4
      offsetY: 10
      advance: 73
      channel: 15
      kerning: 
    - index: 56
      x: 176
      y: 63
      width: 61
      height: 94
      offsetX: 6
      offsetY: 9
      advance: 73
      channel: 15
      kerning: 
    - index: 57
      x: 302
      y: 745
      width: 61
      height: 94
      offsetX: 5
      offsetY: 9
      advance: 72
      channel: 15
      kerning: 
    - index: 58
      x: 82
      y: 446
      width: 16
      height: 70
      offsetX: 10
      offsetY: 32
      advance: 35
      channel: 15
      kerning: 
    - index: 59
      x: 80
      y: 818
      width: 21
      height: 87
      offsetX: 6
      offsetY: 33
      advance: 34
      channel: 15
      kerning: 
    - index: 60
      x: 542
      y: 779
      width: 53
      height: 60
      offsetX: 4
      offsetY: 37
      advance: 65
      channel: 15
      kerning: 
    - index: 61
      x: 738
      y: 800
      width: 54
      height: 39
      offsetX: 9
      offsetY: 40
      advance: 73
      channel: 15
      kerning: 
    - index: 62
      x: 176
      y: 3
      width: 54
      height: 59
      offsetX: 8
      offsetY: 38
      advance: 67
      channel: 15
      kerning: 
    - index: 63
      x: 485
      y: 746
      width: 56
      height: 93
      offsetX: 3
      offsetY: 9
      advance: 62
      channel: 15
      kerning: 
    - index: 64
      x: 0
      y: 906
      width: 103
      height: 118
      offsetX: 6
      offsetY: 12
      advance: 115
      channel: 15
      kerning: 
    - index: 65
      x: 0
      y: 517
      width: 81
      height: 92
      offsetX: 1
      offsetY: 11
      advance: 83
      channel: 15
      kerning: 
    - index: 66
      x: 176
      y: 840
      width: 66
      height: 92
      offsetX: 10
      offsetY: 10
      advance: 82
      channel: 15
      kerning: 
    - index: 67
      x: 104
      y: 649
      width: 70
      height: 94
      offsetX: 7
      offsetY: 9
      advance: 82
      channel: 15
      kerning: 
    - index: 68
      x: 104
      y: 182
      width: 69
      height: 92
      offsetX: 10
      offsetY: 10
      advance: 84
      channel: 15
      kerning: 
    - index: 69
      x: 437
      y: 840
      width: 62
      height: 92
      offsetX: 10
      offsetY: 10
      advance: 74
      channel: 15
      kerning: 
    - index: 70
      x: 374
      y: 840
      width: 62
      height: 92
      offsetX: 10
      offsetY: 10
      advance: 74
      channel: 15
      kerning: 
    - index: 71
      x: 104
      y: 838
      width: 71
      height: 94
      offsetX: 7
      offsetY: 9
      advance: 87
      channel: 15
      kerning: 
    - index: 72
      x: 462
      y: 933
      width: 71
      height: 91
      offsetX: 10
      offsetY: 11
      advance: 91
      channel: 15
      kerning: 
    - index: 73
      x: 82
      y: 518
      width: 16
      height: 91
      offsetX: 11
      offsetY: 11
      advance: 37
      channel: 15
      kerning: 
    - index: 74
      x: 425
      y: 746
      width: 59
      height: 93
      offsetX: 4
      offsetY: 10
      advance: 72
      channel: 15
      kerning: 
    - index: 75
      x: 291
      y: 933
      width: 73
      height: 91
      offsetX: 10
      offsetY: 11
      advance: 83
      channel: 15
      kerning: 
    - index: 76
      x: 765
      y: 933
      width: 57
      height: 91
      offsetX: 10
      offsetY: 11
      advance: 69
      channel: 15
      kerning: 
    - index: 77
      x: 0
      y: 705
      width: 92
      height: 91
      offsetX: 10
      offsetY: 11
      advance: 112
      channel: 15
      kerning: 
    - index: 78
      x: 534
      y: 933
      width: 71
      height: 91
      offsetX: 10
      offsetY: 11
      advance: 91
      channel: 15
      kerning: 
    - index: 79
      x: 0
      y: 23
      width: 75
      height: 94
      offsetX: 6
      offsetY: 9
      advance: 87
      channel: 15
      kerning: 
    - index: 80
      x: 104
      y: 89
      width: 68
      height: 92
      offsetX: 10
      offsetY: 10
      advance: 83
      channel: 15
      kerning: 
    - index: 81
      x: 0
      y: 797
      width: 79
      height: 108
      offsetX: 6
      offsetY: 9
      advance: 88
      channel: 15
      kerning: 
    - index: 82
      x: 104
      y: 275
      width: 70
      height: 92
      offsetX: 10
      offsetY: 10
      advance: 85
      channel: 15
      kerning: 
    - index: 83
      x: 104
      y: 554
      width: 69
      height: 94
      offsetX: 6
      offsetY: 9
      advance: 80
      channel: 15
      kerning: 
    - index: 84
      x: 104
      y: 368
      width: 70
      height: 92
      offsetX: 2
      offsetY: 10
      advance: 74
      channel: 15
      kerning: 
    - index: 85
      x: 104
      y: 744
      width: 71
      height: 93
      offsetX: 8
      offsetY: 10
      advance: 87
      channel: 15
      kerning: 
    - index: 86
      x: 0
      y: 425
      width: 81
      height: 91
      offsetX: 0
      offsetY: 11
      advance: 81
      channel: 15
      kerning: 
    - index: 87
      x: 104
      y: 933
      width: 109
      height: 91
      offsetX: 2
      offsetY: 11
      advance: 113
      channel: 15
      kerning: 
    - index: 88
      x: 214
      y: 933
      width: 76
      height: 91
      offsetX: 3
      offsetY: 11
      advance: 81
      channel: 15
      kerning: 
    - index: 89
      x: 0
      y: 333
      width: 79
      height: 91
      offsetX: 0
      offsetY: 11
      advance: 80
      channel: 15
      kerning: 
    - index: 90
      x: 243
      y: 840
      width: 66
      height: 92
      offsetX: 5
      offsetY: 10
      advance: 76
      channel: 15
      kerning: 
    - index: 91
      x: 301
      y: 102
      width: 26
      height: 126
      offsetX: 8
      offsetY: -4
      advance: 35
      channel: 15
      kerning: 
    - index: 92
      x: 240
      y: 354
      width: 54
      height: 99
      offsetX: 1
      offsetY: 11
      advance: 53
      channel: 15
      kerning: 
    - index: 93
      x: 301
      y: 229
      width: 27
      height: 126
      offsetX: 0
      offsetY: -4
      advance: 35
      channel: 15
      kerning: 
    - index: 94
      x: 688
      y: 793
      width: 49
      height: 46
      offsetX: 3
      offsetY: 10
      advance: 55
      channel: 15
      kerning: 
    - index: 95
      x: 0
      y: 9
      width: 57
      height: 13
      offsetX: 1
      offsetY: 101
      advance: 59
      channel: 15
      kerning: 
    - index: 96
      x: 61
      y: 133
      width: 29
      height: 17
      offsetX: 5
      offsetY: 9
      advance: 41
      channel: 15
      kerning: 
    - index: 97
      x: 949
      y: 953
      width: 59
      height: 71
      offsetX: 5
      offsetY: 32
      advance: 69
      channel: 15
      kerning: 
    - index: 98
      x: 176
      y: 644
      width: 60
      height: 99
      offsetX: 8
      offsetY: 4
      advance: 72
      channel: 15
      kerning: 
    - index: 99
      x: 560
      y: 861
      width: 58
      height: 71
      offsetX: 5
      offsetY: 32
      advance: 67
      channel: 15
      kerning: 
    - index: 100
      x: 176
      y: 445
      width: 59
      height: 99
      offsetX: 5
      offsetY: 4
      advance: 72
      channel: 15
      kerning: 
    - index: 101
      x: 619
      y: 861
      width: 58
      height: 71
      offsetX: 6
      offsetY: 32
      advance: 68
      channel: 15
      kerning: 
    - index: 102
      x: 337
      y: 644
      width: 43
      height: 100
      offsetX: 3
      offsetY: 3
      advance: 45
      channel: 15
      kerning: 
    - index: 103
      x: 176
      y: 252
      width: 60
      height: 97
      offsetX: 5
      offsetY: 32
      advance: 72
      channel: 15
      kerning: 
    - index: 104
      x: 240
      y: 454
      width: 57
      height: 98
      offsetX: 8
      offsetY: 4
      advance: 73
      channel: 15
      kerning: 
    - index: 105
      x: 76
      y: 19
      width: 16
      height: 98
      offsetX: 9
      offsetY: 4
      advance: 33
      channel: 15
      kerning: 
    - index: 106
      x: 301
      y: 356
      width: 31
      height: 125
      offsetX: -6
      offsetY: 4
      advance: 33
      channel: 15
      kerning: 
    - index: 107
      x: 176
      y: 545
      width: 60
      height: 98
      offsetX: 8
      offsetY: 4
      advance: 67
      channel: 15
      kerning: 
    - index: 108
      x: 280
      y: 155
      width: 16
      height: 98
      offsetX: 9
      offsetY: 4
      advance: 33
      channel: 15
      kerning: 
    - index: 109
      x: 365
      y: 955
      width: 96
      height: 69
      offsetX: 8
      offsetY: 33
      advance: 111
      channel: 15
      kerning: 
    - index: 110
      x: 741
      y: 863
      width: 57
      height: 69
      offsetX: 8
      offsetY: 33
      advance: 73
      channel: 15
      kerning: 
    - index: 111
      x: 823
      y: 953
      width: 62
      height: 71
      offsetX: 5
      offsetY: 32
      advance: 72
      channel: 15
      kerning: 
    - index: 112
      x: 240
      y: 649
      width: 60
      height: 95
      offsetX: 8
      offsetY: 33
      advance: 72
      channel: 15
      kerning: 
    - index: 113
      x: 240
      y: 553
      width: 59
      height: 95
      offsetX: 5
      offsetY: 33
      advance: 72
      channel: 15
      kerning: 
    - index: 114
      x: 651
      y: 770
      width: 36
      height: 69
      offsetX: 8
      offsetY: 33
      advance: 44
      channel: 15
      kerning: 
    - index: 115
      x: 857
      y: 862
      width: 56
      height: 70
      offsetX: 5
      offsetY: 33
      advance: 67
      channel: 15
      kerning: 
    - index: 116
      x: 61
      y: 151
      width: 39
      height: 86
      offsetX: 1
      offsetY: 17
      advance: 45
      channel: 15
      kerning: 
    - index: 117
      x: 799
      y: 863
      width: 57
      height: 69
      offsetX: 8
      offsetY: 34
      advance: 73
      channel: 15
      kerning: 
    - index: 118
      x: 886
      y: 956
      width: 62
      height: 68
      offsetX: 2
      offsetY: 34
      advance: 65
      channel: 15
      kerning: 
    - index: 119
      x: 606
      y: 956
      width: 91
      height: 68
      offsetX: 2
      offsetY: 34
      advance: 96
      channel: 15
      kerning: 
    - index: 120
      x: 104
      y: 20
      width: 61
      height: 68
      offsetX: 2
      offsetY: 34
      advance: 65
      channel: 15
      kerning: 
    - index: 121
      x: 176
      y: 744
      width: 63
      height: 95
      offsetX: 1
      offsetY: 34
      advance: 65
      channel: 15
      kerning: 
    - index: 122
      x: 914
      y: 864
      width: 55
      height: 68
      offsetX: 5
      offsetY: 34
      advance: 65
      channel: 15
      kerning: 
    - index: 123
      x: 240
      y: 6
      width: 38
      height: 123
      offsetX: 3
      offsetY: 2
      advance: 42
      channel: 15
      kerning: 
    - index: 124
      x: 279
      y: 21
      width: 10
      height: 108
      offsetX: 11
      offsetY: 11
      advance: 32
      channel: 15
      kerning: 
    - index: 125
      x: 240
      y: 130
      width: 39
      height: 123
      offsetX: 1
      offsetY: 2
      advance: 43
      channel: 15
      kerning: 
    - index: 126
      x: 793
      y: 812
      width: 71
      height: 27
      offsetX: 7
      offsetY: 51
      advance: 85
      channel: 15
      kerning: 
  mAtlas: {fileID: 11400000, guid: 122bd154975820042ba6d99b39ed64bd, type: 2}
  mReplacement: {fileID: 0}
  mSymbols: []
  mDynamicFont: {fileID: 0}
  mDynamicFontSize: 16
  mDynamicFontStyle: 0
--- !u!1001 &100100000
Prefab:
  m_ObjectHideFlags: 1
  serializedVersion: 2
  m_Modification:
    m_TransformParent: {fileID: 0}
    m_Modifications: []
    m_RemovedComponents: []
  m_ParentPrefab: {fileID: 0}
  m_RootGameObject: {fileID: 100000}
  m_IsPrefabParent: 1
  m_IsExploded: 1
