%YAML 1.1
%TAG !u! tag:unity3d.com,2011:
--- !u!74 &7400000
AnimationClip:
  m_ObjectHideFlags: 0
  m_PrefabParentObject: {fileID: 0}
  m_PrefabInternal: {fileID: 0}
  m_Name: Lasik
  serializedVersion: 4
  m_AnimationType: 2
  m_Compressed: 0
  m_UseHighQualityCurve: 1
  m_RotationCurves: []
  m_CompressedRotationCurves: []
  m_PositionCurves:
  - curve:
      serializedVersion: 2
      m_Curve:
      - time: .666666687
        value: {x: -.0100555606, y: .0705588087, z: -.00868780445}
        inSlope: {x: Infinity, y: Infinity, z: Infinity}
        outSlope: {x: Infinity, y: Infinity, z: Infinity}
        tangentMode: 1
      - time: .699999988
        value: {x: -.000641979277, y: .0741540939, z: -.00370785757}
        inSlope: {x: Infinity, y: Infinity, z: Infinity}
        outSlope: {x: Infinity, y: Infinity, z: Infinity}
        tangentMode: 0
      - time: .716666639
        value: {x: -.0100555606, y: .0705588087, z: -.00868780445}
        inSlope: {x: Infinity, y: Infinity, z: Infinity}
        outSlope: {x: Infinity, y: Infinity, z: Infinity}
        tangentMode: -989082031
      - time: .73333329
        value: {x: .013472029, y: .0699918568, z: -.00370785757}
        inSlope: {x: Infinity, y: Infinity, z: Infinity}
        outSlope: {x: Infinity, y: Infinity, z: Infinity}
        tangentMode: 10
      - time: .766666651
        value: {x: .013472029, y: .0699918568, z: -.00370785757}
        inSlope: {x: Infinity, y: Infinity, z: Infinity}
        outSlope: {x: Infinity, y: Infinity, z: Infinity}
        tangentMode: 1
      - time: .816666663
        value: {x: -.0100555606, y: .0705590025, z: -.00868780445}
        inSlope: {x: Infinity, y: Infinity, z: Infinity}
        outSlope: {x: Infinity, y: Infinity, z: Infinity}
        tangentMode: 0
      - time: .833333313
        value: {x: -.0100555606, y: .0705588087, z: -.00868780445}
        inSlope: {x: Infinity, y: Infinity, z: Infinity}
        outSlope: {x: Infinity, y: Infinity, z: Infinity}
        tangentMode: 1840221041
      - time: .850000024
        value: {x: .0103181368, y: .0705588758, z: -.00868780445}
        inSlope: {x: Infinity, y: Infinity, z: Infinity}
        outSlope: {x: Infinity, y: Infinity, z: Infinity}
        tangentMode: 21
      - time: .883333325
        value: {x: .0103181368, y: .0705588758, z: -.00868780445}
        inSlope: {x: Infinity, y: Infinity, z: Infinity}
        outSlope: {x: Infinity, y: Infinity, z: Infinity}
        tangentMode: 1
      - time: .900000036
        value: {x: -.0100555606, y: .0705588087, z: -.00868780445}
        inSlope: {x: Infinity, y: Infinity, z: Infinity}
        outSlope: {x: Infinity, y: Infinity, z: Infinity}
        tangentMode: 0
      - time: .916666687
        value: {x: -.00162853522, y: .0705588758, z: -.0114583001}
        inSlope: {x: Infinity, y: Infinity, z: Infinity}
        outSlope: {x: Infinity, y: Infinity, z: Infinity}
        tangentMode: 1399772264
      - time: .949999988
        value: {x: -.00162853522, y: .0705588758, z: -.0114583001}
        inSlope: {x: Infinity, y: Infinity, z: Infinity}
        outSlope: {x: Infinity, y: Infinity, z: Infinity}
        tangentMode: 32
      - time: .966666698
        value: {x: -.0100555606, y: .0705588087, z: -.00868780445}
        inSlope: {x: Infinity, y: Infinity, z: Infinity}
        outSlope: {x: Infinity, y: Infinity, z: Infinity}
        tangentMode: 1
      - time: .983333349
        value: {x: -.0180141963, y: .0688765272, z: -.00370785757}
        inSlope: {x: Infinity, y: Infinity, z: Infinity}
        outSlope: {x: Infinity, y: Infinity, z: Infinity}
        tangentMode: 0
      - time: 1.01666665
        value: {x: -.0180141963, y: .0688765272, z: -.00370785757}
        inSlope: {x: Infinity, y: Infinity, z: Infinity}
        outSlope: {x: Infinity, y: Infinity, z: Infinity}
        tangentMode: 1902012517
      - time: 1.0333333
        value: {x: -.0100555606, y: .0705588087, z: -.00868780445}
        inSlope: {x: Infinity, y: Infinity, z: Infinity}
        outSlope: {x: Infinity, y: Infinity, z: Infinity}
        tangentMode: 43
      - time: 1.04999995
        value: {x: -.000641979277, y: .0741540939, z: -.00370785757}
        inSlope: {x: Infinity, y: Infinity, z: Infinity}
        outSlope: {x: Infinity, y: Infinity, z: Infinity}
        tangentMode: 1
      - time: 1.08333337
        value: {x: -.000641979277, y: .0741540939, z: -.00370785757}
        inSlope: {x: Infinity, y: Infinity, z: Infinity}
        outSlope: {x: Infinity, y: Infinity, z: Infinity}
        tangentMode: 0
      - time: 1.10000002
        value: {x: -.0100555606, y: .0705588087, z: -.00868780445}
        inSlope: {x: Infinity, y: Infinity, z: Infinity}
        outSlope: {x: Infinity, y: Infinity, z: Infinity}
        tangentMode: 1303350129
      - time: 1.11666667
        value: {x: .013472029, y: .0699918568, z: -.00370785757}
        inSlope: {x: Infinity, y: Infinity, z: Infinity}
        outSlope: {x: Infinity, y: Infinity, z: Infinity}
        tangentMode: 54
      - time: 1.14999998
        value: {x: .013472029, y: .0699918568, z: -.00370785757}
        inSlope: {x: Infinity, y: Infinity, z: Infinity}
        outSlope: {x: Infinity, y: Infinity, z: Infinity}
        tangentMode: 1
      - time: 1.20000005
        value: {x: -.0100555606, y: .0705590025, z: -.00868780445}
        inSlope: {x: Infinity, y: Infinity, z: Infinity}
        outSlope: {x: Infinity, y: Infinity, z: Infinity}
        tangentMode: 0
      - time: 1.2166667
        value: {x: -.0100555606, y: .0705588087, z: -.00868780445}
        inSlope: {x: Infinity, y: Infinity, z: Infinity}
        outSlope: {x: Infinity, y: Infinity, z: Infinity}
        tangentMode: 774061138
      - time: 1.23333335
        value: {x: .0103181368, y: .0705588758, z: -.00868780445}
        inSlope: {x: Infinity, y: Infinity, z: Infinity}
        outSlope: {x: Infinity, y: Infinity, z: Infinity}
        tangentMode: 4
      - time: 1.26666665
        value: {x: .0103181368, y: .0705588758, z: -.00868780445}
        inSlope: {x: Infinity, y: Infinity, z: Infinity}
        outSlope: {x: Infinity, y: Infinity, z: Infinity}
        tangentMode: 6
      - time: 1.2833333
        value: {x: -.0100555606, y: .0705588087, z: -.00868780445}
        inSlope: {x: Infinity, y: Infinity, z: Infinity}
        outSlope: {x: Infinity, y: Infinity, z: Infinity}
        tangentMode: 0
      - time: 1.30000007
        value: {x: -.00162853522, y: .0705588758, z: -.0114583001}
        inSlope: {x: Infinity, y: Infinity, z: Infinity}
        outSlope: {x: Infinity, y: Infinity, z: Infinity}
        tangentMode: -956486630
      - time: 1.33333337
        value: {x: -.00162853522, y: .0705588758, z: -.0114583001}
        inSlope: {x: Infinity, y: Infinity, z: Infinity}
        outSlope: {x: Infinity, y: Infinity, z: Infinity}
        tangentMode: 0
      - time: 1.35000002
        value: {x: -.0100555606, y: .0705588087, z: -.00868780445}
        inSlope: {x: Infinity, y: Infinity, z: Infinity}
        outSlope: {x: Infinity, y: Infinity, z: Infinity}
        tangentMode: 15
      - time: 1.36666667
        value: {x: -.0180141963, y: .0688765272, z: -.00370785757}
        inSlope: {x: Infinity, y: Infinity, z: Infinity}
        outSlope: {x: Infinity, y: Infinity, z: Infinity}
        tangentMode: 0
      - time: 1.39999998
        value: {x: -.0180141963, y: .0688765272, z: -.00370785757}
        inSlope: {x: Infinity, y: Infinity, z: Infinity}
        outSlope: {x: Infinity, y: Infinity, z: Infinity}
        tangentMode: 1885432832
      - time: 1.41666663
        value: {x: -.0100555606, y: .0705588087, z: -.00868780445}
        inSlope: {x: Infinity, y: Infinity, z: Infinity}
        outSlope: {x: Infinity, y: Infinity, z: Infinity}
        tangentMode: 0
      - time: 1.43333328
        value: {x: -.000641979277, y: .0741540939, z: -.00370785757}
        inSlope: {x: Infinity, y: Infinity, z: Infinity}
        outSlope: {x: Infinity, y: Infinity, z: Infinity}
        tangentMode: 15
      - time: 1.4666667
        value: {x: -.000641979277, y: .0741540939, z: -.00370785757}
        inSlope: {x: Infinity, y: Infinity, z: Infinity}
        outSlope: {x: Infinity, y: Infinity, z: Infinity}
        tangentMode: 0
      - time: 1.48333335
        value: {x: -.0100555606, y: .0705588087, z: -.00868780445}
        inSlope: {x: Infinity, y: Infinity, z: Infinity}
        outSlope: {x: Infinity, y: Infinity, z: Infinity}
        tangentMode: 0
      - time: 1.5
        value: {x: .013472029, y: .0699918568, z: -.00370785757}
        inSlope: {x: Infinity, y: Infinity, z: Infinity}
        outSlope: {x: Infinity, y: Infinity, z: Infinity}
        tangentMode: 87
      - time: 1.5333333
        value: {x: .013472029, y: .0699918568, z: -.00370785757}
        inSlope: {x: Infinity, y: Infinity, z: Infinity}
        outSlope: {x: Infinity, y: Infinity, z: Infinity}
        tangentMode: 139174404
      m_PreInfinity: 2
      m_PostInfinity: 2
    path: Laser1
  m_ScaleCurves:
  - curve:
      serializedVersion: 2
      m_Curve:
      - time: .666666687
        value: {x: .35426119, y: 0, z: .35426119}
        inSlope: {x: Infinity, y: Infinity, z: Infinity}
        outSlope: {x: Infinity, y: Infinity, z: Infinity}
        tangentMode: 23464
      - time: .683333337
        value: {x: .35426119, y: .35426119, z: .35426119}
        inSlope: {x: Infinity, y: Infinity, z: Infinity}
        outSlope: {x: Infinity, y: Infinity, z: Infinity}
        tangentMode: 13812
      - time: .699999988
        value: {x: .35426119, y: 0, z: .35426119}
        inSlope: {x: Infinity, y: Infinity, z: Infinity}
        outSlope: {x: Infinity, y: Infinity, z: Infinity}
        tangentMode: 15948
      - time: .716666639
        value: {x: .35426119, y: 0, z: .35426119}
        inSlope: {x: Infinity, y: Infinity, z: Infinity}
        outSlope: {x: Infinity, y: Infinity, z: Infinity}
        tangentMode: -1144
      - time: .73333329
        value: {x: .35426119, y: .35426119, z: .35426119}
        inSlope: {x: Infinity, y: Infinity, z: Infinity}
        outSlope: {x: Infinity, y: Infinity, z: Infinity}
        tangentMode: 13992
      - time: .75
        value: {x: .35426119, y: .35426119, z: .35426119}
        inSlope: {x: Infinity, y: Infinity, z: Infinity}
        outSlope: {x: Infinity, y: Infinity, z: Infinity}
        tangentMode: 18724
      - time: .766666651
        value: {x: .35426119, y: 0, z: .35426119}
        inSlope: {x: Infinity, y: Infinity, z: Infinity}
        outSlope: {x: Infinity, y: Infinity, z: Infinity}
        tangentMode: 15348
      - time: .783333361
        value: {x: .35426119, y: .35426119, z: .35426119}
        inSlope: {x: Infinity, y: Infinity, z: Infinity}
        outSlope: {x: Infinity, y: Infinity, z: Infinity}
        tangentMode: 13886
      - time: .800000012
        value: {x: .35426119, y: .35426119, z: .35426119}
        inSlope: {x: Infinity, y: Infinity, z: Infinity}
        outSlope: {x: Infinity, y: Infinity, z: Infinity}
        tangentMode: 17930
      - time: .816666663
        value: {x: .35426119, y: 0, z: .35426119}
        inSlope: {x: Infinity, y: Infinity, z: Infinity}
        outSlope: {x: Infinity, y: Infinity, z: Infinity}
        tangentMode: 17128
      - time: .833333313
        value: {x: .35426119, y: 0, z: .35426119}
        inSlope: {x: Infinity, y: Infinity, z: Infinity}
        outSlope: {x: Infinity, y: Infinity, z: Infinity}
        tangentMode: 19120
      - time: .850000024
        value: {x: .35426119, y: .35426119, z: .35426119}
        inSlope: {x: Infinity, y: Infinity, z: Infinity}
        outSlope: {x: Infinity, y: Infinity, z: Infinity}
        tangentMode: 15182
      - time: .866666675
        value: {x: .35426119, y: .35426119, z: .35426119}
        inSlope: {x: Infinity, y: Infinity, z: Infinity}
        outSlope: {x: Infinity, y: Infinity, z: Infinity}
        tangentMode: 19646
      - time: .883333325
        value: {x: .35426119, y: 0, z: .35426119}
        inSlope: {x: Infinity, y: Infinity, z: Infinity}
        outSlope: {x: Infinity, y: Infinity, z: Infinity}
        tangentMode: 17674
      - time: .900000036
        value: {x: .35426119, y: 0, z: .35426119}
        inSlope: {x: Infinity, y: Infinity, z: Infinity}
        outSlope: {x: Infinity, y: Infinity, z: Infinity}
        tangentMode: 17740
      - time: .916666687
        value: {x: .35426119, y: .35426119, z: .35426119}
        inSlope: {x: Infinity, y: Infinity, z: Infinity}
        outSlope: {x: Infinity, y: Infinity, z: Infinity}
        tangentMode: 19798
      - time: .933333337
        value: {x: .35426119, y: .35426119, z: .35426119}
        inSlope: {x: Infinity, y: Infinity, z: Infinity}
        outSlope: {x: Infinity, y: Infinity, z: Infinity}
        tangentMode: 15914
      - time: .949999988
        value: {x: .35426119, y: 0, z: .35426119}
        inSlope: {x: Infinity, y: Infinity, z: Infinity}
        outSlope: {x: Infinity, y: Infinity, z: Infinity}
        tangentMode: 15262
      - time: .966666698
        value: {x: .35426119, y: 0, z: .35426119}
        inSlope: {x: Infinity, y: Infinity, z: Infinity}
        outSlope: {x: Infinity, y: Infinity, z: Infinity}
        tangentMode: 16000
      - time: .983333349
        value: {x: .35426119, y: .35426119, z: .35426119}
        inSlope: {x: Infinity, y: Infinity, z: Infinity}
        outSlope: {x: Infinity, y: Infinity, z: Infinity}
        tangentMode: 19710
      - time: 1
        value: {x: .35426119, y: .35426119, z: .35426119}
        inSlope: {x: Infinity, y: Infinity, z: Infinity}
        outSlope: {x: Infinity, y: Infinity, z: Infinity}
        tangentMode: 19822
      - time: 1.01666665
        value: {x: .35426119, y: 0, z: .35426119}
        inSlope: {x: Infinity, y: Infinity, z: Infinity}
        outSlope: {x: Infinity, y: Infinity, z: Infinity}
        tangentMode: 14480
      - time: 1.0333333
        value: {x: .35426119, y: 0, z: .35426119}
        inSlope: {x: Infinity, y: Infinity, z: Infinity}
        outSlope: {x: Infinity, y: Infinity, z: Infinity}
        tangentMode: 19728
      - time: 1.04999995
        value: {x: .35426119, y: .35426119, z: .35426119}
        inSlope: {x: Infinity, y: Infinity, z: Infinity}
        outSlope: {x: Infinity, y: Infinity, z: Infinity}
        tangentMode: 15344
      - time: 1.06666672
        value: {x: .35426119, y: .35426119, z: .35426119}
        inSlope: {x: Infinity, y: Infinity, z: Infinity}
        outSlope: {x: Infinity, y: Infinity, z: Infinity}
        tangentMode: 14486
      - time: 1.08333337
        value: {x: .35426119, y: 0, z: .35426119}
        inSlope: {x: Infinity, y: Infinity, z: Infinity}
        outSlope: {x: Infinity, y: Infinity, z: Infinity}
        tangentMode: 17412
      - time: 1.10000002
        value: {x: .35426119, y: 0, z: .35426119}
        inSlope: {x: Infinity, y: Infinity, z: Infinity}
        outSlope: {x: Infinity, y: Infinity, z: Infinity}
        tangentMode: 19222
      - time: 1.11666667
        value: {x: .35426119, y: .35426119, z: .35426119}
        inSlope: {x: Infinity, y: Infinity, z: Infinity}
        outSlope: {x: Infinity, y: Infinity, z: Infinity}
        tangentMode: 19708
      - time: 1.13333333
        value: {x: .35426119, y: .35426119, z: .35426119}
        inSlope: {x: Infinity, y: Infinity, z: Infinity}
        outSlope: {x: Infinity, y: Infinity, z: Infinity}
        tangentMode: 0
      - time: 1.14999998
        value: {x: .35426119, y: 0, z: .35426119}
        inSlope: {x: Infinity, y: Infinity, z: Infinity}
        outSlope: {x: Infinity, y: Infinity, z: Infinity}
        tangentMode: 840
      - time: 1.16666663
        value: {x: .35426119, y: .35426119, z: .35426119}
        inSlope: {x: Infinity, y: Infinity, z: Infinity}
        outSlope: {x: Infinity, y: Infinity, z: Infinity}
        tangentMode: 0
      - time: 1.18333328
        value: {x: .35426119, y: .35426119, z: .35426119}
        inSlope: {x: Infinity, y: Infinity, z: Infinity}
        outSlope: {x: Infinity, y: Infinity, z: Infinity}
        tangentMode: 0
      - time: 1.20000005
        value: {x: .35426119, y: 0, z: .35426119}
        inSlope: {x: Infinity, y: Infinity, z: Infinity}
        outSlope: {x: Infinity, y: Infinity, z: Infinity}
        tangentMode: -2147483648
      - time: 1.2166667
        value: {x: .35426119, y: 0, z: .35426119}
        inSlope: {x: Infinity, y: Infinity, z: Infinity}
        outSlope: {x: Infinity, y: Infinity, z: Infinity}
        tangentMode: 1090519039
      - time: 1.23333335
        value: {x: .35426119, y: .35426119, z: .35426119}
        inSlope: {x: Infinity, y: Infinity, z: Infinity}
        outSlope: {x: Infinity, y: Infinity, z: Infinity}
        tangentMode: 0
      - time: 1.25
        value: {x: .35426119, y: .35426119, z: .35426119}
        inSlope: {x: Infinity, y: Infinity, z: Infinity}
        outSlope: {x: Infinity, y: Infinity, z: Infinity}
        tangentMode: 0
      - time: 1.26666665
        value: {x: .35426119, y: 0, z: .35426119}
        inSlope: {x: Infinity, y: Infinity, z: Infinity}
        outSlope: {x: Infinity, y: Infinity, z: Infinity}
        tangentMode: 0
      - time: 1.2833333
        value: {x: .35426119, y: 0, z: .35426119}
        inSlope: {x: Infinity, y: Infinity, z: Infinity}
        outSlope: {x: Infinity, y: Infinity, z: Infinity}
        tangentMode: 1065353216
      - time: 1.30000007
        value: {x: .35426119, y: .35426119, z: .35426119}
        inSlope: {x: Infinity, y: Infinity, z: Infinity}
        outSlope: {x: Infinity, y: Infinity, z: Infinity}
        tangentMode: 1046232558
      - time: 1.31666672
        value: {x: .35426119, y: .35426119, z: .35426119}
        inSlope: {x: Infinity, y: Infinity, z: Infinity}
        outSlope: {x: Infinity, y: Infinity, z: Infinity}
        tangentMode: 1020380130
      - time: 1.33333337
        value: {x: .35426119, y: 0, z: .35426119}
        inSlope: {x: Infinity, y: Infinity, z: Infinity}
        outSlope: {x: Infinity, y: Infinity, z: Infinity}
        tangentMode: 1015377823
      - time: 1.35000002
        value: {x: .35426119, y: 0, z: .35426119}
        inSlope: {x: Infinity, y: Infinity, z: Infinity}
        outSlope: {x: Infinity, y: Infinity, z: Infinity}
        tangentMode: 0
      - time: 1.36666667
        value: {x: .35426119, y: .35426119, z: .35426119}
        inSlope: {x: Infinity, y: Infinity, z: Infinity}
        outSlope: {x: Infinity, y: Infinity, z: Infinity}
        tangentMode: 0
      - time: 1.38333333
        value: {x: .35426119, y: .35426119, z: .35426119}
        inSlope: {x: Infinity, y: Infinity, z: Infinity}
        outSlope: {x: Infinity, y: Infinity, z: Infinity}
        tangentMode: 1203982336
      - time: 1.39999998
        value: {x: .35426119, y: 0, z: .35426119}
        inSlope: {x: Infinity, y: Infinity, z: Infinity}
        outSlope: {x: Infinity, y: Infinity, z: Infinity}
        tangentMode: 1056964608
      - time: 1.41666663
        value: {x: .35426119, y: 0, z: .35426119}
        inSlope: {x: Infinity, y: Infinity, z: Infinity}
        outSlope: {x: Infinity, y: Infinity, z: Infinity}
        tangentMode: 0
      - time: 1.43333328
        value: {x: .35426119, y: .35426119, z: .35426119}
        inSlope: {x: Infinity, y: Infinity, z: Infinity}
        outSlope: {x: Infinity, y: Infinity, z: Infinity}
        tangentMode: 0
      - time: 1.45000005
        value: {x: .35426119, y: .35426119, z: .35426119}
        inSlope: {x: Infinity, y: Infinity, z: Infinity}
        outSlope: {x: Infinity, y: Infinity, z: Infinity}
        tangentMode: 0
      - time: 1.4666667
        value: {x: .35426119, y: 0, z: .35426119}
        inSlope: {x: Infinity, y: Infinity, z: Infinity}
        outSlope: {x: Infinity, y: Infinity, z: Infinity}
        tangentMode: 1065353216
      - time: 1.48333335
        value: {x: .35426119, y: 0, z: .35426119}
        inSlope: {x: Infinity, y: Infinity, z: Infinity}
        outSlope: {x: Infinity, y: Infinity, z: Infinity}
        tangentMode: 0
      - time: 1.5
        value: {x: .35426119, y: .35426119, z: .35426119}
        inSlope: {x: Infinity, y: Infinity, z: Infinity}
        outSlope: {x: Infinity, y: Infinity, z: Infinity}
        tangentMode: 236
      - time: 1.51666665
        value: {x: .35426119, y: .35426119, z: .35426119}
        inSlope: {x: Infinity, y: Infinity, z: Infinity}
        outSlope: {x: Infinity, y: Infinity, z: Infinity}
        tangentMode: 0
      - time: 1.5333333
        value: {x: .35426119, y: 0, z: .35426119}
        inSlope: {x: Infinity, y: Infinity, z: Infinity}
        outSlope: {x: Infinity, y: Infinity, z: Infinity}
        tangentMode: 10023
      m_PreInfinity: 2
      m_PostInfinity: 2
    path: Laser1
  m_FloatCurves:
  - curve:
      serializedVersion: 2
      m_Curve:
      - time: .666666687
        value: 0
        inSlope: Infinity
        outSlope: Infinity
        tangentMode: 31
      - time: .683333337
        value: 1.55999994
        inSlope: Infinity
        outSlope: Infinity
        tangentMode: 31
      - time: .699999988
        value: 0
        inSlope: Infinity
        outSlope: Infinity
        tangentMode: 31
      - time: .716666639
        value: 0
        inSlope: Infinity
        outSlope: Infinity
        tangentMode: 31
      - time: .73333329
        value: 1.55999994
        inSlope: Infinity
        outSlope: Infinity
        tangentMode: 31
      - time: .75
        value: 1.55999994
        inSlope: Infinity
        outSlope: Infinity
        tangentMode: 31
      - time: .766666651
        value: 0
        inSlope: Infinity
        outSlope: Infinity
        tangentMode: 31
      - time: .783333361
        value: 1.55999994
        inSlope: Infinity
        outSlope: Infinity
        tangentMode: 31
      - time: .800000012
        value: 1.55999994
        inSlope: Infinity
        outSlope: Infinity
        tangentMode: 31
      - time: .816666663
        value: 0
        inSlope: Infinity
        outSlope: Infinity
        tangentMode: 31
      - time: .833333313
        value: 0
        inSlope: Infinity
        outSlope: Infinity
        tangentMode: 31
      - time: .850000024
        value: 1.55999994
        inSlope: Infinity
        outSlope: Infinity
        tangentMode: 31
      - time: .866666675
        value: 1.55999994
        inSlope: Infinity
        outSlope: Infinity
        tangentMode: 31
      - time: .883333325
        value: 0
        inSlope: Infinity
        outSlope: Infinity
        tangentMode: 31
      - time: .900000036
        value: 0
        inSlope: Infinity
        outSlope: Infinity
        tangentMode: 31
      - time: .916666687
        value: 1.55999994
        inSlope: Infinity
        outSlope: Infinity
        tangentMode: 31
      - time: .933333337
        value: 1.55999994
        inSlope: Infinity
        outSlope: Infinity
        tangentMode: 31
      - time: .949999988
        value: 0
        inSlope: Infinity
        outSlope: Infinity
        tangentMode: 31
      - time: .966666698
        value: 0
        inSlope: Infinity
        outSlope: Infinity
        tangentMode: 31
      - time: .983333349
        value: 1.55999994
        inSlope: Infinity
        outSlope: Infinity
        tangentMode: 31
      - time: 1
        value: 1.55999994
        inSlope: Infinity
        outSlope: Infinity
        tangentMode: 31
      - time: 1.01666665
        value: 0
        inSlope: Infinity
        outSlope: Infinity
        tangentMode: 31
      - time: 1.0333333
        value: 0
        inSlope: Infinity
        outSlope: Infinity
        tangentMode: 31
      - time: 1.04999995
        value: 1.55999994
        inSlope: Infinity
        outSlope: Infinity
        tangentMode: 31
      - time: 1.06666672
        value: 1.55999994
        inSlope: Infinity
        outSlope: Infinity
        tangentMode: 31
      - time: 1.08333337
        value: 0
        inSlope: Infinity
        outSlope: Infinity
        tangentMode: 31
      - time: 1.10000002
        value: 0
        inSlope: Infinity
        outSlope: Infinity
        tangentMode: 31
      - time: 1.11666667
        value: 1.55999994
        inSlope: Infinity
        outSlope: Infinity
        tangentMode: 31
      - time: 1.13333333
        value: 1.55999994
        inSlope: Infinity
        outSlope: Infinity
        tangentMode: 31
      - time: 1.14999998
        value: 0
        inSlope: Infinity
        outSlope: Infinity
        tangentMode: 31
      - time: 1.16666663
        value: 1.55999994
        inSlope: Infinity
        outSlope: Infinity
        tangentMode: 31
      - time: 1.18333328
        value: 1.55999994
        inSlope: Infinity
        outSlope: Infinity
        tangentMode: 31
      - time: 1.20000005
        value: 0
        inSlope: Infinity
        outSlope: Infinity
        tangentMode: 31
      - time: 1.2166667
        value: 0
        inSlope: Infinity
        outSlope: Infinity
        tangentMode: 31
      - time: 1.23333335
        value: 1.55999994
        inSlope: Infinity
        outSlope: Infinity
        tangentMode: 31
      - time: 1.25
        value: 1.55999994
        inSlope: Infinity
        outSlope: Infinity
        tangentMode: 31
      - time: 1.26666665
        value: 0
        inSlope: Infinity
        outSlope: Infinity
        tangentMode: 31
      - time: 1.2833333
        value: 0
        inSlope: Infinity
        outSlope: Infinity
        tangentMode: 31
      - time: 1.30000007
        value: 1.55999994
        inSlope: Infinity
        outSlope: Infinity
        tangentMode: 31
      - time: 1.31666672
        value: 1.55999994
        inSlope: Infinity
        outSlope: Infinity
        tangentMode: 31
      - time: 1.33333337
        value: 0
        inSlope: Infinity
        outSlope: Infinity
        tangentMode: 31
      - time: 1.35000002
        value: 0
        inSlope: Infinity
        outSlope: Infinity
        tangentMode: 31
      - time: 1.36666667
        value: 1.55999994
        inSlope: Infinity
        outSlope: Infinity
        tangentMode: 31
      - time: 1.38333333
        value: 1.55999994
        inSlope: Infinity
        outSlope: Infinity
        tangentMode: 31
      - time: 1.39999998
        value: 0
        inSlope: Infinity
        outSlope: Infinity
        tangentMode: 31
      - time: 1.41666663
        value: 0
        inSlope: Infinity
        outSlope: Infinity
        tangentMode: 31
      - time: 1.43333328
        value: 1.55999994
        inSlope: Infinity
        outSlope: Infinity
        tangentMode: 31
      - time: 1.45000005
        value: 1.55999994
        inSlope: Infinity
        outSlope: Infinity
        tangentMode: 31
      - time: 1.4666667
        value: 0
        inSlope: Infinity
        outSlope: Infinity
        tangentMode: 31
      - time: 1.48333335
        value: 0
        inSlope: Infinity
        outSlope: Infinity
        tangentMode: 31
      - time: 1.5
        value: 1.55999994
        inSlope: Infinity
        outSlope: Infinity
        tangentMode: 31
      - time: 1.51666665
        value: 1.55999994
        inSlope: Infinity
        outSlope: Infinity
        tangentMode: 31
      - time: 1.5333333
        value: 0
        inSlope: Infinity
        outSlope: Infinity
        tangentMode: 31
      m_PreInfinity: 2
      m_PostInfinity: 2
    attribute: m_Intensity
    path: Laser1/Point light
    classID: 108
    script: {fileID: 0}
  - curve:
      serializedVersion: 2
      m_Curve:
      - time: .666666687
        value: 100
        inSlope: Infinity
        outSlope: Infinity
        tangentMode: 31
      m_PreInfinity: 2
      m_PostInfinity: 2
    attribute: blendShape.blendShape2.Flap6
    path: Flap
    classID: 137
    script: {fileID: 0}
  - curve:
      serializedVersion: 2
      m_Curve:
      - time: .666666687
        value: .500016987
        inSlope: Infinity
        outSlope: Infinity
        tangentMode: 31
      m_PreInfinity: 2
      m_PostInfinity: 2
    attribute: material._Color.r
    path: Flap
    classID: 137
    script: {fileID: 0}
  - curve:
      serializedVersion: 2
      m_Curve:
      - time: .666666687
        value: .500016987
        inSlope: Infinity
        outSlope: Infinity
        tangentMode: 31
      m_PreInfinity: 2
      m_PostInfinity: 2
    attribute: material._Color.g
    path: Flap
    classID: 137
    script: {fileID: 0}
  - curve:
      serializedVersion: 2
      m_Curve:
      - time: .666666687
        value: .500016987
        inSlope: Infinity
        outSlope: Infinity
        tangentMode: 31
      m_PreInfinity: 2
      m_PostInfinity: 2
    attribute: material._Color.b
    path: Flap
    classID: 137
    script: {fileID: 0}
  - curve:
      serializedVersion: 2
      m_Curve:
      - time: .666666687
        value: 0
        inSlope: Infinity
        outSlope: Infinity
        tangentMode: 31
      m_PreInfinity: 2
      m_PostInfinity: 2
    attribute: material._Color.a
    path: Flap
    classID: 137
    script: {fileID: 0}
  - curve:
      serializedVersion: 2
      m_Curve:
      - time: 0
        value: 0
        inSlope: 29.9999981
        outSlope: 29.9999981
        tangentMode: 10
      - time: .0333333351
        value: 1
        inSlope: 29.9999981
        outSlope: 29.9999981
        tangentMode: 10
      m_PreInfinity: 2
      m_PostInfinity: 2
    attribute: material._SpecInt
    path: Flap
    classID: 137
    script: {fileID: 0}
  - curve:
      serializedVersion: 2
      m_Curve:
      - time: .666666687
        value: .25
        inSlope: Infinity
        outSlope: Infinity
        tangentMode: 31
      m_PreInfinity: 2
      m_PostInfinity: 2
    attribute: m_Range
    path: Laser1/Point light
    classID: 108
    script: {fileID: 0}
  - curve:
      serializedVersion: 2
      m_Curve:
      - time: .550000012
        value: 0
        inSlope: 857.142822
        outSlope: 857.142822
        tangentMode: 21
      - time: .666666687
        value: 100
        inSlope: 857.142822
        outSlope: Infinity
        tangentMode: 21
      m_PreInfinity: 2
      m_PostInfinity: 2
    attribute: blendShape.blendShape6.Flap6
    path: Flap
    classID: 137
    script: {fileID: 0}
  - curve:
      serializedVersion: 2
      m_Curve:
      - time: .666666687
        value: .0635901466
        inSlope: Infinity
        outSlope: Infinity
        tangentMode: 31
      m_PreInfinity: 2
      m_PostInfinity: 2
    attribute: m_Color.r
    path: Laser1/Point light
    classID: 108
    script: {fileID: 0}
  - curve:
      serializedVersion: 2
      m_Curve:
      - time: .666666687
        value: 0
        inSlope: Infinity
        outSlope: Infinity
        tangentMode: 31
      m_PreInfinity: 2
      m_PostInfinity: 2
    attribute: m_Color.g
    path: Laser1/Point light
    classID: 108
    script: {fileID: 0}
  - curve:
      serializedVersion: 2
      m_Curve:
      - time: .666666687
        value: .838235259
        inSlope: Infinity
        outSlope: Infinity
        tangentMode: 31
      m_PreInfinity: 2
      m_PostInfinity: 2
    attribute: m_Color.b
    path: Laser1/Point light
    classID: 108
    script: {fileID: 0}
  - curve:
      serializedVersion: 2
      m_Curve:
      - time: .666666687
        value: 0
        inSlope: Infinity
        outSlope: Infinity
        tangentMode: 31
      - time: .683333337
        value: 1
        inSlope: Infinity
        outSlope: Infinity
        tangentMode: 31
      - time: .699999988
        value: 0
        inSlope: Infinity
        outSlope: Infinity
        tangentMode: 31
      - time: .716666639
        value: 0
        inSlope: Infinity
        outSlope: Infinity
        tangentMode: 31
      - time: .733333349
        value: 1
        inSlope: Infinity
        outSlope: Infinity
        tangentMode: 31
      - time: .766666651
        value: 0
        inSlope: Infinity
        outSlope: Infinity
        tangentMode: 31
      - time: .800000012
        value: 1
        inSlope: Infinity
        outSlope: Infinity
        tangentMode: 31
      - time: .816666663
        value: 0
        inSlope: Infinity
        outSlope: Infinity
        tangentMode: 31
      - time: .833333313
        value: 0
        inSlope: Infinity
        outSlope: Infinity
        tangentMode: 31
      - time: .850000024
        value: 1
        inSlope: Infinity
        outSlope: Infinity
        tangentMode: 31
      - time: .883333325
        value: 0
        inSlope: Infinity
        outSlope: Infinity
        tangentMode: 31
      - time: .916666687
        value: 1
        inSlope: Infinity
        outSlope: Infinity
        tangentMode: 31
      - time: .949999988
        value: 0
        inSlope: Infinity
        outSlope: Infinity
        tangentMode: 31
      - time: .983333349
        value: 1
        inSlope: Infinity
        outSlope: Infinity
        tangentMode: 31
      - time: 1.01666665
        value: 0
        inSlope: Infinity
        outSlope: Infinity
        tangentMode: 31
      - time: 1.0333333
        value: 0
        inSlope: Infinity
        outSlope: Infinity
        tangentMode: 31
      - time: 1.04999995
        value: 1
        inSlope: Infinity
        outSlope: Infinity
        tangentMode: 31
      - time: 1.08333337
        value: 0
        inSlope: Infinity
        outSlope: Infinity
        tangentMode: 31
      - time: 1.10000002
        value: 0
        inSlope: Infinity
        outSlope: Infinity
        tangentMode: 31
      - time: 1.11666667
        value: 1
        inSlope: Infinity
        outSlope: Infinity
        tangentMode: 31
      - time: 1.14999998
        value: 0
        inSlope: Infinity
        outSlope: Infinity
        tangentMode: 31
      - time: 1.16666663
        value: 1
        inSlope: Infinity
        outSlope: Infinity
        tangentMode: 31
      - time: 1.20000005
        value: 0
        inSlope: Infinity
        outSlope: Infinity
        tangentMode: 31
      - time: 1.23333335
        value: 1
        inSlope: Infinity
        outSlope: Infinity
        tangentMode: 31
      - time: 1.26666665
        value: 0
        inSlope: Infinity
        outSlope: Infinity
        tangentMode: 31
      - time: 1.2833333
        value: 0
        inSlope: Infinity
        outSlope: Infinity
        tangentMode: 31
      - time: 1.29999995
        value: 0
        inSlope: Infinity
        outSlope: Infinity
        tangentMode: 31
      - time: 1.31666672
        value: 1
        inSlope: Infinity
        outSlope: Infinity
        tangentMode: 31
      - time: 1.33333337
        value: 0
        inSlope: Infinity
        outSlope: Infinity
        tangentMode: 31
      - time: 1.36666667
        value: 1
        inSlope: Infinity
        outSlope: Infinity
        tangentMode: 31
      - time: 1.39999998
        value: 0
        inSlope: Infinity
        outSlope: Infinity
        tangentMode: 31
      - time: 1.41666663
        value: 0
        inSlope: Infinity
        outSlope: Infinity
        tangentMode: 31
      - time: 1.43333328
        value: 1
        inSlope: Infinity
        outSlope: Infinity
        tangentMode: 31
      - time: 1.4666667
        value: 0
        inSlope: Infinity
        outSlope: Infinity
        tangentMode: 31
      - time: 1.48333335
        value: 0
        inSlope: Infinity
        outSlope: Infinity
        tangentMode: 31
      - time: 1.5
        value: 1
        inSlope: Infinity
        outSlope: Infinity
        tangentMode: 31
      - time: 1.5333333
        value: 0
        inSlope: Infinity
        outSlope: Infinity
        tangentMode: 31
      m_PreInfinity: 2
      m_PostInfinity: 2
    attribute: m_Enabled
    path: Laser1
    classID: 23
    script: {fileID: 0}
  - curve:
      serializedVersion: 2
      m_Curve:
      - time: 0
        value: 0
        inSlope: 500
        outSlope: 500
        tangentMode: 21
      - time: .200000003
        value: 100
        inSlope: 500
        outSlope: -600
        tangentMode: 21
      - time: .366666675
        value: 0
        inSlope: -600
        outSlope: -600
        tangentMode: 21
      m_PreInfinity: 2
      m_PostInfinity: 2
    attribute: blendShape.blendShape6.Flap4
    path: Flap
    classID: 137
    script: {fileID: 0}
  - curve:
      serializedVersion: 2
      m_Curve:
      - time: .116666667
        value: 0
        inSlope: 338.399994
        outSlope: 338.399994
        tangentMode: 21
      - time: .366666675
        value: 84.5999985
        inSlope: 338.399994
        outSlope: -341
        tangentMode: 21
      - time: .466666669
        value: 50.5
        inSlope: -341
        outSlope: -378.749939
        tangentMode: 21
      - time: .600000024
        value: 0
        inSlope: -378.749939
        outSlope: -378.749939
        tangentMode: 21
      m_PreInfinity: 2
      m_PostInfinity: 2
    attribute: blendShape.blendShape6.Flap5
    path: Flap
    classID: 137
    script: {fileID: 0}
  - curve:
      serializedVersion: 2
      m_Curve:
      - time: .283333331
        value: 0
        inSlope: 315.818176
        outSlope: 315.818176
        tangentMode: 21
      - time: .466666669
        value: 57.9000015
        inSlope: 315.818176
        outSlope: 315.749939
        tangentMode: 21
      - time: .600000024
        value: 100
        inSlope: 315.749939
        outSlope: -1500.00012
        tangentMode: 21
      - time: .666666687
        value: 0
        inSlope: -1500.00012
        outSlope: Infinity
        tangentMode: 21
      m_PreInfinity: 2
      m_PostInfinity: 2
    attribute: blendShape.blendShape6.Flap7
    path: Flap
    classID: 137
    script: {fileID: 0}
  - curve:
      serializedVersion: 2
      m_Curve:
      - time: 0
        value: 0
        inSlope: Infinity
        outSlope: Infinity
        tangentMode: 31
      - time: .0166666675
        value: 1
        inSlope: Infinity
        outSlope: Infinity
        tangentMode: 31
      m_PreInfinity: 2
      m_PostInfinity: 2
    attribute: m_IsActive
    path: Flap
    classID: 1
    script: {fileID: 0}
  m_PPtrCurves: []
  m_SampleRate: 60
  m_WrapMode: 0
  m_Bounds:
    m_Center: {x: 0, y: 0, z: 0}
    m_Extent: {x: 0, y: 0, z: 0}
  m_ClipBindingConstant:
    genericBindings:
    - path: 374024382
      attribute: 1
      script: {fileID: 0}
      classID: 4
      customType: 0
      isPPtrCurve: 0
    - path: 374024382
      attribute: 3
      script: {fileID: 0}
      classID: 4
      customType: 0
      isPPtrCurve: 0
    - path: 3593534569
      attribute: 898800009
      script: {fileID: 0}
      classID: 108
      customType: 0
      isPPtrCurve: 0
    - path: 4061512035
      attribute: 4061560032
      script: {fileID: 0}
      classID: 137
      customType: 20
      isPPtrCurve: 0
    - path: 4061512035
      attribute: 1303350129
      script: {fileID: 0}
      classID: 137
      customType: 22
      isPPtrCurve: 0
    - path: 4061512035
      attribute: 1571785585
      script: {fileID: 0}
      classID: 137
      customType: 22
      isPPtrCurve: 0
    - path: 4061512035
      attribute: 1840221041
      script: {fileID: 0}
      classID: 137
      customType: 22
      isPPtrCurve: 0
    - path: 4061512035
      attribute: 2108656497
      script: {fileID: 0}
      classID: 137
      customType: 22
      isPPtrCurve: 0
    - path: 4061512035
      attribute: 2334598523
      script: {fileID: 0}
      classID: 137
      customType: 22
      isPPtrCurve: 0
    - path: 3593534569
      attribute: 514968105
      script: {fileID: 0}
      classID: 108
      customType: 0
      isPPtrCurve: 0
    - path: 4061512035
      attribute: 106518771
      script: {fileID: 0}
      classID: 137
      customType: 20
      isPPtrCurve: 0
    - path: 3593534569
      attribute: 2526845255
      script: {fileID: 0}
      classID: 108
      customType: 0
      isPPtrCurve: 0
    - path: 3593534569
      attribute: 4215373228
      script: {fileID: 0}
      classID: 108
      customType: 0
      isPPtrCurve: 0
    - path: 3593534569
      attribute: 2334886179
      script: {fileID: 0}
      classID: 108
      customType: 0
      isPPtrCurve: 0
    - path: 374024382
      attribute: 3305885265
      script: {fileID: 0}
      classID: 23
      customType: 0
      isPPtrCurve: 0
    - path: 4061512035
      attribute: 3898030559
      script: {fileID: 0}
      classID: 137
      customType: 20
      isPPtrCurve: 0
    - path: 4061512035
      attribute: 2672822601
      script: {fileID: 0}
      classID: 137
      customType: 20
      isPPtrCurve: 0
    - path: 4061512035
      attribute: 1902012517
      script: {fileID: 0}
      classID: 137
      customType: 20
      isPPtrCurve: 0
    - path: 4061512035
      attribute: 2086281974
      script: {fileID: 0}
      classID: 1
      customType: 0
      isPPtrCurve: 0
    pptrCurveMapping: []
  m_AnimationClipSettings:
    serializedVersion: 2
    m_StartTime: 0
    m_StopTime: 1.5333333
    m_OrientationOffsetY: 0
    m_Level: 0
    m_CycleOffset: 0
    m_LoopTime: 1
    m_LoopBlend: 0
    m_LoopBlendOrientation: 0
    m_LoopBlendPositionY: 0
    m_LoopBlendPositionXZ: 0
    m_KeepOriginalOrientation: 0
    m_KeepOriginalPositionY: 1
    m_KeepOriginalPositionXZ: 0
    m_HeightFromFeet: 0
    m_Mirror: 0
  m_EditorCurves:
  - curve:
      serializedVersion: 2
      m_Curve:
      - time: .666666687
        value: 0
        inSlope: Infinity
        outSlope: Infinity
        tangentMode: 31
      - time: .683333337
        value: 1.55999994
        inSlope: Infinity
        outSlope: Infinity
        tangentMode: 31
      - time: .699999988
        value: 0
        inSlope: Infinity
        outSlope: Infinity
        tangentMode: 31
      - time: .716666639
        value: 0
        inSlope: Infinity
        outSlope: Infinity
        tangentMode: 31
      - time: .73333329
        value: 1.55999994
        inSlope: Infinity
        outSlope: Infinity
        tangentMode: 31
      - time: .75
        value: 1.55999994
        inSlope: Infinity
        outSlope: Infinity
        tangentMode: 31
      - time: .766666651
        value: 0
        inSlope: Infinity
        outSlope: Infinity
        tangentMode: 31
      - time: .783333361
        value: 1.55999994
        inSlope: Infinity
        outSlope: Infinity
        tangentMode: 31
      - time: .800000012
        value: 1.55999994
        inSlope: Infinity
        outSlope: Infinity
        tangentMode: 31
      - time: .816666663
        value: 0
        inSlope: Infinity
        outSlope: Infinity
        tangentMode: 31
      - time: .833333313
        value: 0
        inSlope: Infinity
        outSlope: Infinity
        tangentMode: 31
      - time: .850000024
        value: 1.55999994
        inSlope: Infinity
        outSlope: Infinity
        tangentMode: 31
      - time: .866666675
        value: 1.55999994
        inSlope: Infinity
        outSlope: Infinity
        tangentMode: 31
      - time: .883333325
        value: 0
        inSlope: Infinity
        outSlope: Infinity
        tangentMode: 31
      - time: .900000036
        value: 0
        inSlope: Infinity
        outSlope: Infinity
        tangentMode: 31
      - time: .916666687
        value: 1.55999994
        inSlope: Infinity
        outSlope: Infinity
        tangentMode: 31
      - time: .933333337
        value: 1.55999994
        inSlope: Infinity
        outSlope: Infinity
        tangentMode: 31
      - time: .949999988
        value: 0
        inSlope: Infinity
        outSlope: Infinity
        tangentMode: 31
      - time: .966666698
        value: 0
        inSlope: Infinity
        outSlope: Infinity
        tangentMode: 31
      - time: .983333349
        value: 1.55999994
        inSlope: Infinity
        outSlope: Infinity
        tangentMode: 31
      - time: 1
        value: 1.55999994
        inSlope: Infinity
        outSlope: Infinity
        tangentMode: 31
      - time: 1.01666665
        value: 0
        inSlope: Infinity
        outSlope: Infinity
        tangentMode: 31
      - time: 1.0333333
        value: 0
        inSlope: Infinity
        outSlope: Infinity
        tangentMode: 31
      - time: 1.04999995
        value: 1.55999994
        inSlope: Infinity
        outSlope: Infinity
        tangentMode: 31
      - time: 1.06666672
        value: 1.55999994
        inSlope: Infinity
        outSlope: Infinity
        tangentMode: 31
      - time: 1.08333337
        value: 0
        inSlope: Infinity
        outSlope: Infinity
        tangentMode: 31
      - time: 1.10000002
        value: 0
        inSlope: Infinity
        outSlope: Infinity
        tangentMode: 31
      - time: 1.11666667
        value: 1.55999994
        inSlope: Infinity
        outSlope: Infinity
        tangentMode: 31
      - time: 1.13333333
        value: 1.55999994
        inSlope: Infinity
        outSlope: Infinity
        tangentMode: 31
      - time: 1.14999998
        value: 0
        inSlope: Infinity
        outSlope: Infinity
        tangentMode: 31
      - time: 1.16666663
        value: 1.55999994
        inSlope: Infinity
        outSlope: Infinity
        tangentMode: 31
      - time: 1.18333328
        value: 1.55999994
        inSlope: Infinity
        outSlope: Infinity
        tangentMode: 31
      - time: 1.20000005
        value: 0
        inSlope: Infinity
        outSlope: Infinity
        tangentMode: 31
      - time: 1.2166667
        value: 0
        inSlope: Infinity
        outSlope: Infinity
        tangentMode: 31
      - time: 1.23333335
        value: 1.55999994
        inSlope: Infinity
        outSlope: Infinity
        tangentMode: 31
      - time: 1.25
        value: 1.55999994
        inSlope: Infinity
        outSlope: Infinity
        tangentMode: 31
      - time: 1.26666665
        value: 0
        inSlope: Infinity
        outSlope: Infinity
        tangentMode: 31
      - time: 1.2833333
        value: 0
        inSlope: Infinity
        outSlope: Infinity
        tangentMode: 31
      - time: 1.30000007
        value: 1.55999994
        inSlope: Infinity
        outSlope: Infinity
        tangentMode: 31
      - time: 1.31666672
        value: 1.55999994
        inSlope: Infinity
        outSlope: Infinity
        tangentMode: 31
      - time: 1.33333337
        value: 0
        inSlope: Infinity
        outSlope: Infinity
        tangentMode: 31
      - time: 1.35000002
        value: 0
        inSlope: Infinity
        outSlope: Infinity
        tangentMode: 31
      - time: 1.36666667
        value: 1.55999994
        inSlope: Infinity
        outSlope: Infinity
        tangentMode: 31
      - time: 1.38333333
        value: 1.55999994
        inSlope: Infinity
        outSlope: Infinity
        tangentMode: 31
      - time: 1.39999998
        value: 0
        inSlope: Infinity
        outSlope: Infinity
        tangentMode: 31
      - time: 1.41666663
        value: 0
        inSlope: Infinity
        outSlope: Infinity
        tangentMode: 31
      - time: 1.43333328
        value: 1.55999994
        inSlope: Infinity
        outSlope: Infinity
        tangentMode: 31
      - time: 1.45000005
        value: 1.55999994
        inSlope: Infinity
        outSlope: Infinity
        tangentMode: 31
      - time: 1.4666667
        value: 0
        inSlope: Infinity
        outSlope: Infinity
        tangentMode: 31
      - time: 1.48333335
        value: 0
        inSlope: Infinity
        outSlope: Infinity
        tangentMode: 31
      - time: 1.5
        value: 1.55999994
        inSlope: Infinity
        outSlope: Infinity
        tangentMode: 31
      - time: 1.51666665
        value: 1.55999994
        inSlope: Infinity
        outSlope: Infinity
        tangentMode: 31
      - time: 1.5333333
        value: 0
        inSlope: Infinity
        outSlope: Infinity
        tangentMode: 31
      m_PreInfinity: 2
      m_PostInfinity: 2
    attribute: m_Intensity
    path: Laser1/Point light
    classID: 108
    script: {fileID: 0}
  - curve:
      serializedVersion: 2
      m_Curve:
      - time: .666666687
        value: -.0100555606
        inSlope: Infinity
        outSlope: Infinity
        tangentMode: 31
      - time: .699999988
        value: -.000641979277
        inSlope: Infinity
        outSlope: Infinity
        tangentMode: 31
      - time: .716666639
        value: -.0100555606
        inSlope: Infinity
        outSlope: Infinity
        tangentMode: 31
      - time: .73333329
        value: .013472029
        inSlope: Infinity
        outSlope: Infinity
        tangentMode: 31
      - time: .766666651
        value: .013472029
        inSlope: Infinity
        outSlope: Infinity
        tangentMode: 31
      - time: .816666663
        value: -.0100555606
        inSlope: Infinity
        outSlope: Infinity
        tangentMode: 31
      - time: .833333313
        value: -.0100555606
        inSlope: Infinity
        outSlope: Infinity
        tangentMode: 31
      - time: .850000024
        value: .0103181368
        inSlope: Infinity
        outSlope: Infinity
        tangentMode: 31
      - time: .883333325
        value: .0103181368
        inSlope: Infinity
        outSlope: Infinity
        tangentMode: 31
      - time: .900000036
        value: -.0100555606
        inSlope: Infinity
        outSlope: Infinity
        tangentMode: 31
      - time: .916666687
        value: -.00162853522
        inSlope: Infinity
        outSlope: Infinity
        tangentMode: 31
      - time: .949999988
        value: -.00162853522
        inSlope: Infinity
        outSlope: Infinity
        tangentMode: 31
      - time: .966666698
        value: -.0100555606
        inSlope: Infinity
        outSlope: Infinity
        tangentMode: 31
      - time: .983333349
        value: -.0180141963
        inSlope: Infinity
        outSlope: Infinity
        tangentMode: 31
      - time: 1.01666665
        value: -.0180141963
        inSlope: Infinity
        outSlope: Infinity
        tangentMode: 31
      - time: 1.0333333
        value: -.0100555606
        inSlope: Infinity
        outSlope: Infinity
        tangentMode: 31
      - time: 1.04999995
        value: -.000641979277
        inSlope: Infinity
        outSlope: Infinity
        tangentMode: 31
      - time: 1.08333337
        value: -.000641979277
        inSlope: Infinity
        outSlope: Infinity
        tangentMode: 31
      - time: 1.10000002
        value: -.0100555606
        inSlope: Infinity
        outSlope: Infinity
        tangentMode: 31
      - time: 1.11666667
        value: .013472029
        inSlope: Infinity
        outSlope: Infinity
        tangentMode: 31
      - time: 1.14999998
        value: .013472029
        inSlope: Infinity
        outSlope: Infinity
        tangentMode: 31
      - time: 1.20000005
        value: -.0100555606
        inSlope: Infinity
        outSlope: Infinity
        tangentMode: 31
      - time: 1.2166667
        value: -.0100555606
        inSlope: Infinity
        outSlope: Infinity
        tangentMode: 31
      - time: 1.23333335
        value: .0103181368
        inSlope: Infinity
        outSlope: Infinity
        tangentMode: 31
      - time: 1.26666665
        value: .0103181368
        inSlope: Infinity
        outSlope: Infinity
        tangentMode: 31
      - time: 1.2833333
        value: -.0100555606
        inSlope: Infinity
        outSlope: Infinity
        tangentMode: 31
      - time: 1.30000007
        value: -.00162853522
        inSlope: Infinity
        outSlope: Infinity
        tangentMode: 31
      - time: 1.33333337
        value: -.00162853522
        inSlope: Infinity
        outSlope: Infinity
        tangentMode: 31
      - time: 1.35000002
        value: -.0100555606
        inSlope: Infinity
        outSlope: Infinity
        tangentMode: 31
      - time: 1.36666667
        value: -.0180141963
        inSlope: Infinity
        outSlope: Infinity
        tangentMode: 31
      - time: 1.39999998
        value: -.0180141963
        inSlope: Infinity
        outSlope: Infinity
        tangentMode: 31
      - time: 1.41666663
        value: -.0100555606
        inSlope: Infinity
        outSlope: Infinity
        tangentMode: 31
      - time: 1.43333328
        value: -.000641979277
        inSlope: Infinity
        outSlope: Infinity
        tangentMode: 31
      - time: 1.4666667
        value: -.000641979277
        inSlope: Infinity
        outSlope: Infinity
        tangentMode: 31
      - time: 1.48333335
        value: -.0100555606
        inSlope: Infinity
        outSlope: Infinity
        tangentMode: 31
      - time: 1.5
        value: .013472029
        inSlope: Infinity
        outSlope: Infinity
        tangentMode: 31
      - time: 1.5333333
        value: .013472029
        inSlope: Infinity
        outSlope: Infinity
        tangentMode: 31
      m_PreInfinity: 2
      m_PostInfinity: 2
    attribute: m_LocalPosition.x
    path: Laser1
    classID: 4
    script: {fileID: 0}
  - curve:
      serializedVersion: 2
      m_Curve:
      - time: .666666687
        value: .0705588087
        inSlope: Infinity
        outSlope: Infinity
        tangentMode: 31
      - time: .699999988
        value: .0741540939
        inSlope: Infinity
        outSlope: Infinity
        tangentMode: 31
      - time: .716666639
        value: .0705588087
        inSlope: Infinity
        outSlope: Infinity
        tangentMode: 31
      - time: .73333329
        value: .0699918568
        inSlope: Infinity
        outSlope: Infinity
        tangentMode: 31
      - time: .766666651
        value: .0699918568
        inSlope: Infinity
        outSlope: Infinity
        tangentMode: 31
      - time: .816666663
        value: .0705590025
        inSlope: Infinity
        outSlope: Infinity
        tangentMode: 31
      - time: .833333313
        value: .0705588087
        inSlope: Infinity
        outSlope: Infinity
        tangentMode: 31
      - time: .850000024
        value: .0705588758
        inSlope: Infinity
        outSlope: Infinity
        tangentMode: 31
      - time: .883333325
        value: .0705588758
        inSlope: Infinity
        outSlope: Infinity
        tangentMode: 31
      - time: .900000036
        value: .0705588087
        inSlope: Infinity
        outSlope: Infinity
        tangentMode: 31
      - time: .916666687
        value: .0705588758
        inSlope: Infinity
        outSlope: Infinity
        tangentMode: 31
      - time: .949999988
        value: .0705588758
        inSlope: Infinity
        outSlope: Infinity
        tangentMode: 31
      - time: .966666698
        value: .0705588087
        inSlope: Infinity
        outSlope: Infinity
        tangentMode: 31
      - time: .983333349
        value: .0688765272
        inSlope: Infinity
        outSlope: Infinity
        tangentMode: 31
      - time: 1.01666665
        value: .0688765272
        inSlope: Infinity
        outSlope: Infinity
        tangentMode: 31
      - time: 1.0333333
        value: .0705588087
        inSlope: Infinity
        outSlope: Infinity
        tangentMode: 31
      - time: 1.04999995
        value: .0741540939
        inSlope: Infinity
        outSlope: Infinity
        tangentMode: 31
      - time: 1.08333337
        value: .0741540939
        inSlope: Infinity
        outSlope: Infinity
        tangentMode: 31
      - time: 1.10000002
        value: .0705588087
        inSlope: Infinity
        outSlope: Infinity
        tangentMode: 31
      - time: 1.11666667
        value: .0699918568
        inSlope: Infinity
        outSlope: Infinity
        tangentMode: 31
      - time: 1.14999998
        value: .0699918568
        inSlope: Infinity
        outSlope: Infinity
        tangentMode: 31
      - time: 1.20000005
        value: .0705590025
        inSlope: Infinity
        outSlope: Infinity
        tangentMode: 31
      - time: 1.2166667
        value: .0705588087
        inSlope: Infinity
        outSlope: Infinity
        tangentMode: 31
      - time: 1.23333335
        value: .0705588758
        inSlope: Infinity
        outSlope: Infinity
        tangentMode: 31
      - time: 1.26666665
        value: .0705588758
        inSlope: Infinity
        outSlope: Infinity
        tangentMode: 31
      - time: 1.2833333
        value: .0705588087
        inSlope: Infinity
        outSlope: Infinity
        tangentMode: 31
      - time: 1.30000007
        value: .0705588758
        inSlope: Infinity
        outSlope: Infinity
        tangentMode: 31
      - time: 1.33333337
        value: .0705588758
        inSlope: Infinity
        outSlope: Infinity
        tangentMode: 31
      - time: 1.35000002
        value: .0705588087
        inSlope: Infinity
        outSlope: Infinity
        tangentMode: 31
      - time: 1.36666667
        value: .0688765272
        inSlope: Infinity
        outSlope: Infinity
        tangentMode: 31
      - time: 1.39999998
        value: .0688765272
        inSlope: Infinity
        outSlope: Infinity
        tangentMode: 31
      - time: 1.41666663
        value: .0705588087
        inSlope: Infinity
        outSlope: Infinity
        tangentMode: 31
      - time: 1.43333328
        value: .0741540939
        inSlope: Infinity
        outSlope: Infinity
        tangentMode: 31
      - time: 1.4666667
        value: .0741540939
        inSlope: Infinity
        outSlope: Infinity
        tangentMode: 31
      - time: 1.48333335
        value: .0705588087
        inSlope: Infinity
        outSlope: Infinity
        tangentMode: 31
      - time: 1.5
        value: .0699918568
        inSlope: Infinity
        outSlope: Infinity
        tangentMode: 31
      - time: 1.5333333
        value: .0699918568
        inSlope: Infinity
        outSlope: Infinity
        tangentMode: 31
      m_PreInfinity: 2
      m_PostInfinity: 2
    attribute: m_LocalPosition.y
    path: Laser1
    classID: 4
    script: {fileID: 0}
  - curve:
      serializedVersion: 2
      m_Curve:
      - time: .666666687
        value: -.00868780445
        inSlope: Infinity
        outSlope: Infinity
        tangentMode: 31
      - time: .699999988
        value: -.00370785757
        inSlope: Infinity
        outSlope: Infinity
        tangentMode: 31
      - time: .716666639
        value: -.00868780445
        inSlope: Infinity
        outSlope: Infinity
        tangentMode: 31
      - time: .73333329
        value: -.00370785757
        inSlope: Infinity
        outSlope: Infinity
        tangentMode: 31
      - time: .766666651
        value: -.00370785757
        inSlope: Infinity
        outSlope: Infinity
        tangentMode: 31
      - time: .816666663
        value: -.00868780445
        inSlope: Infinity
        outSlope: Infinity
        tangentMode: 31
      - time: .833333313
        value: -.00868780445
        inSlope: Infinity
        outSlope: Infinity
        tangentMode: 31
      - time: .850000024
        value: -.00868780445
        inSlope: Infinity
        outSlope: Infinity
        tangentMode: 31
      - time: .883333325
        value: -.00868780445
        inSlope: Infinity
        outSlope: Infinity
        tangentMode: 31
      - time: .900000036
        value: -.00868780445
        inSlope: Infinity
        outSlope: Infinity
        tangentMode: 31
      - time: .916666687
        value: -.0114583001
        inSlope: Infinity
        outSlope: Infinity
        tangentMode: 31
      - time: .949999988
        value: -.0114583001
        inSlope: Infinity
        outSlope: Infinity
        tangentMode: 31
      - time: .966666698
        value: -.00868780445
        inSlope: Infinity
        outSlope: Infinity
        tangentMode: 31
      - time: .983333349
        value: -.00370785757
        inSlope: Infinity
        outSlope: Infinity
        tangentMode: 31
      - time: 1.01666665
        value: -.00370785757
        inSlope: Infinity
        outSlope: Infinity
        tangentMode: 31
      - time: 1.0333333
        value: -.00868780445
        inSlope: Infinity
        outSlope: Infinity
        tangentMode: 31
      - time: 1.04999995
        value: -.00370785757
        inSlope: Infinity
        outSlope: Infinity
        tangentMode: 31
      - time: 1.08333337
        value: -.00370785757
        inSlope: Infinity
        outSlope: Infinity
        tangentMode: 31
      - time: 1.10000002
        value: -.00868780445
        inSlope: Infinity
        outSlope: Infinity
        tangentMode: 31
      - time: 1.11666667
        value: -.00370785757
        inSlope: Infinity
        outSlope: Infinity
        tangentMode: 31
      - time: 1.14999998
        value: -.00370785757
        inSlope: Infinity
        outSlope: Infinity
        tangentMode: 31
      - time: 1.20000005
        value: -.00868780445
        inSlope: Infinity
        outSlope: Infinity
        tangentMode: 31
      - time: 1.2166667
        value: -.00868780445
        inSlope: Infinity
        outSlope: Infinity
        tangentMode: 31
      - time: 1.23333335
        value: -.00868780445
        inSlope: Infinity
        outSlope: Infinity
        tangentMode: 31
      - time: 1.26666665
        value: -.00868780445
        inSlope: Infinity
        outSlope: Infinity
        tangentMode: 31
      - time: 1.2833333
        value: -.00868780445
        inSlope: Infinity
        outSlope: Infinity
        tangentMode: 31
      - time: 1.30000007
        value: -.0114583001
        inSlope: Infinity
        outSlope: Infinity
        tangentMode: 31
      - time: 1.33333337
        value: -.0114583001
        inSlope: Infinity
        outSlope: Infinity
        tangentMode: 31
      - time: 1.35000002
        value: -.00868780445
        inSlope: Infinity
        outSlope: Infinity
        tangentMode: 31
      - time: 1.36666667
        value: -.00370785757
        inSlope: Infinity
        outSlope: Infinity
        tangentMode: 31
      - time: 1.39999998
        value: -.00370785757
        inSlope: Infinity
        outSlope: Infinity
        tangentMode: 31
      - time: 1.41666663
        value: -.00868780445
        inSlope: Infinity
        outSlope: Infinity
        tangentMode: 31
      - time: 1.43333328
        value: -.00370785757
        inSlope: Infinity
        outSlope: Infinity
        tangentMode: 31
      - time: 1.4666667
        value: -.00370785757
        inSlope: Infinity
        outSlope: Infinity
        tangentMode: 31
      - time: 1.48333335
        value: -.00868780445
        inSlope: Infinity
        outSlope: Infinity
        tangentMode: 31
      - time: 1.5
        value: -.00370785757
        inSlope: Infinity
        outSlope: Infinity
        tangentMode: 31
      - time: 1.5333333
        value: -.00370785757
        inSlope: Infinity
        outSlope: Infinity
        tangentMode: 31
      m_PreInfinity: 2
      m_PostInfinity: 2
    attribute: m_LocalPosition.z
    path: Laser1
    classID: 4
    script: {fileID: 0}
  - curve:
      serializedVersion: 2
      m_Curve:
      - time: .666666687
        value: .35426119
        inSlope: Infinity
        outSlope: Infinity
        tangentMode: 31
      - time: .683333337
        value: .35426119
        inSlope: Infinity
        outSlope: Infinity
        tangentMode: 31
      - time: .699999988
        value: .35426119
        inSlope: Infinity
        outSlope: Infinity
        tangentMode: 31
      - time: .716666639
        value: .35426119
        inSlope: Infinity
        outSlope: Infinity
        tangentMode: 31
      - time: .73333329
        value: .35426119
        inSlope: Infinity
        outSlope: Infinity
        tangentMode: 31
      - time: .75
        value: .35426119
        inSlope: Infinity
        outSlope: Infinity
        tangentMode: 31
      - time: .766666651
        value: .35426119
        inSlope: Infinity
        outSlope: Infinity
        tangentMode: 31
      - time: .783333361
        value: .35426119
        inSlope: Infinity
        outSlope: Infinity
        tangentMode: 31
      - time: .800000012
        value: .35426119
        inSlope: Infinity
        outSlope: Infinity
        tangentMode: 31
      - time: .816666663
        value: .35426119
        inSlope: Infinity
        outSlope: Infinity
        tangentMode: 31
      - time: .833333313
        value: .35426119
        inSlope: Infinity
        outSlope: Infinity
        tangentMode: 31
      - time: .850000024
        value: .35426119
        inSlope: Infinity
        outSlope: Infinity
        tangentMode: 31
      - time: .866666675
        value: .35426119
        inSlope: Infinity
        outSlope: Infinity
        tangentMode: 31
      - time: .883333325
        value: .35426119
        inSlope: Infinity
        outSlope: Infinity
        tangentMode: 31
      - time: .900000036
        value: .35426119
        inSlope: Infinity
        outSlope: Infinity
        tangentMode: 31
      - time: .916666687
        value: .35426119
        inSlope: Infinity
        outSlope: Infinity
        tangentMode: 31
      - time: .933333337
        value: .35426119
        inSlope: Infinity
        outSlope: Infinity
        tangentMode: 31
      - time: .949999988
        value: .35426119
        inSlope: Infinity
        outSlope: Infinity
        tangentMode: 31
      - time: .966666698
        value: .35426119
        inSlope: Infinity
        outSlope: Infinity
        tangentMode: 31
      - time: .983333349
        value: .35426119
        inSlope: Infinity
        outSlope: Infinity
        tangentMode: 31
      - time: 1
        value: .35426119
        inSlope: Infinity
        outSlope: Infinity
        tangentMode: 31
      - time: 1.01666665
        value: .35426119
        inSlope: Infinity
        outSlope: Infinity
        tangentMode: 31
      - time: 1.0333333
        value: .35426119
        inSlope: Infinity
        outSlope: Infinity
        tangentMode: 31
      - time: 1.04999995
        value: .35426119
        inSlope: Infinity
        outSlope: Infinity
        tangentMode: 31
      - time: 1.06666672
        value: .35426119
        inSlope: Infinity
        outSlope: Infinity
        tangentMode: 31
      - time: 1.08333337
        value: .35426119
        inSlope: Infinity
        outSlope: Infinity
        tangentMode: 31
      - time: 1.10000002
        value: .35426119
        inSlope: Infinity
        outSlope: Infinity
        tangentMode: 31
      - time: 1.11666667
        value: .35426119
        inSlope: Infinity
        outSlope: Infinity
        tangentMode: 31
      - time: 1.13333333
        value: .35426119
        inSlope: Infinity
        outSlope: Infinity
        tangentMode: 31
      - time: 1.14999998
        value: .35426119
        inSlope: Infinity
        outSlope: Infinity
        tangentMode: 31
      - time: 1.16666663
        value: .35426119
        inSlope: Infinity
        outSlope: Infinity
        tangentMode: 31
      - time: 1.18333328
        value: .35426119
        inSlope: Infinity
        outSlope: Infinity
        tangentMode: 31
      - time: 1.20000005
        value: .35426119
        inSlope: Infinity
        outSlope: Infinity
        tangentMode: 31
      - time: 1.2166667
        value: .35426119
        inSlope: Infinity
        outSlope: Infinity
        tangentMode: 31
      - time: 1.23333335
        value: .35426119
        inSlope: Infinity
        outSlope: Infinity
        tangentMode: 31
      - time: 1.25
        value: .35426119
        inSlope: Infinity
        outSlope: Infinity
        tangentMode: 31
      - time: 1.26666665
        value: .35426119
        inSlope: Infinity
        outSlope: Infinity
        tangentMode: 31
      - time: 1.2833333
        value: .35426119
        inSlope: Infinity
        outSlope: Infinity
        tangentMode: 31
      - time: 1.30000007
        value: .35426119
        inSlope: Infinity
        outSlope: Infinity
        tangentMode: 31
      - time: 1.31666672
        value: .35426119
        inSlope: Infinity
        outSlope: Infinity
        tangentMode: 31
      - time: 1.33333337
        value: .35426119
        inSlope: Infinity
        outSlope: Infinity
        tangentMode: 31
      - time: 1.35000002
        value: .35426119
        inSlope: Infinity
        outSlope: Infinity
        tangentMode: 31
      - time: 1.36666667
        value: .35426119
        inSlope: Infinity
        outSlope: Infinity
        tangentMode: 31
      - time: 1.38333333
        value: .35426119
        inSlope: Infinity
        outSlope: Infinity
        tangentMode: 31
      - time: 1.39999998
        value: .35426119
        inSlope: Infinity
        outSlope: Infinity
        tangentMode: 31
      - time: 1.41666663
        value: .35426119
        inSlope: Infinity
        outSlope: Infinity
        tangentMode: 31
      - time: 1.43333328
        value: .35426119
        inSlope: Infinity
        outSlope: Infinity
        tangentMode: 31
      - time: 1.45000005
        value: .35426119
        inSlope: Infinity
        outSlope: Infinity
        tangentMode: 31
      - time: 1.4666667
        value: .35426119
        inSlope: Infinity
        outSlope: Infinity
        tangentMode: 31
      - time: 1.48333335
        value: .35426119
        inSlope: Infinity
        outSlope: Infinity
        tangentMode: 31
      - time: 1.5
        value: .35426119
        inSlope: Infinity
        outSlope: Infinity
        tangentMode: 31
      - time: 1.51666665
        value: .35426119
        inSlope: Infinity
        outSlope: Infinity
        tangentMode: 31
      - time: 1.5333333
        value: .35426119
        inSlope: Infinity
        outSlope: Infinity
        tangentMode: 31
      m_PreInfinity: 2
      m_PostInfinity: 2
    attribute: m_LocalScale.x
    path: Laser1
    classID: 4
    script: {fileID: 0}
  - curve:
      serializedVersion: 2
      m_Curve:
      - time: .666666687
        value: 0
        inSlope: Infinity
        outSlope: Infinity
        tangentMode: 31
      - time: .683333337
        value: .35426119
        inSlope: Infinity
        outSlope: Infinity
        tangentMode: 31
      - time: .699999988
        value: 0
        inSlope: Infinity
        outSlope: Infinity
        tangentMode: 31
      - time: .716666639
        value: 0
        inSlope: Infinity
        outSlope: Infinity
        tangentMode: 31
      - time: .73333329
        value: .35426119
        inSlope: Infinity
        outSlope: Infinity
        tangentMode: 31
      - time: .75
        value: .35426119
        inSlope: Infinity
        outSlope: Infinity
        tangentMode: 31
      - time: .766666651
        value: 0
        inSlope: Infinity
        outSlope: Infinity
        tangentMode: 31
      - time: .783333361
        value: .35426119
        inSlope: Infinity
        outSlope: Infinity
        tangentMode: 31
      - time: .800000012
        value: .35426119
        inSlope: Infinity
        outSlope: Infinity
        tangentMode: 31
      - time: .816666663
        value: 0
        inSlope: Infinity
        outSlope: Infinity
        tangentMode: 31
      - time: .833333313
        value: 0
        inSlope: Infinity
        outSlope: Infinity
        tangentMode: 31
      - time: .850000024
        value: .35426119
        inSlope: Infinity
        outSlope: Infinity
        tangentMode: 31
      - time: .866666675
        value: .35426119
        inSlope: Infinity
        outSlope: Infinity
        tangentMode: 31
      - time: .883333325
        value: 0
        inSlope: Infinity
        outSlope: Infinity
        tangentMode: 31
      - time: .900000036
        value: 0
        inSlope: Infinity
        outSlope: Infinity
        tangentMode: 31
      - time: .916666687
        value: .35426119
        inSlope: Infinity
        outSlope: Infinity
        tangentMode: 31
      - time: .933333337
        value: .35426119
        inSlope: Infinity
        outSlope: Infinity
        tangentMode: 31
      - time: .949999988
        value: 0
        inSlope: Infinity
        outSlope: Infinity
        tangentMode: 31
      - time: .966666698
        value: 0
        inSlope: Infinity
        outSlope: Infinity
        tangentMode: 31
      - time: .983333349
        value: .35426119
        inSlope: Infinity
        outSlope: Infinity
        tangentMode: 31
      - time: 1
        value: .35426119
        inSlope: Infinity
        outSlope: Infinity
        tangentMode: 31
      - time: 1.01666665
        value: 0
        inSlope: Infinity
        outSlope: Infinity
        tangentMode: 31
      - time: 1.0333333
        value: 0
        inSlope: Infinity
        outSlope: Infinity
        tangentMode: 31
      - time: 1.04999995
        value: .35426119
        inSlope: Infinity
        outSlope: Infinity
        tangentMode: 31
      - time: 1.06666672
        value: .35426119
        inSlope: Infinity
        outSlope: Infinity
        tangentMode: 31
      - time: 1.08333337
        value: 0
        inSlope: Infinity
        outSlope: Infinity
        tangentMode: 31
      - time: 1.10000002
        value: 0
        inSlope: Infinity
        outSlope: Infinity
        tangentMode: 31
      - time: 1.11666667
        value: .35426119
        inSlope: Infinity
        outSlope: Infinity
        tangentMode: 31
      - time: 1.13333333
        value: .35426119
        inSlope: Infinity
        outSlope: Infinity
        tangentMode: 31
      - time: 1.14999998
        value: 0
        inSlope: Infinity
        outSlope: Infinity
        tangentMode: 31
      - time: 1.16666663
        value: .35426119
        inSlope: Infinity
        outSlope: Infinity
        tangentMode: 31
      - time: 1.18333328
        value: .35426119
        inSlope: Infinity
        outSlope: Infinity
        tangentMode: 31
      - time: 1.20000005
        value: 0
        inSlope: Infinity
        outSlope: Infinity
        tangentMode: 31
      - time: 1.2166667
        value: 0
        inSlope: Infinity
        outSlope: Infinity
        tangentMode: 31
      - time: 1.23333335
        value: .35426119
        inSlope: Infinity
        outSlope: Infinity
        tangentMode: 31
      - time: 1.25
        value: .35426119
        inSlope: Infinity
        outSlope: Infinity
        tangentMode: 31
      - time: 1.26666665
        value: 0
        inSlope: Infinity
        outSlope: Infinity
        tangentMode: 31
      - time: 1.2833333
        value: 0
        inSlope: Infinity
        outSlope: Infinity
        tangentMode: 31
      - time: 1.30000007
        value: .35426119
        inSlope: Infinity
        outSlope: Infinity
        tangentMode: 31
      - time: 1.31666672
        value: .35426119
        inSlope: Infinity
        outSlope: Infinity
        tangentMode: 31
      - time: 1.33333337
        value: 0
        inSlope: Infinity
        outSlope: Infinity
        tangentMode: 31
      - time: 1.35000002
        value: 0
        inSlope: Infinity
        outSlope: Infinity
        tangentMode: 31
      - time: 1.36666667
        value: .35426119
        inSlope: Infinity
        outSlope: Infinity
        tangentMode: 31
      - time: 1.38333333
        value: .35426119
        inSlope: Infinity
        outSlope: Infinity
        tangentMode: 31
      - time: 1.39999998
        value: 0
        inSlope: Infinity
        outSlope: Infinity
        tangentMode: 31
      - time: 1.41666663
        value: 0
        inSlope: Infinity
        outSlope: Infinity
        tangentMode: 31
      - time: 1.43333328
        value: .35426119
        inSlope: Infinity
        outSlope: Infinity
        tangentMode: 31
      - time: 1.45000005
        value: .35426119
        inSlope: Infinity
        outSlope: Infinity
        tangentMode: 31
      - time: 1.4666667
        value: 0
        inSlope: Infinity
        outSlope: Infinity
        tangentMode: 31
      - time: 1.48333335
        value: 0
        inSlope: Infinity
        outSlope: Infinity
        tangentMode: 31
      - time: 1.5
        value: .35426119
        inSlope: Infinity
        outSlope: Infinity
        tangentMode: 31
      - time: 1.51666665
        value: .35426119
        inSlope: Infinity
        outSlope: Infinity
        tangentMode: 31
      - time: 1.5333333
        value: 0
        inSlope: Infinity
        outSlope: Infinity
        tangentMode: 31
      m_PreInfinity: 2
      m_PostInfinity: 2
    attribute: m_LocalScale.y
    path: Laser1
    classID: 4
    script: {fileID: 0}
  - curve:
      serializedVersion: 2
      m_Curve:
      - time: .666666687
        value: .35426119
        inSlope: Infinity
        outSlope: Infinity
        tangentMode: 31
      - time: .683333337
        value: .35426119
        inSlope: Infinity
        outSlope: Infinity
        tangentMode: 31
      - time: .699999988
        value: .35426119
        inSlope: Infinity
        outSlope: Infinity
        tangentMode: 31
      - time: .716666639
        value: .35426119
        inSlope: Infinity
        outSlope: Infinity
        tangentMode: 31
      - time: .73333329
        value: .35426119
        inSlope: Infinity
        outSlope: Infinity
        tangentMode: 31
      - time: .75
        value: .35426119
        inSlope: Infinity
        outSlope: Infinity
        tangentMode: 31
      - time: .766666651
        value: .35426119
        inSlope: Infinity
        outSlope: Infinity
        tangentMode: 31
      - time: .783333361
        value: .35426119
        inSlope: Infinity
        outSlope: Infinity
        tangentMode: 31
      - time: .800000012
        value: .35426119
        inSlope: Infinity
        outSlope: Infinity
        tangentMode: 31
      - time: .816666663
        value: .35426119
        inSlope: Infinity
        outSlope: Infinity
        tangentMode: 31
      - time: .833333313
        value: .35426119
        inSlope: Infinity
        outSlope: Infinity
        tangentMode: 31
      - time: .850000024
        value: .35426119
        inSlope: Infinity
        outSlope: Infinity
        tangentMode: 31
      - time: .866666675
        value: .35426119
        inSlope: Infinity
        outSlope: Infinity
        tangentMode: 31
      - time: .883333325
        value: .35426119
        inSlope: Infinity
        outSlope: Infinity
        tangentMode: 31
      - time: .900000036
        value: .35426119
        inSlope: Infinity
        outSlope: Infinity
        tangentMode: 31
      - time: .916666687
        value: .35426119
        inSlope: Infinity
        outSlope: Infinity
        tangentMode: 31
      - time: .933333337
        value: .35426119
        inSlope: Infinity
        outSlope: Infinity
        tangentMode: 31
      - time: .949999988
        value: .35426119
        inSlope: Infinity
        outSlope: Infinity
        tangentMode: 31
      - time: .966666698
        value: .35426119
        inSlope: Infinity
        outSlope: Infinity
        tangentMode: 31
      - time: .983333349
        value: .35426119
        inSlope: Infinity
        outSlope: Infinity
        tangentMode: 31
      - time: 1
        value: .35426119
        inSlope: Infinity
        outSlope: Infinity
        tangentMode: 31
      - time: 1.01666665
        value: .35426119
        inSlope: Infinity
        outSlope: Infinity
        tangentMode: 31
      - time: 1.0333333
        value: .35426119
        inSlope: Infinity
        outSlope: Infinity
        tangentMode: 31
      - time: 1.04999995
        value: .35426119
        inSlope: Infinity
        outSlope: Infinity
        tangentMode: 31
      - time: 1.06666672
        value: .35426119
        inSlope: Infinity
        outSlope: Infinity
        tangentMode: 31
      - time: 1.08333337
        value: .35426119
        inSlope: Infinity
        outSlope: Infinity
        tangentMode: 31
      - time: 1.10000002
        value: .35426119
        inSlope: Infinity
        outSlope: Infinity
        tangentMode: 31
      - time: 1.11666667
        value: .35426119
        inSlope: Infinity
        outSlope: Infinity
        tangentMode: 31
      - time: 1.13333333
        value: .35426119
        inSlope: Infinity
        outSlope: Infinity
        tangentMode: 31
      - time: 1.14999998
        value: .35426119
        inSlope: Infinity
        outSlope: Infinity
        tangentMode: 31
      - time: 1.16666663
        value: .35426119
        inSlope: Infinity
        outSlope: Infinity
        tangentMode: 31
      - time: 1.18333328
        value: .35426119
        inSlope: Infinity
        outSlope: Infinity
        tangentMode: 31
      - time: 1.20000005
        value: .35426119
        inSlope: Infinity
        outSlope: Infinity
        tangentMode: 31
      - time: 1.2166667
        value: .35426119
        inSlope: Infinity
        outSlope: Infinity
        tangentMode: 31
      - time: 1.23333335
        value: .35426119
        inSlope: Infinity
        outSlope: Infinity
        tangentMode: 31
      - time: 1.25
        value: .35426119
        inSlope: Infinity
        outSlope: Infinity
        tangentMode: 31
      - time: 1.26666665
        value: .35426119
        inSlope: Infinity
        outSlope: Infinity
        tangentMode: 31
      - time: 1.2833333
        value: .35426119
        inSlope: Infinity
        outSlope: Infinity
        tangentMode: 31
      - time: 1.30000007
        value: .35426119
        inSlope: Infinity
        outSlope: Infinity
        tangentMode: 31
      - time: 1.31666672
        value: .35426119
        inSlope: Infinity
        outSlope: Infinity
        tangentMode: 31
      - time: 1.33333337
        value: .35426119
        inSlope: Infinity
        outSlope: Infinity
        tangentMode: 31
      - time: 1.35000002
        value: .35426119
        inSlope: Infinity
        outSlope: Infinity
        tangentMode: 31
      - time: 1.36666667
        value: .35426119
        inSlope: Infinity
        outSlope: Infinity
        tangentMode: 31
      - time: 1.38333333
        value: .35426119
        inSlope: Infinity
        outSlope: Infinity
        tangentMode: 31
      - time: 1.39999998
        value: .35426119
        inSlope: Infinity
        outSlope: Infinity
        tangentMode: 31
      - time: 1.41666663
        value: .35426119
        inSlope: Infinity
        outSlope: Infinity
        tangentMode: 31
      - time: 1.43333328
        value: .35426119
        inSlope: Infinity
        outSlope: Infinity
        tangentMode: 31
      - time: 1.45000005
        value: .35426119
        inSlope: Infinity
        outSlope: Infinity
        tangentMode: 31
      - time: 1.4666667
        value: .35426119
        inSlope: Infinity
        outSlope: Infinity
        tangentMode: 31
      - time: 1.48333335
        value: .35426119
        inSlope: Infinity
        outSlope: Infinity
        tangentMode: 31
      - time: 1.5
        value: .35426119
        inSlope: Infinity
        outSlope: Infinity
        tangentMode: 31
      - time: 1.51666665
        value: .35426119
        inSlope: Infinity
        outSlope: Infinity
        tangentMode: 31
      - time: 1.5333333
        value: .35426119
        inSlope: Infinity
        outSlope: Infinity
        tangentMode: 31
      m_PreInfinity: 2
      m_PostInfinity: 2
    attribute: m_LocalScale.z
    path: Laser1
    classID: 4
    script: {fileID: 0}
  - curve:
      serializedVersion: 2
      m_Curve:
      - time: .666666687
        value: 100
        inSlope: Infinity
        outSlope: Infinity
        tangentMode: 31
      m_PreInfinity: 2
      m_PostInfinity: 2
    attribute: blendShape.blendShape2.Flap6
    path: Flap
    classID: 137
    script: {fileID: 0}
  - curve:
      serializedVersion: 2
      m_Curve:
      - time: .666666687
        value: .500016987
        inSlope: Infinity
        outSlope: Infinity
        tangentMode: 31
      m_PreInfinity: 2
      m_PostInfinity: 2
    attribute: material._Color.r
    path: Flap
    classID: 137
    script: {fileID: 0}
  - curve:
      serializedVersion: 2
      m_Curve:
      - time: .666666687
        value: .500016987
        inSlope: Infinity
        outSlope: Infinity
        tangentMode: 31
      m_PreInfinity: 2
      m_PostInfinity: 2
    attribute: material._Color.g
    path: Flap
    classID: 137
    script: {fileID: 0}
  - curve:
      serializedVersion: 2
      m_Curve:
      - time: .666666687
        value: .500016987
        inSlope: Infinity
        outSlope: Infinity
        tangentMode: 31
      m_PreInfinity: 2
      m_PostInfinity: 2
    attribute: material._Color.b
    path: Flap
    classID: 137
    script: {fileID: 0}
  - curve:
      serializedVersion: 2
      m_Curve:
      - time: .666666687
        value: 0
        inSlope: Infinity
        outSlope: Infinity
        tangentMode: 31
      m_PreInfinity: 2
      m_PostInfinity: 2
    attribute: material._Color.a
    path: Flap
    classID: 137
    script: {fileID: 0}
  - curve:
      serializedVersion: 2
      m_Curve:
      - time: 0
        value: 0
        inSlope: 29.9999981
        outSlope: 29.9999981
        tangentMode: 10
      - time: .0333333351
        value: 1
        inSlope: 29.9999981
        outSlope: 29.9999981
        tangentMode: 10
      m_PreInfinity: 2
      m_PostInfinity: 2
    attribute: material._SpecInt
    path: Flap
    classID: 137
    script: {fileID: 0}
  - curve:
      serializedVersion: 2
      m_Curve:
      - time: .666666687
        value: .25
        inSlope: Infinity
        outSlope: Infinity
        tangentMode: 31
      m_PreInfinity: 2
      m_PostInfinity: 2
    attribute: m_Range
    path: Laser1/Point light
    classID: 108
    script: {fileID: 0}
  - curve:
      serializedVersion: 2
      m_Curve:
      - time: .550000012
        value: 0
        inSlope: 857.142822
        outSlope: 857.142822
        tangentMode: 21
      - time: .666666687
        value: 100
        inSlope: 857.142822
        outSlope: Infinity
        tangentMode: 21
      m_PreInfinity: 2
      m_PostInfinity: 2
    attribute: blendShape.blendShape6.Flap6
    path: Flap
    classID: 137
    script: {fileID: 0}
  - curve:
      serializedVersion: 2
      m_Curve:
      - time: .666666687
        value: .0635901466
        inSlope: Infinity
        outSlope: Infinity
        tangentMode: 31
      m_PreInfinity: 2
      m_PostInfinity: 2
    attribute: m_Color.r
    path: Laser1/Point light
    classID: 108
    script: {fileID: 0}
  - curve:
      serializedVersion: 2
      m_Curve:
      - time: .666666687
        value: 0
        inSlope: Infinity
        outSlope: Infinity
        tangentMode: 31
      m_PreInfinity: 2
      m_PostInfinity: 2
    attribute: m_Color.g
    path: Laser1/Point light
    classID: 108
    script: {fileID: 0}
  - curve:
      serializedVersion: 2
      m_Curve:
      - time: .666666687
        value: .838235259
        inSlope: Infinity
        outSlope: Infinity
        tangentMode: 31
      m_PreInfinity: 2
      m_PostInfinity: 2
    attribute: m_Color.b
    path: Laser1/Point light
    classID: 108
    script: {fileID: 0}
  - curve:
      serializedVersion: 2
      m_Curve:
      - time: .666666687
        value: 0
        inSlope: Infinity
        outSlope: Infinity
        tangentMode: 31
      - time: .683333337
        value: 1
        inSlope: Infinity
        outSlope: Infinity
        tangentMode: 31
      - time: .699999988
        value: 0
        inSlope: Infinity
        outSlope: Infinity
        tangentMode: 31
      - time: .716666639
        value: 0
        inSlope: Infinity
        outSlope: Infinity
        tangentMode: 31
      - time: .733333349
        value: 1
        inSlope: Infinity
        outSlope: Infinity
        tangentMode: 31
      - time: .766666651
        value: 0
        inSlope: Infinity
        outSlope: Infinity
        tangentMode: 31
      - time: .800000012
        value: 1
        inSlope: Infinity
        outSlope: Infinity
        tangentMode: 31
      - time: .816666663
        value: 0
        inSlope: Infinity
        outSlope: Infinity
        tangentMode: 31
      - time: .833333313
        value: 0
        inSlope: Infinity
        outSlope: Infinity
        tangentMode: 31
      - time: .850000024
        value: 1
        inSlope: Infinity
        outSlope: Infinity
        tangentMode: 31
      - time: .883333325
        value: 0
        inSlope: Infinity
        outSlope: Infinity
        tangentMode: 31
      - time: .916666687
        value: 1
        inSlope: Infinity
        outSlope: Infinity
        tangentMode: 31
      - time: .949999988
        value: 0
        inSlope: Infinity
        outSlope: Infinity
        tangentMode: 31
      - time: .983333349
        value: 1
        inSlope: Infinity
        outSlope: Infinity
        tangentMode: 31
      - time: 1.01666665
        value: 0
        inSlope: Infinity
        outSlope: Infinity
        tangentMode: 31
      - time: 1.0333333
        value: 0
        inSlope: Infinity
        outSlope: Infinity
        tangentMode: 31
      - time: 1.04999995
        value: 1
        inSlope: Infinity
        outSlope: Infinity
        tangentMode: 31
      - time: 1.08333337
        value: 0
        inSlope: Infinity
        outSlope: Infinity
        tangentMode: 31
      - time: 1.10000002
        value: 0
        inSlope: Infinity
        outSlope: Infinity
        tangentMode: 31
      - time: 1.11666667
        value: 1
        inSlope: Infinity
        outSlope: Infinity
        tangentMode: 31
      - time: 1.14999998
        value: 0
        inSlope: Infinity
        outSlope: Infinity
        tangentMode: 31
      - time: 1.16666663
        value: 1
        inSlope: Infinity
        outSlope: Infinity
        tangentMode: 31
      - time: 1.20000005
        value: 0
        inSlope: Infinity
        outSlope: Infinity
        tangentMode: 31
      - time: 1.23333335
        value: 1
        inSlope: Infinity
        outSlope: Infinity
        tangentMode: 31
      - time: 1.26666665
        value: 0
        inSlope: Infinity
        outSlope: Infinity
        tangentMode: 31
      - time: 1.2833333
        value: 0
        inSlope: Infinity
        outSlope: Infinity
        tangentMode: 31
      - time: 1.29999995
        value: 0
        inSlope: Infinity
        outSlope: Infinity
        tangentMode: 31
      - time: 1.31666672
        value: 1
        inSlope: Infinity
        outSlope: Infinity
        tangentMode: 31
      - time: 1.33333337
        value: 0
        inSlope: Infinity
        outSlope: Infinity
        tangentMode: 31
      - time: 1.36666667
        value: 1
        inSlope: Infinity
        outSlope: Infinity
        tangentMode: 31
      - time: 1.39999998
        value: 0
        inSlope: Infinity
        outSlope: Infinity
        tangentMode: 31
      - time: 1.41666663
        value: 0
        inSlope: Infinity
        outSlope: Infinity
        tangentMode: 31
      - time: 1.43333328
        value: 1
        inSlope: Infinity
        outSlope: Infinity
        tangentMode: 31
      - time: 1.4666667
        value: 0
        inSlope: Infinity
        outSlope: Infinity
        tangentMode: 31
      - time: 1.48333335
        value: 0
        inSlope: Infinity
        outSlope: Infinity
        tangentMode: 31
      - time: 1.5
        value: 1
        inSlope: Infinity
        outSlope: Infinity
        tangentMode: 31
      - time: 1.5333333
        value: 0
        inSlope: Infinity
        outSlope: Infinity
        tangentMode: 31
      m_PreInfinity: 2
      m_PostInfinity: 2
    attribute: m_Enabled
    path: Laser1
    classID: 23
    script: {fileID: 0}
  - curve:
      serializedVersion: 2
      m_Curve:
      - time: 0
        value: 0
        inSlope: 500
        outSlope: 500
        tangentMode: 21
      - time: .200000003
        value: 100
        inSlope: 500
        outSlope: -600
        tangentMode: 21
      - time: .366666675
        value: 0
        inSlope: -600
        outSlope: -600
        tangentMode: 21
      m_PreInfinity: 2
      m_PostInfinity: 2
    attribute: blendShape.blendShape6.Flap4
    path: Flap
    classID: 137
    script: {fileID: 0}
  - curve:
      serializedVersion: 2
      m_Curve:
      - time: .116666667
        value: 0
        inSlope: 338.399994
        outSlope: 338.399994
        tangentMode: 21
      - time: .366666675
        value: 84.5999985
        inSlope: 338.399994
        outSlope: -341
        tangentMode: 21
      - time: .466666669
        value: 50.5
        inSlope: -341
        outSlope: -378.749939
        tangentMode: 21
      - time: .600000024
        value: 0
        inSlope: -378.749939
        outSlope: -378.749939
        tangentMode: 21
      m_PreInfinity: 2
      m_PostInfinity: 2
    attribute: blendShape.blendShape6.Flap5
    path: Flap
    classID: 137
    script: {fileID: 0}
  - curve:
      serializedVersion: 2
      m_Curve:
      - time: .283333331
        value: 0
        inSlope: 315.818176
        outSlope: 315.818176
        tangentMode: 21
      - time: .466666669
        value: 57.9000015
        inSlope: 315.818176
        outSlope: 315.749939
        tangentMode: 21
      - time: .600000024
        value: 100
        inSlope: 315.749939
        outSlope: -1500.00012
        tangentMode: 21
      - time: .666666687
        value: 0
        inSlope: -1500.00012
        outSlope: Infinity
        tangentMode: 21
      m_PreInfinity: 2
      m_PostInfinity: 2
    attribute: blendShape.blendShape6.Flap7
    path: Flap
    classID: 137
    script: {fileID: 0}
  - curve:
      serializedVersion: 2
      m_Curve:
      - time: 0
        value: 0
        inSlope: Infinity
        outSlope: Infinity
        tangentMode: 31
      - time: .0166666675
        value: 1
        inSlope: Infinity
        outSlope: Infinity
        tangentMode: 31
      m_PreInfinity: 2
      m_PostInfinity: 2
    attribute: m_IsActive
    path: Flap
    classID: 1
    script: {fileID: 0}
  m_EulerEditorCurves: []
  m_Events: []
