%YAML 1.1
%TAG !u! tag:unity3d.com,2011:
--- !u!74 &7400000
AnimationClip:
  m_ObjectHideFlags: 0
  m_PrefabParentObject: {fileID: 0}
  m_PrefabInternal: {fileID: 0}
  m_Name: AION
  serializedVersion: 4
  m_AnimationType: 2
  m_Compressed: 0
  m_UseHighQualityCurve: 1
  m_RotationCurves: []
  m_CompressedRotationCurves: []
  m_PositionCurves: []
  m_ScaleCurves: []
  m_FloatCurves:
  - curve:
      serializedVersion: 2
      m_Curve:
      - time: 0
        value: 1
        inSlope: 0
        outSlope: 0
        tangentMode: 10
      - time: .316666663
        value: 1
        inSlope: 0
        outSlope: 0
        tangentMode: 10
      m_PreInfinity: 2
      m_PostInfinity: 2
    attribute: material._Color.r
    path: group2/ON_OuterVessels
    classID: 137
    script: {fileID: 0}
  - curve:
      serializedVersion: 2
      m_Curve:
      - time: 0
        value: .160779908
        inSlope: .927579403
        outSlope: .927579403
        tangentMode: 10
      - time: .316666663
        value: .454513371
        inSlope: .927579403
        outSlope: .927579403
        tangentMode: 10
      m_PreInfinity: 2
      m_PostInfinity: 2
    attribute: material._Color.g
    path: group2/ON_OuterVessels
    classID: 137
    script: {fileID: 0}
  - curve:
      serializedVersion: 2
      m_Curve:
      - time: 0
        value: 0
        inSlope: 1.11455107
        outSlope: 1.11455107
        tangentMode: 10
      - time: .316666663
        value: .352941155
        inSlope: 1.11455107
        outSlope: 1.11455107
        tangentMode: 10
      m_PreInfinity: 2
      m_PostInfinity: 2
    attribute: material._Color.b
    path: group2/ON_OuterVessels
    classID: 137
    script: {fileID: 0}
  - curve:
      serializedVersion: 2
      m_Curve:
      - time: 0
        value: .937254906
        inSlope: .198142409
        outSlope: .198142409
        tangentMode: 10
      - time: .316666663
        value: 1
        inSlope: .198142409
        outSlope: .198142409
        tangentMode: 10
      m_PreInfinity: 2
      m_PostInfinity: 2
    attribute: material._Color.a
    path: group2/ON_OuterVessels
    classID: 137
    script: {fileID: 0}
  - curve:
      serializedVersion: 2
      m_Curve:
      - time: 0
        value: 10
        inSlope: 0
        outSlope: 0
        tangentMode: 10
      - time: .316666663
        value: 10
        inSlope: 58.6956482
        outSlope: 58.6956482
        tangentMode: 10
      - time: 1.08333337
        value: 100
        inSlope: 117.391296
        outSlope: 117.391296
        tangentMode: 10
      m_PreInfinity: 2
      m_PostInfinity: 2
    attribute: material._SpecInt
    path: group2/ON_Retina
    classID: 137
    script: {fileID: 0}
  - curve:
      serializedVersion: 2
      m_Curve:
      - time: .316666663
        value: -.699999988
        inSlope: .495652139
        outSlope: .495652139
        tangentMode: 10
      - time: 1.08333337
        value: -.319999993
        inSlope: .495652139
        outSlope: .495652139
        tangentMode: 10
      m_PreInfinity: 2
      m_PostInfinity: 2
    attribute: material._GlowStrength
    path: group2/ON_Lamina
    classID: 137
    script: {fileID: 0}
  - curve:
      serializedVersion: 2
      m_Curve:
      - time: .316666663
        value: 0
        inSlope: 65.2173843
        outSlope: 65.2173843
        tangentMode: 10
      - time: 1.08333337
        value: 50
        inSlope: -10.248455
        outSlope: -10.248455
        tangentMode: 10
      - time: 1.66666663
        value: 0
        inSlope: -85.7142944
        outSlope: -85.7142944
        tangentMode: 10
      m_PreInfinity: 2
      m_PostInfinity: 2
    attribute: blendShape.blendShape3.group4
    path: group2/ON_Retina
    classID: 137
    script: {fileID: 0}
  - curve:
      serializedVersion: 2
      m_Curve:
      - time: .316666663
        value: 0
        inSlope: 65.2173843
        outSlope: 65.2173843
        tangentMode: 10
      - time: 1.08333337
        value: 50
        inSlope: -10.248455
        outSlope: -10.248455
        tangentMode: 10
      - time: 1.66666663
        value: 0
        inSlope: -85.7142944
        outSlope: -85.7142944
        tangentMode: 10
      m_PreInfinity: 2
      m_PostInfinity: 2
    attribute: blendShape.blendShape3.group4
    path: group2/ON_RedVeins
    classID: 137
    script: {fileID: 0}
  - curve:
      serializedVersion: 2
      m_Curve:
      - time: .316666663
        value: 0
        inSlope: 65.2173843
        outSlope: 65.2173843
        tangentMode: 10
      - time: 1.08333337
        value: 50
        inSlope: -10.248455
        outSlope: -10.248455
        tangentMode: 10
      - time: 1.66666663
        value: 0
        inSlope: -85.7142944
        outSlope: -85.7142944
        tangentMode: 10
      m_PreInfinity: 2
      m_PostInfinity: 2
    attribute: blendShape.blendShape3.group4
    path: group2/ON_GanglionLayer
    classID: 137
    script: {fileID: 0}
  - curve:
      serializedVersion: 2
      m_Curve:
      - time: .316666663
        value: 0
        inSlope: 65.2173843
        outSlope: 65.2173843
        tangentMode: 10
      - time: 1.08333337
        value: 50
        inSlope: -10.248455
        outSlope: -10.248455
        tangentMode: 10
      - time: 1.66666663
        value: 0
        inSlope: -85.7142944
        outSlope: -85.7142944
        tangentMode: 10
      m_PreInfinity: 2
      m_PostInfinity: 2
    attribute: blendShape.blendShape3.group4
    path: group2/ON_FlatCentral
    classID: 137
    script: {fileID: 0}
  - curve:
      serializedVersion: 2
      m_Curve:
      - time: .316666663
        value: 0
        inSlope: 65.2173843
        outSlope: 65.2173843
        tangentMode: 10
      - time: 1.08333337
        value: 50
        inSlope: -10.248455
        outSlope: -10.248455
        tangentMode: 10
      - time: 1.66666663
        value: 0
        inSlope: -85.7142944
        outSlope: -85.7142944
        tangentMode: 10
      m_PreInfinity: 2
      m_PostInfinity: 2
    attribute: blendShape.blendShape3.group4
    path: group2/ON_DarkVeins
    classID: 137
    script: {fileID: 0}
  - curve:
      serializedVersion: 2
      m_Curve:
      - time: .316666663
        value: 100
        inSlope: -130.434769
        outSlope: -130.434769
        tangentMode: 10
      - time: 1.08333337
        value: 0
        inSlope: 20.4969101
        outSlope: 20.4969101
        tangentMode: 10
      - time: 1.66666663
        value: 100
        inSlope: 171.428589
        outSlope: 171.428589
        tangentMode: 10
      m_PreInfinity: 2
      m_PostInfinity: 2
    attribute: blendShape.blendShape7.bleed
    path: bleed1/polySurface49
    classID: 137
    script: {fileID: 0}
  - curve:
      serializedVersion: 2
      m_Curve:
      - time: .316666663
        value: 100
        inSlope: -130.434769
        outSlope: -130.434769
        tangentMode: 10
      - time: 1.08333337
        value: 0
        inSlope: 20.4969101
        outSlope: 20.4969101
        tangentMode: 10
      - time: 1.66666663
        value: 100
        inSlope: 171.428589
        outSlope: 171.428589
        tangentMode: 10
      m_PreInfinity: 2
      m_PostInfinity: 2
    attribute: blendShape.blendShape7.bleed
    path: bleed1/polySurface48
    classID: 137
    script: {fileID: 0}
  - curve:
      serializedVersion: 2
      m_Curve:
      - time: .316666663
        value: 100
        inSlope: -130.434769
        outSlope: -130.434769
        tangentMode: 10
      - time: 1.08333337
        value: 0
        inSlope: 20.4969101
        outSlope: 20.4969101
        tangentMode: 10
      - time: 1.66666663
        value: 100
        inSlope: 171.428589
        outSlope: 171.428589
        tangentMode: 10
      m_PreInfinity: 2
      m_PostInfinity: 2
    attribute: blendShape.blendShape7.bleed
    path: bleed1/polySurface47
    classID: 137
    script: {fileID: 0}
  - curve:
      serializedVersion: 2
      m_Curve:
      - time: .316666663
        value: 100
        inSlope: -130.434769
        outSlope: -130.434769
        tangentMode: 10
      - time: 1.08333337
        value: 0
        inSlope: 20.4969101
        outSlope: 20.4969101
        tangentMode: 10
      - time: 1.66666663
        value: 100
        inSlope: 171.428589
        outSlope: 171.428589
        tangentMode: 10
      m_PreInfinity: 2
      m_PostInfinity: 2
    attribute: blendShape.blendShape7.bleed
    path: bleed1/polySurface46
    classID: 137
    script: {fileID: 0}
  - curve:
      serializedVersion: 2
      m_Curve:
      - time: .316666663
        value: 100
        inSlope: -130.434769
        outSlope: -130.434769
        tangentMode: 10
      - time: 1.08333337
        value: 0
        inSlope: 20.4969101
        outSlope: 20.4969101
        tangentMode: 10
      - time: 1.66666663
        value: 100
        inSlope: 171.428589
        outSlope: 171.428589
        tangentMode: 10
      m_PreInfinity: 2
      m_PostInfinity: 2
    attribute: blendShape.blendShape7.bleed
    path: bleed1/polySurface45
    classID: 137
    script: {fileID: 0}
  - curve:
      serializedVersion: 2
      m_Curve:
      - time: .316666663
        value: 100
        inSlope: -130.434769
        outSlope: -130.434769
        tangentMode: 10
      - time: 1.08333337
        value: 0
        inSlope: 20.4969101
        outSlope: 20.4969101
        tangentMode: 10
      - time: 1.66666663
        value: 100
        inSlope: 171.428589
        outSlope: 171.428589
        tangentMode: 10
      m_PreInfinity: 2
      m_PostInfinity: 2
    attribute: blendShape.blendShape7.bleed
    path: bleed1/polySurface44
    classID: 137
    script: {fileID: 0}
  - curve:
      serializedVersion: 2
      m_Curve:
      - time: .316666663
        value: 100
        inSlope: -130.434769
        outSlope: -130.434769
        tangentMode: 10
      - time: 1.08333337
        value: 0
        inSlope: 20.4969101
        outSlope: 20.4969101
        tangentMode: 10
      - time: 1.66666663
        value: 100
        inSlope: 171.428589
        outSlope: 171.428589
        tangentMode: 10
      m_PreInfinity: 2
      m_PostInfinity: 2
    attribute: blendShape.blendShape7.bleed
    path: bleed1/polySurface43
    classID: 137
    script: {fileID: 0}
  - curve:
      serializedVersion: 2
      m_Curve:
      - time: .316666663
        value: 100
        inSlope: -130.434769
        outSlope: -130.434769
        tangentMode: 10
      - time: 1.08333337
        value: 0
        inSlope: 20.4969101
        outSlope: 20.4969101
        tangentMode: 10
      - time: 1.66666663
        value: 100
        inSlope: 171.428589
        outSlope: 171.428589
        tangentMode: 10
      m_PreInfinity: 2
      m_PostInfinity: 2
    attribute: blendShape.blendShape7.bleed
    path: bleed1/polySurface42
    classID: 137
    script: {fileID: 0}
  - curve:
      serializedVersion: 2
      m_Curve:
      - time: .316666663
        value: 100
        inSlope: -130.434769
        outSlope: -130.434769
        tangentMode: 10
      - time: 1.08333337
        value: 0
        inSlope: 20.4969101
        outSlope: 20.4969101
        tangentMode: 10
      - time: 1.66666663
        value: 100
        inSlope: 171.428589
        outSlope: 171.428589
        tangentMode: 10
      m_PreInfinity: 2
      m_PostInfinity: 2
    attribute: blendShape.blendShape7.bleed
    path: bleed1/polySurface41
    classID: 137
    script: {fileID: 0}
  - curve:
      serializedVersion: 2
      m_Curve:
      - time: .316666663
        value: 100
        inSlope: -130.434769
        outSlope: -130.434769
        tangentMode: 10
      - time: 1.08333337
        value: 0
        inSlope: 20.4969101
        outSlope: 20.4969101
        tangentMode: 10
      - time: 1.66666663
        value: 100
        inSlope: 171.428589
        outSlope: 171.428589
        tangentMode: 10
      m_PreInfinity: 2
      m_PostInfinity: 2
    attribute: blendShape.blendShape7.bleed
    path: bleed1/polySurface40
    classID: 137
    script: {fileID: 0}
  - curve:
      serializedVersion: 2
      m_Curve:
      - time: .316666663
        value: 100
        inSlope: -130.434769
        outSlope: -130.434769
        tangentMode: 10
      - time: 1.08333337
        value: 0
        inSlope: 20.4969101
        outSlope: 20.4969101
        tangentMode: 10
      - time: 1.66666663
        value: 100
        inSlope: 171.428589
        outSlope: 171.428589
        tangentMode: 10
      m_PreInfinity: 2
      m_PostInfinity: 2
    attribute: blendShape.blendShape7.bleed
    path: bleed1/polySurface39
    classID: 137
    script: {fileID: 0}
  - curve:
      serializedVersion: 2
      m_Curve:
      - time: .316666663
        value: 100
        inSlope: -130.434769
        outSlope: -130.434769
        tangentMode: 10
      - time: 1.08333337
        value: 0
        inSlope: 20.4969101
        outSlope: 20.4969101
        tangentMode: 10
      - time: 1.66666663
        value: 100
        inSlope: 171.428589
        outSlope: 171.428589
        tangentMode: 10
      m_PreInfinity: 2
      m_PostInfinity: 2
    attribute: blendShape.blendShape7.bleed
    path: bleed1/polySurface38
    classID: 137
    script: {fileID: 0}
  - curve:
      serializedVersion: 2
      m_Curve:
      - time: .316666663
        value: 100
        inSlope: -130.434769
        outSlope: -130.434769
        tangentMode: 10
      - time: 1.08333337
        value: 0
        inSlope: 20.4969101
        outSlope: 20.4969101
        tangentMode: 10
      - time: 1.66666663
        value: 100
        inSlope: 171.428589
        outSlope: 171.428589
        tangentMode: 10
      m_PreInfinity: 2
      m_PostInfinity: 2
    attribute: blendShape.blendShape7.bleed
    path: bleed1/polySurface37
    classID: 137
    script: {fileID: 0}
  - curve:
      serializedVersion: 2
      m_Curve:
      - time: .316666663
        value: 100
        inSlope: -130.434769
        outSlope: -130.434769
        tangentMode: 10
      - time: 1.08333337
        value: 0
        inSlope: 20.4969101
        outSlope: 20.4969101
        tangentMode: 10
      - time: 1.66666663
        value: 100
        inSlope: 171.428589
        outSlope: 171.428589
        tangentMode: 10
      m_PreInfinity: 2
      m_PostInfinity: 2
    attribute: blendShape.blendShape7.bleed
    path: bleed1/polySurface12
    classID: 137
    script: {fileID: 0}
  - curve:
      serializedVersion: 2
      m_Curve:
      - time: .316666663
        value: 100
        inSlope: -130.434769
        outSlope: -130.434769
        tangentMode: 10
      - time: 1.08333337
        value: 0
        inSlope: 20.4969101
        outSlope: 20.4969101
        tangentMode: 10
      - time: 1.66666663
        value: 100
        inSlope: 171.428589
        outSlope: 171.428589
        tangentMode: 10
      m_PreInfinity: 2
      m_PostInfinity: 2
    attribute: blendShape.blendShape7.bleed
    path: bleed1/polySurface9
    classID: 137
    script: {fileID: 0}
  - curve:
      serializedVersion: 2
      m_Curve:
      - time: .316666663
        value: 100
        inSlope: -130.434769
        outSlope: -130.434769
        tangentMode: 10
      - time: 1.08333337
        value: 0
        inSlope: 20.4969101
        outSlope: 20.4969101
        tangentMode: 10
      - time: 1.66666663
        value: 100
        inSlope: 171.428589
        outSlope: 171.428589
        tangentMode: 10
      m_PreInfinity: 2
      m_PostInfinity: 2
    attribute: blendShape.blendShape7.bleed
    path: bleed1/polySurface8
    classID: 137
    script: {fileID: 0}
  - curve:
      serializedVersion: 2
      m_Curve:
      - time: .316666663
        value: 100
        inSlope: -130.434769
        outSlope: -130.434769
        tangentMode: 10
      - time: 1.08333337
        value: 0
        inSlope: 20.4969101
        outSlope: 20.4969101
        tangentMode: 10
      - time: 1.66666663
        value: 100
        inSlope: 171.428589
        outSlope: 171.428589
        tangentMode: 10
      m_PreInfinity: 2
      m_PostInfinity: 2
    attribute: blendShape.blendShape7.bleed
    path: bleed1/polySurface7
    classID: 137
    script: {fileID: 0}
  - curve:
      serializedVersion: 2
      m_Curve:
      - time: .316666663
        value: 100
        inSlope: -130.434769
        outSlope: -130.434769
        tangentMode: 10
      - time: 1.08333337
        value: 0
        inSlope: 20.4969101
        outSlope: 20.4969101
        tangentMode: 10
      - time: 1.66666663
        value: 100
        inSlope: 171.428589
        outSlope: 171.428589
        tangentMode: 10
      m_PreInfinity: 2
      m_PostInfinity: 2
    attribute: blendShape.blendShape7.bleed
    path: bleed1/polySurface1
    classID: 137
    script: {fileID: 0}
  - curve:
      serializedVersion: 2
      m_Curve:
      - time: 0
        value: 14.1999998
        inSlope: 0
        outSlope: 0
        tangentMode: 10
      - time: .316666663
        value: 14.1999998
        inSlope: 23.3478241
        outSlope: 23.3478241
        tangentMode: 10
      - time: 1.08333337
        value: 50
        inSlope: 23.3478241
        outSlope: 23.3478241
        tangentMode: 10
      - time: 1.66666663
        value: 50
        inSlope: 0
        outSlope: 0
        tangentMode: 10
      m_PreInfinity: 2
      m_PostInfinity: 2
    attribute: material._SpecInt
    path: group2/ON_Lamina
    classID: 137
    script: {fileID: 0}
  - curve:
      serializedVersion: 2
      m_Curve:
      - time: 0
        value: 5
        inSlope: 0
        outSlope: 0
        tangentMode: 10
      - time: .316666663
        value: 5
        inSlope: 0
        outSlope: 0
        tangentMode: 10
      - time: 1.08333337
        value: 5
        inSlope: 0
        outSlope: 0
        tangentMode: 10
      m_PreInfinity: 2
      m_PostInfinity: 2
    attribute: material._SpecInt
    path: group2/ON_RodsCones
    classID: 137
    script: {fileID: 0}
  - curve:
      serializedVersion: 2
      m_Curve:
      - time: .316666663
        value: 1
        inSlope: Infinity
        outSlope: Infinity
        tangentMode: 31
      - time: 1.08333337
        value: 1
        inSlope: Infinity
        outSlope: Infinity
        tangentMode: 31
      m_PreInfinity: 2
      m_PostInfinity: 2
    attribute: m_Enabled
    path: 
    classID: 111
    script: {fileID: 0}
  - curve:
      serializedVersion: 2
      m_Curve:
      - time: .316666663
        value: 1
        inSlope: 0
        outSlope: 0
        tangentMode: 10
      - time: 1.08333337
        value: 1
        inSlope: -.00252102129
        outSlope: -.00252102129
        tangentMode: 10
      - time: 1.66666663
        value: .997058809
        inSlope: -.00504204258
        outSlope: -.00504204258
        tangentMode: 10
      m_PreInfinity: 2
      m_PostInfinity: 2
    attribute: material._Color.r
    path: ON_CentreMask
    classID: 137
    script: {fileID: 0}
  - curve:
      serializedVersion: 2
      m_Curve:
      - time: .316666663
        value: 1
        inSlope: 0
        outSlope: 0
        tangentMode: 10
      - time: 1.08333337
        value: 1
        inSlope: 0
        outSlope: 0
        tangentMode: 10
      - time: 1.66666663
        value: 1
        inSlope: 0
        outSlope: 0
        tangentMode: 10
      m_PreInfinity: 2
      m_PostInfinity: 2
    attribute: material._Color.g
    path: ON_CentreMask
    classID: 137
    script: {fileID: 0}
  - curve:
      serializedVersion: 2
      m_Curve:
      - time: .316666663
        value: 1
        inSlope: 0
        outSlope: 0
        tangentMode: 10
      - time: 1.08333337
        value: 1
        inSlope: -.182773098
        outSlope: -.182773098
        tangentMode: 10
      - time: 1.66666663
        value: .786764741
        inSlope: -.365546197
        outSlope: -.365546197
        tangentMode: 10
      m_PreInfinity: 2
      m_PostInfinity: 2
    attribute: material._Color.b
    path: ON_CentreMask
    classID: 137
    script: {fileID: 0}
  - curve:
      serializedVersion: 2
      m_Curve:
      - time: .316666663
        value: 0
        inSlope: 0
        outSlope: 0
        tangentMode: 10
      - time: 1.08333337
        value: 0
        inSlope: .857142985
        outSlope: .857142985
        tangentMode: 10
      - time: 1.66666663
        value: 1
        inSlope: 1.71428597
        outSlope: 1.71428597
        tangentMode: 10
      m_PreInfinity: 2
      m_PostInfinity: 2
    attribute: material._Color.a
    path: ON_CentreMask
    classID: 137
    script: {fileID: 0}
  - curve:
      serializedVersion: 2
      m_Curve:
      - time: .316666663
        value: 0
        inSlope: 65.2173843
        outSlope: 65.2173843
        tangentMode: 10
      - time: 1.08333337
        value: 50
        inSlope: -10.248455
        outSlope: -10.248455
        tangentMode: 10
      - time: 1.66666663
        value: 0
        inSlope: -85.7142944
        outSlope: -85.7142944
        tangentMode: 10
      m_PreInfinity: 2
      m_PostInfinity: 2
    attribute: blendShape.blendShape9.ON_Swell
    path: ON_CentreMask
    classID: 137
    script: {fileID: 0}
  - curve:
      serializedVersion: 2
      m_Curve:
      - time: .316666663
        value: .011805322
        inSlope: -.000137919953
        outSlope: -.000137919953
        tangentMode: 10
      - time: 1.08333337
        value: .0116995834
        inSlope: -.000137919953
        outSlope: -.000137919953
        tangentMode: 10
      m_PreInfinity: 2
      m_PostInfinity: 2
    attribute: m_AABB.m_Center.y
    path: group2/ON_FlatCentral
    classID: 137
    script: {fileID: 0}
  - curve:
      serializedVersion: 2
      m_Curve:
      - time: .316666663
        value: .0880010873
        inSlope: -.000137919953
        outSlope: -.000137919953
        tangentMode: 10
      - time: 1.08333337
        value: .0878953487
        inSlope: -.000137919953
        outSlope: -.000137919953
        tangentMode: 10
      m_PreInfinity: 2
      m_PostInfinity: 2
    attribute: m_AABB.m_Extent.y
    path: group2/ON_FlatCentral
    classID: 137
    script: {fileID: 0}
  - curve:
      serializedVersion: 2
      m_Curve:
      - time: 0
        value: 0
        inSlope: 60
        outSlope: 60
        tangentMode: 10
      - time: 1.66666663
        value: 100
        inSlope: 60
        outSlope: 60
        tangentMode: 10
      m_PreInfinity: 2
      m_PostInfinity: 2
    attribute: blendShape.blendShape8.bleed_bulge
    path: bleed1/polySurface47
    classID: 137
    script: {fileID: 0}
  - curve:
      serializedVersion: 2
      m_Curve:
      - time: 0
        value: 0
        inSlope: 60
        outSlope: 60
        tangentMode: 10
      - time: 1.66666663
        value: 100
        inSlope: 60
        outSlope: 60
        tangentMode: 10
      m_PreInfinity: 2
      m_PostInfinity: 2
    attribute: blendShape.blendShape8.bleed_bulge
    path: bleed1/polySurface12
    classID: 137
    script: {fileID: 0}
  - curve:
      serializedVersion: 2
      m_Curve:
      - time: 0
        value: 0
        inSlope: 60
        outSlope: 60
        tangentMode: 10
      - time: 1.66666663
        value: 100
        inSlope: 60
        outSlope: 60
        tangentMode: 10
      m_PreInfinity: 2
      m_PostInfinity: 2
    attribute: blendShape.blendShape8.bleed_bulge
    path: bleed1/polySurface9
    classID: 137
    script: {fileID: 0}
  - curve:
      serializedVersion: 2
      m_Curve:
      - time: 0
        value: 0
        inSlope: 60
        outSlope: 60
        tangentMode: 10
      - time: 1.66666663
        value: 100
        inSlope: 60
        outSlope: 60
        tangentMode: 10
      m_PreInfinity: 2
      m_PostInfinity: 2
    attribute: blendShape.blendShape8.bleed_bulge
    path: bleed1/polySurface40
    classID: 137
    script: {fileID: 0}
  - curve:
      serializedVersion: 2
      m_Curve:
      - time: 0
        value: 0
        inSlope: 60
        outSlope: 60
        tangentMode: 10
      - time: 1.66666663
        value: 100
        inSlope: 60
        outSlope: 60
        tangentMode: 10
      m_PreInfinity: 2
      m_PostInfinity: 2
    attribute: blendShape.blendShape8.bleed_bulge
    path: bleed1/polySurface42
    classID: 137
    script: {fileID: 0}
  - curve:
      serializedVersion: 2
      m_Curve:
      - time: 0
        value: 0
        inSlope: 60
        outSlope: 60
        tangentMode: 10
      - time: 1.66666663
        value: 100
        inSlope: 60
        outSlope: 60
        tangentMode: 10
      m_PreInfinity: 2
      m_PostInfinity: 2
    attribute: blendShape.blendShape8.bleed_bulge
    path: bleed1/polySurface37
    classID: 137
    script: {fileID: 0}
  - curve:
      serializedVersion: 2
      m_Curve:
      - time: 0
        value: 0
        inSlope: 60
        outSlope: 60
        tangentMode: 10
      - time: 1.66666663
        value: 100
        inSlope: 60
        outSlope: 60
        tangentMode: 10
      m_PreInfinity: 2
      m_PostInfinity: 2
    attribute: blendShape.blendShape8.bleed_bulge
    path: bleed1/polySurface39
    classID: 137
    script: {fileID: 0}
  - curve:
      serializedVersion: 2
      m_Curve:
      - time: 0
        value: 0
        inSlope: 60
        outSlope: 60
        tangentMode: 10
      - time: 1.66666663
        value: 100
        inSlope: 60
        outSlope: 60
        tangentMode: 10
      m_PreInfinity: 2
      m_PostInfinity: 2
    attribute: blendShape.blendShape8.bleed_bulge
    path: bleed1/polySurface41
    classID: 137
    script: {fileID: 0}
  - curve:
      serializedVersion: 2
      m_Curve:
      - time: 0
        value: 0
        inSlope: 60
        outSlope: 60
        tangentMode: 10
      - time: 1.66666663
        value: 100
        inSlope: 60
        outSlope: 60
        tangentMode: 10
      m_PreInfinity: 2
      m_PostInfinity: 2
    attribute: blendShape.blendShape8.bleed_bulge
    path: bleed1/polySurface7
    classID: 137
    script: {fileID: 0}
  - curve:
      serializedVersion: 2
      m_Curve:
      - time: 0
        value: 0
        inSlope: 60
        outSlope: 60
        tangentMode: 10
      - time: 1.66666663
        value: 100
        inSlope: 60
        outSlope: 60
        tangentMode: 10
      m_PreInfinity: 2
      m_PostInfinity: 2
    attribute: blendShape.blendShape8.bleed_bulge
    path: bleed1/polySurface48
    classID: 137
    script: {fileID: 0}
  - curve:
      serializedVersion: 2
      m_Curve:
      - time: 0
        value: 0
        inSlope: 60
        outSlope: 60
        tangentMode: 10
      - time: 1.66666663
        value: 100
        inSlope: 60
        outSlope: 60
        tangentMode: 10
      m_PreInfinity: 2
      m_PostInfinity: 2
    attribute: blendShape.blendShape8.bleed_bulge
    path: bleed1/polySurface46
    classID: 137
    script: {fileID: 0}
  - curve:
      serializedVersion: 2
      m_Curve:
      - time: 0
        value: 0
        inSlope: 60
        outSlope: 60
        tangentMode: 10
      - time: 1.66666663
        value: 100
        inSlope: 60
        outSlope: 60
        tangentMode: 10
      m_PreInfinity: 2
      m_PostInfinity: 2
    attribute: blendShape.blendShape8.bleed_bulge
    path: bleed1/polySurface38
    classID: 137
    script: {fileID: 0}
  - curve:
      serializedVersion: 2
      m_Curve:
      - time: 0
        value: 0
        inSlope: 60
        outSlope: 60
        tangentMode: 10
      - time: 1.66666663
        value: 100
        inSlope: 60
        outSlope: 60
        tangentMode: 10
      m_PreInfinity: 2
      m_PostInfinity: 2
    attribute: blendShape.blendShape8.bleed_bulge
    path: bleed1/polySurface1
    classID: 137
    script: {fileID: 0}
  - curve:
      serializedVersion: 2
      m_Curve:
      - time: 0
        value: 0
        inSlope: 60
        outSlope: 60
        tangentMode: 10
      - time: 1.66666663
        value: 100
        inSlope: 60
        outSlope: 60
        tangentMode: 10
      m_PreInfinity: 2
      m_PostInfinity: 2
    attribute: blendShape.blendShape8.bleed_bulge
    path: bleed1/polySurface45
    classID: 137
    script: {fileID: 0}
  - curve:
      serializedVersion: 2
      m_Curve:
      - time: 0
        value: 0
        inSlope: 60
        outSlope: 60
        tangentMode: 10
      - time: 1.66666663
        value: 100
        inSlope: 60
        outSlope: 60
        tangentMode: 10
      m_PreInfinity: 2
      m_PostInfinity: 2
    attribute: blendShape.blendShape8.bleed_bulge
    path: bleed1/polySurface44
    classID: 137
    script: {fileID: 0}
  - curve:
      serializedVersion: 2
      m_Curve:
      - time: 0
        value: 0
        inSlope: 60
        outSlope: 60
        tangentMode: 10
      - time: 1.66666663
        value: 100
        inSlope: 60
        outSlope: 60
        tangentMode: 10
      m_PreInfinity: 2
      m_PostInfinity: 2
    attribute: blendShape.blendShape8.bleed_bulge
    path: bleed1/polySurface8
    classID: 137
    script: {fileID: 0}
  - curve:
      serializedVersion: 2
      m_Curve:
      - time: 0
        value: 0
        inSlope: 60
        outSlope: 60
        tangentMode: 10
      - time: 1.66666663
        value: 100
        inSlope: 60
        outSlope: 60
        tangentMode: 10
      m_PreInfinity: 2
      m_PostInfinity: 2
    attribute: blendShape.blendShape8.bleed_bulge
    path: bleed1/polySurface49
    classID: 137
    script: {fileID: 0}
  - curve:
      serializedVersion: 2
      m_Curve:
      - time: 0
        value: 0
        inSlope: 60
        outSlope: 60
        tangentMode: 10
      - time: 1.66666663
        value: 100
        inSlope: 60
        outSlope: 60
        tangentMode: 10
      m_PreInfinity: 2
      m_PostInfinity: 2
    attribute: blendShape.blendShape8.bleed_bulge
    path: bleed1/polySurface43
    classID: 137
    script: {fileID: 0}
  - curve:
      serializedVersion: 2
      m_Curve:
      - time: 0
        value: 20
        inSlope: 0
        outSlope: 0
        tangentMode: 10
      m_PreInfinity: 2
      m_PostInfinity: 2
    attribute: material._SpecInt
    path: group2/ON_GanglionLayer
    classID: 137
    script: {fileID: 0}
  m_PPtrCurves: []
  m_SampleRate: 60
  m_WrapMode: 0
  m_Bounds:
    m_Center: {x: 0, y: 0, z: 0}
    m_Extent: {x: 0, y: 0, z: 0}
  m_ClipBindingConstant:
    genericBindings:
    - path: 2316491021
      attribute: 1571785585
      script: {fileID: 0}
      classID: 137
      customType: 22
      isPPtrCurve: 0
    - path: 2316491021
      attribute: 1840221041
      script: {fileID: 0}
      classID: 137
      customType: 22
      isPPtrCurve: 0
    - path: 2316491021
      attribute: 2108656497
      script: {fileID: 0}
      classID: 137
      customType: 22
      isPPtrCurve: 0
    - path: 2348060339
      attribute: 2334598523
      script: {fileID: 0}
      classID: 137
      customType: 22
      isPPtrCurve: 0
    - path: 1790530445
      attribute: 2172146496
      script: {fileID: 0}
      classID: 137
      customType: 22
      isPPtrCurve: 0
    - path: 2348060339
      attribute: 3438497161
      script: {fileID: 0}
      classID: 137
      customType: 20
      isPPtrCurve: 0
    - path: 1341544333
      attribute: 3438497161
      script: {fileID: 0}
      classID: 137
      customType: 20
      isPPtrCurve: 0
    - path: 2251432464
      attribute: 3438497161
      script: {fileID: 0}
      classID: 137
      customType: 20
      isPPtrCurve: 0
    - path: 2375634460
      attribute: 3438497161
      script: {fileID: 0}
      classID: 137
      customType: 20
      isPPtrCurve: 0
    - path: 960907568
      attribute: 3438497161
      script: {fileID: 0}
      classID: 137
      customType: 20
      isPPtrCurve: 0
    - path: 2073783315
      attribute: 565617811
      script: {fileID: 0}
      classID: 137
      customType: 20
      isPPtrCurve: 0
    - path: 211573893
      attribute: 565617811
      script: {fileID: 0}
      classID: 137
      customType: 20
      isPPtrCurve: 0
    - path: 2619556116
      attribute: 565617811
      script: {fileID: 0}
      classID: 137
      customType: 20
      isPPtrCurve: 0
    - path: 3945034114
      attribute: 565617811
      script: {fileID: 0}
      classID: 137
      customType: 20
      isPPtrCurve: 0
    - path: 1915559992
      attribute: 565617811
      script: {fileID: 0}
      classID: 137
      customType: 20
      isPPtrCurve: 0
    - path: 86642862
      attribute: 565617811
      script: {fileID: 0}
      classID: 137
      customType: 20
      isPPtrCurve: 0
    - path: 2605614349
      attribute: 565617811
      script: {fileID: 0}
      classID: 137
      customType: 20
      isPPtrCurve: 0
    - path: 3964253595
      attribute: 565617811
      script: {fileID: 0}
      classID: 137
      customType: 20
      isPPtrCurve: 0
    - path: 1967186977
      attribute: 565617811
      script: {fileID: 0}
      classID: 137
      customType: 20
      isPPtrCurve: 0
    - path: 38261943
      attribute: 565617811
      script: {fileID: 0}
      classID: 137
      customType: 20
      isPPtrCurve: 0
    - path: 886766292
      attribute: 565617811
      script: {fileID: 0}
      classID: 137
      customType: 20
      isPPtrCurve: 0
    - path: 1138608706
      attribute: 565617811
      script: {fileID: 0}
      classID: 137
      customType: 20
      isPPtrCurve: 0
    - path: 3546470355
      attribute: 565617811
      script: {fileID: 0}
      classID: 137
      customType: 20
      isPPtrCurve: 0
    - path: 2436776414
      attribute: 565617811
      script: {fileID: 0}
      classID: 137
      customType: 20
      isPPtrCurve: 0
    - path: 1536995688
      attribute: 565617811
      script: {fileID: 0}
      classID: 137
      customType: 20
      isPPtrCurve: 0
    - path: 748388862
      attribute: 565617811
      script: {fileID: 0}
      classID: 137
      customType: 20
      isPPtrCurve: 0
    - path: 3156515951
      attribute: 565617811
      script: {fileID: 0}
      classID: 137
      customType: 20
      isPPtrCurve: 0
    - path: 1430731098
      attribute: 565617811
      script: {fileID: 0}
      classID: 137
      customType: 20
      isPPtrCurve: 0
    - path: 1790530445
      attribute: 2334598523
      script: {fileID: 0}
      classID: 137
      customType: 22
      isPPtrCurve: 0
    - path: 0
      attribute: 3305885265
      script: {fileID: 0}
      classID: 111
      customType: 0
      isPPtrCurve: 0
    - path: 4035155468
      attribute: 1303350129
      script: {fileID: 0}
      classID: 137
      customType: 22
      isPPtrCurve: 0
    - path: 4035155468
      attribute: 1840221041
      script: {fileID: 0}
      classID: 137
      customType: 22
      isPPtrCurve: 0
    - path: 4035155468
      attribute: 2108656497
      script: {fileID: 0}
      classID: 137
      customType: 22
      isPPtrCurve: 0
    - path: 4035155468
      attribute: 3331935936
      script: {fileID: 0}
      classID: 137
      customType: 20
      isPPtrCurve: 0
    - path: 2375634460
      attribute: 608387334
      script: {fileID: 0}
      classID: 137
      customType: 0
      isPPtrCurve: 0
    - path: 2375634460
      attribute: 3362050547
      script: {fileID: 0}
      classID: 137
      customType: 0
      isPPtrCurve: 0
    - path: 2619556116
      attribute: 2635301102
      script: {fileID: 0}
      classID: 137
      customType: 20
      isPPtrCurve: 0
    - path: 2436776414
      attribute: 2635301102
      script: {fileID: 0}
      classID: 137
      customType: 20
      isPPtrCurve: 0
    - path: 1536995688
      attribute: 2635301102
      script: {fileID: 0}
      classID: 137
      customType: 20
      isPPtrCurve: 0
    - path: 38261943
      attribute: 2635301102
      script: {fileID: 0}
      classID: 137
      customType: 20
      isPPtrCurve: 0
    - path: 3964253595
      attribute: 2635301102
      script: {fileID: 0}
      classID: 137
      customType: 20
      isPPtrCurve: 0
    - path: 3546470355
      attribute: 2635301102
      script: {fileID: 0}
      classID: 137
      customType: 20
      isPPtrCurve: 0
    - path: 886766292
      attribute: 2635301102
      script: {fileID: 0}
      classID: 137
      customType: 20
      isPPtrCurve: 0
    - path: 1967186977
      attribute: 2635301102
      script: {fileID: 0}
      classID: 137
      customType: 20
      isPPtrCurve: 0
    - path: 3156515951
      attribute: 2635301102
      script: {fileID: 0}
      classID: 137
      customType: 20
      isPPtrCurve: 0
    - path: 211573893
      attribute: 2635301102
      script: {fileID: 0}
      classID: 137
      customType: 20
      isPPtrCurve: 0
    - path: 3945034114
      attribute: 2635301102
      script: {fileID: 0}
      classID: 137
      customType: 20
      isPPtrCurve: 0
    - path: 1138608706
      attribute: 2635301102
      script: {fileID: 0}
      classID: 137
      customType: 20
      isPPtrCurve: 0
    - path: 1430731098
      attribute: 2635301102
      script: {fileID: 0}
      classID: 137
      customType: 20
      isPPtrCurve: 0
    - path: 1915559992
      attribute: 2635301102
      script: {fileID: 0}
      classID: 137
      customType: 20
      isPPtrCurve: 0
    - path: 86642862
      attribute: 2635301102
      script: {fileID: 0}
      classID: 137
      customType: 20
      isPPtrCurve: 0
    - path: 748388862
      attribute: 2635301102
      script: {fileID: 0}
      classID: 137
      customType: 20
      isPPtrCurve: 0
    - path: 2073783315
      attribute: 2635301102
      script: {fileID: 0}
      classID: 137
      customType: 20
      isPPtrCurve: 0
    - path: 2605614349
      attribute: 2635301102
      script: {fileID: 0}
      classID: 137
      customType: 20
      isPPtrCurve: 0
    - path: 2316491021
      attribute: 1303350129
      script: {fileID: 0}
      classID: 137
      customType: 22
      isPPtrCurve: 0
    - path: 966491683
      attribute: 2334598523
      script: {fileID: 0}
      classID: 137
      customType: 22
      isPPtrCurve: 0
    - path: 4035155468
      attribute: 1571785585
      script: {fileID: 0}
      classID: 137
      customType: 22
      isPPtrCurve: 0
    - path: 2251432464
      attribute: 2334598523
      script: {fileID: 0}
      classID: 137
      customType: 22
      isPPtrCurve: 0
    pptrCurveMapping: []
  m_AnimationClipSettings:
    serializedVersion: 2
    m_StartTime: 0
    m_StopTime: 1.66666663
    m_OrientationOffsetY: 0
    m_Level: 0
    m_CycleOffset: 0
    m_LoopTime: 1
    m_LoopBlend: 0
    m_LoopBlendOrientation: 0
    m_LoopBlendPositionY: 0
    m_LoopBlendPositionXZ: 0
    m_KeepOriginalOrientation: 0
    m_KeepOriginalPositionY: 1
    m_KeepOriginalPositionXZ: 0
    m_HeightFromFeet: 0
    m_Mirror: 0
  m_EditorCurves:
  - curve:
      serializedVersion: 2
      m_Curve:
      - time: 0
        value: 1
        inSlope: 0
        outSlope: 0
        tangentMode: 10
      - time: .316666663
        value: 1
        inSlope: 0
        outSlope: 0
        tangentMode: 10
      m_PreInfinity: 2
      m_PostInfinity: 2
    attribute: material._Color.r
    path: group2/ON_OuterVessels
    classID: 137
    script: {fileID: 0}
  - curve:
      serializedVersion: 2
      m_Curve:
      - time: 0
        value: .160779908
        inSlope: .927579403
        outSlope: .927579403
        tangentMode: 10
      - time: .316666663
        value: .454513371
        inSlope: .927579403
        outSlope: .927579403
        tangentMode: 10
      m_PreInfinity: 2
      m_PostInfinity: 2
    attribute: material._Color.g
    path: group2/ON_OuterVessels
    classID: 137
    script: {fileID: 0}
  - curve:
      serializedVersion: 2
      m_Curve:
      - time: 0
        value: 0
        inSlope: 1.11455107
        outSlope: 1.11455107
        tangentMode: 10
      - time: .316666663
        value: .352941155
        inSlope: 1.11455107
        outSlope: 1.11455107
        tangentMode: 10
      m_PreInfinity: 2
      m_PostInfinity: 2
    attribute: material._Color.b
    path: group2/ON_OuterVessels
    classID: 137
    script: {fileID: 0}
  - curve:
      serializedVersion: 2
      m_Curve:
      - time: 0
        value: .937254906
        inSlope: .198142409
        outSlope: .198142409
        tangentMode: 10
      - time: .316666663
        value: 1
        inSlope: .198142409
        outSlope: .198142409
        tangentMode: 10
      m_PreInfinity: 2
      m_PostInfinity: 2
    attribute: material._Color.a
    path: group2/ON_OuterVessels
    classID: 137
    script: {fileID: 0}
  - curve:
      serializedVersion: 2
      m_Curve:
      - time: 0
        value: 10
        inSlope: 0
        outSlope: 0
        tangentMode: 10
      - time: .316666663
        value: 10
        inSlope: 58.6956482
        outSlope: 58.6956482
        tangentMode: 10
      - time: 1.08333337
        value: 100
        inSlope: 117.391296
        outSlope: 117.391296
        tangentMode: 10
      m_PreInfinity: 2
      m_PostInfinity: 2
    attribute: material._SpecInt
    path: group2/ON_Retina
    classID: 137
    script: {fileID: 0}
  - curve:
      serializedVersion: 2
      m_Curve:
      - time: .316666663
        value: -.699999988
        inSlope: .495652139
        outSlope: .495652139
        tangentMode: 10
      - time: 1.08333337
        value: -.319999993
        inSlope: .495652139
        outSlope: .495652139
        tangentMode: 10
      m_PreInfinity: 2
      m_PostInfinity: 2
    attribute: material._GlowStrength
    path: group2/ON_Lamina
    classID: 137
    script: {fileID: 0}
  - curve:
      serializedVersion: 2
      m_Curve:
      - time: .316666663
        value: 0
        inSlope: 65.2173843
        outSlope: 65.2173843
        tangentMode: 10
      - time: 1.08333337
        value: 50
        inSlope: -10.248455
        outSlope: -10.248455
        tangentMode: 10
      - time: 1.66666663
        value: 0
        inSlope: -85.7142944
        outSlope: -85.7142944
        tangentMode: 10
      m_PreInfinity: 2
      m_PostInfinity: 2
    attribute: blendShape.blendShape3.group4
    path: group2/ON_Retina
    classID: 137
    script: {fileID: 0}
  - curve:
      serializedVersion: 2
      m_Curve:
      - time: .316666663
        value: 0
        inSlope: 65.2173843
        outSlope: 65.2173843
        tangentMode: 10
      - time: 1.08333337
        value: 50
        inSlope: -10.248455
        outSlope: -10.248455
        tangentMode: 10
      - time: 1.66666663
        value: 0
        inSlope: -85.7142944
        outSlope: -85.7142944
        tangentMode: 10
      m_PreInfinity: 2
      m_PostInfinity: 2
    attribute: blendShape.blendShape3.group4
    path: group2/ON_RedVeins
    classID: 137
    script: {fileID: 0}
  - curve:
      serializedVersion: 2
      m_Curve:
      - time: .316666663
        value: 0
        inSlope: 65.2173843
        outSlope: 65.2173843
        tangentMode: 10
      - time: 1.08333337
        value: 50
        inSlope: -10.248455
        outSlope: -10.248455
        tangentMode: 10
      - time: 1.66666663
        value: 0
        inSlope: -85.7142944
        outSlope: -85.7142944
        tangentMode: 10
      m_PreInfinity: 2
      m_PostInfinity: 2
    attribute: blendShape.blendShape3.group4
    path: group2/ON_GanglionLayer
    classID: 137
    script: {fileID: 0}
  - curve:
      serializedVersion: 2
      m_Curve:
      - time: .316666663
        value: 0
        inSlope: 65.2173843
        outSlope: 65.2173843
        tangentMode: 10
      - time: 1.08333337
        value: 50
        inSlope: -10.248455
        outSlope: -10.248455
        tangentMode: 10
      - time: 1.66666663
        value: 0
        inSlope: -85.7142944
        outSlope: -85.7142944
        tangentMode: 10
      m_PreInfinity: 2
      m_PostInfinity: 2
    attribute: blendShape.blendShape3.group4
    path: group2/ON_FlatCentral
    classID: 137
    script: {fileID: 0}
  - curve:
      serializedVersion: 2
      m_Curve:
      - time: .316666663
        value: 0
        inSlope: 65.2173843
        outSlope: 65.2173843
        tangentMode: 10
      - time: 1.08333337
        value: 50
        inSlope: -10.248455
        outSlope: -10.248455
        tangentMode: 10
      - time: 1.66666663
        value: 0
        inSlope: -85.7142944
        outSlope: -85.7142944
        tangentMode: 10
      m_PreInfinity: 2
      m_PostInfinity: 2
    attribute: blendShape.blendShape3.group4
    path: group2/ON_DarkVeins
    classID: 137
    script: {fileID: 0}
  - curve:
      serializedVersion: 2
      m_Curve:
      - time: .316666663
        value: 100
        inSlope: -130.434769
        outSlope: -130.434769
        tangentMode: 10
      - time: 1.08333337
        value: 0
        inSlope: 20.4969101
        outSlope: 20.4969101
        tangentMode: 10
      - time: 1.66666663
        value: 100
        inSlope: 171.428589
        outSlope: 171.428589
        tangentMode: 10
      m_PreInfinity: 2
      m_PostInfinity: 2
    attribute: blendShape.blendShape7.bleed
    path: bleed1/polySurface49
    classID: 137
    script: {fileID: 0}
  - curve:
      serializedVersion: 2
      m_Curve:
      - time: .316666663
        value: 100
        inSlope: -130.434769
        outSlope: -130.434769
        tangentMode: 10
      - time: 1.08333337
        value: 0
        inSlope: 20.4969101
        outSlope: 20.4969101
        tangentMode: 10
      - time: 1.66666663
        value: 100
        inSlope: 171.428589
        outSlope: 171.428589
        tangentMode: 10
      m_PreInfinity: 2
      m_PostInfinity: 2
    attribute: blendShape.blendShape7.bleed
    path: bleed1/polySurface48
    classID: 137
    script: {fileID: 0}
  - curve:
      serializedVersion: 2
      m_Curve:
      - time: .316666663
        value: 100
        inSlope: -130.434769
        outSlope: -130.434769
        tangentMode: 10
      - time: 1.08333337
        value: 0
        inSlope: 20.4969101
        outSlope: 20.4969101
        tangentMode: 10
      - time: 1.66666663
        value: 100
        inSlope: 171.428589
        outSlope: 171.428589
        tangentMode: 10
      m_PreInfinity: 2
      m_PostInfinity: 2
    attribute: blendShape.blendShape7.bleed
    path: bleed1/polySurface47
    classID: 137
    script: {fileID: 0}
  - curve:
      serializedVersion: 2
      m_Curve:
      - time: .316666663
        value: 100
        inSlope: -130.434769
        outSlope: -130.434769
        tangentMode: 10
      - time: 1.08333337
        value: 0
        inSlope: 20.4969101
        outSlope: 20.4969101
        tangentMode: 10
      - time: 1.66666663
        value: 100
        inSlope: 171.428589
        outSlope: 171.428589
        tangentMode: 10
      m_PreInfinity: 2
      m_PostInfinity: 2
    attribute: blendShape.blendShape7.bleed
    path: bleed1/polySurface46
    classID: 137
    script: {fileID: 0}
  - curve:
      serializedVersion: 2
      m_Curve:
      - time: .316666663
        value: 100
        inSlope: -130.434769
        outSlope: -130.434769
        tangentMode: 10
      - time: 1.08333337
        value: 0
        inSlope: 20.4969101
        outSlope: 20.4969101
        tangentMode: 10
      - time: 1.66666663
        value: 100
        inSlope: 171.428589
        outSlope: 171.428589
        tangentMode: 10
      m_PreInfinity: 2
      m_PostInfinity: 2
    attribute: blendShape.blendShape7.bleed
    path: bleed1/polySurface45
    classID: 137
    script: {fileID: 0}
  - curve:
      serializedVersion: 2
      m_Curve:
      - time: .316666663
        value: 100
        inSlope: -130.434769
        outSlope: -130.434769
        tangentMode: 10
      - time: 1.08333337
        value: 0
        inSlope: 20.4969101
        outSlope: 20.4969101
        tangentMode: 10
      - time: 1.66666663
        value: 100
        inSlope: 171.428589
        outSlope: 171.428589
        tangentMode: 10
      m_PreInfinity: 2
      m_PostInfinity: 2
    attribute: blendShape.blendShape7.bleed
    path: bleed1/polySurface44
    classID: 137
    script: {fileID: 0}
  - curve:
      serializedVersion: 2
      m_Curve:
      - time: .316666663
        value: 100
        inSlope: -130.434769
        outSlope: -130.434769
        tangentMode: 10
      - time: 1.08333337
        value: 0
        inSlope: 20.4969101
        outSlope: 20.4969101
        tangentMode: 10
      - time: 1.66666663
        value: 100
        inSlope: 171.428589
        outSlope: 171.428589
        tangentMode: 10
      m_PreInfinity: 2
      m_PostInfinity: 2
    attribute: blendShape.blendShape7.bleed
    path: bleed1/polySurface43
    classID: 137
    script: {fileID: 0}
  - curve:
      serializedVersion: 2
      m_Curve:
      - time: .316666663
        value: 100
        inSlope: -130.434769
        outSlope: -130.434769
        tangentMode: 10
      - time: 1.08333337
        value: 0
        inSlope: 20.4969101
        outSlope: 20.4969101
        tangentMode: 10
      - time: 1.66666663
        value: 100
        inSlope: 171.428589
        outSlope: 171.428589
        tangentMode: 10
      m_PreInfinity: 2
      m_PostInfinity: 2
    attribute: blendShape.blendShape7.bleed
    path: bleed1/polySurface42
    classID: 137
    script: {fileID: 0}
  - curve:
      serializedVersion: 2
      m_Curve:
      - time: .316666663
        value: 100
        inSlope: -130.434769
        outSlope: -130.434769
        tangentMode: 10
      - time: 1.08333337
        value: 0
        inSlope: 20.4969101
        outSlope: 20.4969101
        tangentMode: 10
      - time: 1.66666663
        value: 100
        inSlope: 171.428589
        outSlope: 171.428589
        tangentMode: 10
      m_PreInfinity: 2
      m_PostInfinity: 2
    attribute: blendShape.blendShape7.bleed
    path: bleed1/polySurface41
    classID: 137
    script: {fileID: 0}
  - curve:
      serializedVersion: 2
      m_Curve:
      - time: .316666663
        value: 100
        inSlope: -130.434769
        outSlope: -130.434769
        tangentMode: 10
      - time: 1.08333337
        value: 0
        inSlope: 20.4969101
        outSlope: 20.4969101
        tangentMode: 10
      - time: 1.66666663
        value: 100
        inSlope: 171.428589
        outSlope: 171.428589
        tangentMode: 10
      m_PreInfinity: 2
      m_PostInfinity: 2
    attribute: blendShape.blendShape7.bleed
    path: bleed1/polySurface40
    classID: 137
    script: {fileID: 0}
  - curve:
      serializedVersion: 2
      m_Curve:
      - time: .316666663
        value: 100
        inSlope: -130.434769
        outSlope: -130.434769
        tangentMode: 10
      - time: 1.08333337
        value: 0
        inSlope: 20.4969101
        outSlope: 20.4969101
        tangentMode: 10
      - time: 1.66666663
        value: 100
        inSlope: 171.428589
        outSlope: 171.428589
        tangentMode: 10
      m_PreInfinity: 2
      m_PostInfinity: 2
    attribute: blendShape.blendShape7.bleed
    path: bleed1/polySurface39
    classID: 137
    script: {fileID: 0}
  - curve:
      serializedVersion: 2
      m_Curve:
      - time: .316666663
        value: 100
        inSlope: -130.434769
        outSlope: -130.434769
        tangentMode: 10
      - time: 1.08333337
        value: 0
        inSlope: 20.4969101
        outSlope: 20.4969101
        tangentMode: 10
      - time: 1.66666663
        value: 100
        inSlope: 171.428589
        outSlope: 171.428589
        tangentMode: 10
      m_PreInfinity: 2
      m_PostInfinity: 2
    attribute: blendShape.blendShape7.bleed
    path: bleed1/polySurface38
    classID: 137
    script: {fileID: 0}
  - curve:
      serializedVersion: 2
      m_Curve:
      - time: .316666663
        value: 100
        inSlope: -130.434769
        outSlope: -130.434769
        tangentMode: 10
      - time: 1.08333337
        value: 0
        inSlope: 20.4969101
        outSlope: 20.4969101
        tangentMode: 10
      - time: 1.66666663
        value: 100
        inSlope: 171.428589
        outSlope: 171.428589
        tangentMode: 10
      m_PreInfinity: 2
      m_PostInfinity: 2
    attribute: blendShape.blendShape7.bleed
    path: bleed1/polySurface37
    classID: 137
    script: {fileID: 0}
  - curve:
      serializedVersion: 2
      m_Curve:
      - time: .316666663
        value: 100
        inSlope: -130.434769
        outSlope: -130.434769
        tangentMode: 10
      - time: 1.08333337
        value: 0
        inSlope: 20.4969101
        outSlope: 20.4969101
        tangentMode: 10
      - time: 1.66666663
        value: 100
        inSlope: 171.428589
        outSlope: 171.428589
        tangentMode: 10
      m_PreInfinity: 2
      m_PostInfinity: 2
    attribute: blendShape.blendShape7.bleed
    path: bleed1/polySurface12
    classID: 137
    script: {fileID: 0}
  - curve:
      serializedVersion: 2
      m_Curve:
      - time: .316666663
        value: 100
        inSlope: -130.434769
        outSlope: -130.434769
        tangentMode: 10
      - time: 1.08333337
        value: 0
        inSlope: 20.4969101
        outSlope: 20.4969101
        tangentMode: 10
      - time: 1.66666663
        value: 100
        inSlope: 171.428589
        outSlope: 171.428589
        tangentMode: 10
      m_PreInfinity: 2
      m_PostInfinity: 2
    attribute: blendShape.blendShape7.bleed
    path: bleed1/polySurface9
    classID: 137
    script: {fileID: 0}
  - curve:
      serializedVersion: 2
      m_Curve:
      - time: .316666663
        value: 100
        inSlope: -130.434769
        outSlope: -130.434769
        tangentMode: 10
      - time: 1.08333337
        value: 0
        inSlope: 20.4969101
        outSlope: 20.4969101
        tangentMode: 10
      - time: 1.66666663
        value: 100
        inSlope: 171.428589
        outSlope: 171.428589
        tangentMode: 10
      m_PreInfinity: 2
      m_PostInfinity: 2
    attribute: blendShape.blendShape7.bleed
    path: bleed1/polySurface8
    classID: 137
    script: {fileID: 0}
  - curve:
      serializedVersion: 2
      m_Curve:
      - time: .316666663
        value: 100
        inSlope: -130.434769
        outSlope: -130.434769
        tangentMode: 10
      - time: 1.08333337
        value: 0
        inSlope: 20.4969101
        outSlope: 20.4969101
        tangentMode: 10
      - time: 1.66666663
        value: 100
        inSlope: 171.428589
        outSlope: 171.428589
        tangentMode: 10
      m_PreInfinity: 2
      m_PostInfinity: 2
    attribute: blendShape.blendShape7.bleed
    path: bleed1/polySurface7
    classID: 137
    script: {fileID: 0}
  - curve:
      serializedVersion: 2
      m_Curve:
      - time: .316666663
        value: 100
        inSlope: -130.434769
        outSlope: -130.434769
        tangentMode: 10
      - time: 1.08333337
        value: 0
        inSlope: 20.4969101
        outSlope: 20.4969101
        tangentMode: 10
      - time: 1.66666663
        value: 100
        inSlope: 171.428589
        outSlope: 171.428589
        tangentMode: 10
      m_PreInfinity: 2
      m_PostInfinity: 2
    attribute: blendShape.blendShape7.bleed
    path: bleed1/polySurface1
    classID: 137
    script: {fileID: 0}
  - curve:
      serializedVersion: 2
      m_Curve:
      - time: 0
        value: 14.1999998
        inSlope: 0
        outSlope: 0
        tangentMode: 10
      - time: .316666663
        value: 14.1999998
        inSlope: 23.3478241
        outSlope: 23.3478241
        tangentMode: 10
      - time: 1.08333337
        value: 50
        inSlope: 23.3478241
        outSlope: 23.3478241
        tangentMode: 10
      - time: 1.66666663
        value: 50
        inSlope: 0
        outSlope: 0
        tangentMode: 10
      m_PreInfinity: 2
      m_PostInfinity: 2
    attribute: material._SpecInt
    path: group2/ON_Lamina
    classID: 137
    script: {fileID: 0}
  - curve:
      serializedVersion: 2
      m_Curve:
      - time: 0
        value: 5
        inSlope: 0
        outSlope: 0
        tangentMode: 10
      - time: .316666663
        value: 5
        inSlope: 0
        outSlope: 0
        tangentMode: 10
      - time: 1.08333337
        value: 5
        inSlope: 0
        outSlope: 0
        tangentMode: 10
      m_PreInfinity: 2
      m_PostInfinity: 2
    attribute: material._SpecInt
    path: group2/ON_RodsCones
    classID: 137
    script: {fileID: 0}
  - curve:
      serializedVersion: 2
      m_Curve:
      - time: .316666663
        value: 1
        inSlope: Infinity
        outSlope: Infinity
        tangentMode: 31
      - time: 1.08333337
        value: 1
        inSlope: Infinity
        outSlope: Infinity
        tangentMode: 31
      m_PreInfinity: 2
      m_PostInfinity: 2
    attribute: m_Enabled
    path: 
    classID: 111
    script: {fileID: 0}
  - curve:
      serializedVersion: 2
      m_Curve:
      - time: .316666663
        value: 1
        inSlope: 0
        outSlope: 0
        tangentMode: 10
      - time: 1.08333337
        value: 1
        inSlope: -.00252102129
        outSlope: -.00252102129
        tangentMode: 10
      - time: 1.66666663
        value: .997058809
        inSlope: -.00504204258
        outSlope: -.00504204258
        tangentMode: 10
      m_PreInfinity: 2
      m_PostInfinity: 2
    attribute: material._Color.r
    path: ON_CentreMask
    classID: 137
    script: {fileID: 0}
  - curve:
      serializedVersion: 2
      m_Curve:
      - time: .316666663
        value: 1
        inSlope: 0
        outSlope: 0
        tangentMode: 10
      - time: 1.08333337
        value: 1
        inSlope: 0
        outSlope: 0
        tangentMode: 10
      - time: 1.66666663
        value: 1
        inSlope: 0
        outSlope: 0
        tangentMode: 10
      m_PreInfinity: 2
      m_PostInfinity: 2
    attribute: material._Color.g
    path: ON_CentreMask
    classID: 137
    script: {fileID: 0}
  - curve:
      serializedVersion: 2
      m_Curve:
      - time: .316666663
        value: 1
        inSlope: 0
        outSlope: 0
        tangentMode: 10
      - time: 1.08333337
        value: 1
        inSlope: -.182773098
        outSlope: -.182773098
        tangentMode: 10
      - time: 1.66666663
        value: .786764741
        inSlope: -.365546197
        outSlope: -.365546197
        tangentMode: 10
      m_PreInfinity: 2
      m_PostInfinity: 2
    attribute: material._Color.b
    path: ON_CentreMask
    classID: 137
    script: {fileID: 0}
  - curve:
      serializedVersion: 2
      m_Curve:
      - time: .316666663
        value: 0
        inSlope: 0
        outSlope: 0
        tangentMode: 10
      - time: 1.08333337
        value: 0
        inSlope: .857142985
        outSlope: .857142985
        tangentMode: 10
      - time: 1.66666663
        value: 1
        inSlope: 1.71428597
        outSlope: 1.71428597
        tangentMode: 10
      m_PreInfinity: 2
      m_PostInfinity: 2
    attribute: material._Color.a
    path: ON_CentreMask
    classID: 137
    script: {fileID: 0}
  - curve:
      serializedVersion: 2
      m_Curve:
      - time: .316666663
        value: 0
        inSlope: 65.2173843
        outSlope: 65.2173843
        tangentMode: 10
      - time: 1.08333337
        value: 50
        inSlope: -10.248455
        outSlope: -10.248455
        tangentMode: 10
      - time: 1.66666663
        value: 0
        inSlope: -85.7142944
        outSlope: -85.7142944
        tangentMode: 10
      m_PreInfinity: 2
      m_PostInfinity: 2
    attribute: blendShape.blendShape9.ON_Swell
    path: ON_CentreMask
    classID: 137
    script: {fileID: 0}
  - curve:
      serializedVersion: 2
      m_Curve:
      - time: .316666663
        value: .011805322
        inSlope: -.000137919953
        outSlope: -.000137919953
        tangentMode: 10
      - time: 1.08333337
        value: .0116995834
        inSlope: -.000137919953
        outSlope: -.000137919953
        tangentMode: 10
      m_PreInfinity: 2
      m_PostInfinity: 2
    attribute: m_AABB.m_Center.y
    path: group2/ON_FlatCentral
    classID: 137
    script: {fileID: 0}
  - curve:
      serializedVersion: 2
      m_Curve:
      - time: .316666663
        value: .0880010873
        inSlope: -.000137919953
        outSlope: -.000137919953
        tangentMode: 10
      - time: 1.08333337
        value: .0878953487
        inSlope: -.000137919953
        outSlope: -.000137919953
        tangentMode: 10
      m_PreInfinity: 2
      m_PostInfinity: 2
    attribute: m_AABB.m_Extent.y
    path: group2/ON_FlatCentral
    classID: 137
    script: {fileID: 0}
  - curve:
      serializedVersion: 2
      m_Curve:
      - time: 0
        value: 0
        inSlope: 60
        outSlope: 60
        tangentMode: 10
      - time: 1.66666663
        value: 100
        inSlope: 60
        outSlope: 60
        tangentMode: 10
      m_PreInfinity: 2
      m_PostInfinity: 2
    attribute: blendShape.blendShape8.bleed_bulge
    path: bleed1/polySurface47
    classID: 137
    script: {fileID: 0}
  - curve:
      serializedVersion: 2
      m_Curve:
      - time: 0
        value: 0
        inSlope: 60
        outSlope: 60
        tangentMode: 10
      - time: 1.66666663
        value: 100
        inSlope: 60
        outSlope: 60
        tangentMode: 10
      m_PreInfinity: 2
      m_PostInfinity: 2
    attribute: blendShape.blendShape8.bleed_bulge
    path: bleed1/polySurface12
    classID: 137
    script: {fileID: 0}
  - curve:
      serializedVersion: 2
      m_Curve:
      - time: 0
        value: 0
        inSlope: 60
        outSlope: 60
        tangentMode: 10
      - time: 1.66666663
        value: 100
        inSlope: 60
        outSlope: 60
        tangentMode: 10
      m_PreInfinity: 2
      m_PostInfinity: 2
    attribute: blendShape.blendShape8.bleed_bulge
    path: bleed1/polySurface9
    classID: 137
    script: {fileID: 0}
  - curve:
      serializedVersion: 2
      m_Curve:
      - time: 0
        value: 0
        inSlope: 60
        outSlope: 60
        tangentMode: 10
      - time: 1.66666663
        value: 100
        inSlope: 60
        outSlope: 60
        tangentMode: 10
      m_PreInfinity: 2
      m_PostInfinity: 2
    attribute: blendShape.blendShape8.bleed_bulge
    path: bleed1/polySurface40
    classID: 137
    script: {fileID: 0}
  - curve:
      serializedVersion: 2
      m_Curve:
      - time: 0
        value: 0
        inSlope: 60
        outSlope: 60
        tangentMode: 10
      - time: 1.66666663
        value: 100
        inSlope: 60
        outSlope: 60
        tangentMode: 10
      m_PreInfinity: 2
      m_PostInfinity: 2
    attribute: blendShape.blendShape8.bleed_bulge
    path: bleed1/polySurface42
    classID: 137
    script: {fileID: 0}
  - curve:
      serializedVersion: 2
      m_Curve:
      - time: 0
        value: 0
        inSlope: 60
        outSlope: 60
        tangentMode: 10
      - time: 1.66666663
        value: 100
        inSlope: 60
        outSlope: 60
        tangentMode: 10
      m_PreInfinity: 2
      m_PostInfinity: 2
    attribute: blendShape.blendShape8.bleed_bulge
    path: bleed1/polySurface37
    classID: 137
    script: {fileID: 0}
  - curve:
      serializedVersion: 2
      m_Curve:
      - time: 0
        value: 0
        inSlope: 60
        outSlope: 60
        tangentMode: 10
      - time: 1.66666663
        value: 100
        inSlope: 60
        outSlope: 60
        tangentMode: 10
      m_PreInfinity: 2
      m_PostInfinity: 2
    attribute: blendShape.blendShape8.bleed_bulge
    path: bleed1/polySurface39
    classID: 137
    script: {fileID: 0}
  - curve:
      serializedVersion: 2
      m_Curve:
      - time: 0
        value: 0
        inSlope: 60
        outSlope: 60
        tangentMode: 10
      - time: 1.66666663
        value: 100
        inSlope: 60
        outSlope: 60
        tangentMode: 10
      m_PreInfinity: 2
      m_PostInfinity: 2
    attribute: blendShape.blendShape8.bleed_bulge
    path: bleed1/polySurface41
    classID: 137
    script: {fileID: 0}
  - curve:
      serializedVersion: 2
      m_Curve:
      - time: 0
        value: 0
        inSlope: 60
        outSlope: 60
        tangentMode: 10
      - time: 1.66666663
        value: 100
        inSlope: 60
        outSlope: 60
        tangentMode: 10
      m_PreInfinity: 2
      m_PostInfinity: 2
    attribute: blendShape.blendShape8.bleed_bulge
    path: bleed1/polySurface7
    classID: 137
    script: {fileID: 0}
  - curve:
      serializedVersion: 2
      m_Curve:
      - time: 0
        value: 0
        inSlope: 60
        outSlope: 60
        tangentMode: 10
      - time: 1.66666663
        value: 100
        inSlope: 60
        outSlope: 60
        tangentMode: 10
      m_PreInfinity: 2
      m_PostInfinity: 2
    attribute: blendShape.blendShape8.bleed_bulge
    path: bleed1/polySurface48
    classID: 137
    script: {fileID: 0}
  - curve:
      serializedVersion: 2
      m_Curve:
      - time: 0
        value: 0
        inSlope: 60
        outSlope: 60
        tangentMode: 10
      - time: 1.66666663
        value: 100
        inSlope: 60
        outSlope: 60
        tangentMode: 10
      m_PreInfinity: 2
      m_PostInfinity: 2
    attribute: blendShape.blendShape8.bleed_bulge
    path: bleed1/polySurface46
    classID: 137
    script: {fileID: 0}
  - curve:
      serializedVersion: 2
      m_Curve:
      - time: 0
        value: 0
        inSlope: 60
        outSlope: 60
        tangentMode: 10
      - time: 1.66666663
        value: 100
        inSlope: 60
        outSlope: 60
        tangentMode: 10
      m_PreInfinity: 2
      m_PostInfinity: 2
    attribute: blendShape.blendShape8.bleed_bulge
    path: bleed1/polySurface38
    classID: 137
    script: {fileID: 0}
  - curve:
      serializedVersion: 2
      m_Curve:
      - time: 0
        value: 0
        inSlope: 60
        outSlope: 60
        tangentMode: 10
      - time: 1.66666663
        value: 100
        inSlope: 60
        outSlope: 60
        tangentMode: 10
      m_PreInfinity: 2
      m_PostInfinity: 2
    attribute: blendShape.blendShape8.bleed_bulge
    path: bleed1/polySurface1
    classID: 137
    script: {fileID: 0}
  - curve:
      serializedVersion: 2
      m_Curve:
      - time: 0
        value: 0
        inSlope: 60
        outSlope: 60
        tangentMode: 10
      - time: 1.66666663
        value: 100
        inSlope: 60
        outSlope: 60
        tangentMode: 10
      m_PreInfinity: 2
      m_PostInfinity: 2
    attribute: blendShape.blendShape8.bleed_bulge
    path: bleed1/polySurface45
    classID: 137
    script: {fileID: 0}
  - curve:
      serializedVersion: 2
      m_Curve:
      - time: 0
        value: 0
        inSlope: 60
        outSlope: 60
        tangentMode: 10
      - time: 1.66666663
        value: 100
        inSlope: 60
        outSlope: 60
        tangentMode: 10
      m_PreInfinity: 2
      m_PostInfinity: 2
    attribute: blendShape.blendShape8.bleed_bulge
    path: bleed1/polySurface44
    classID: 137
    script: {fileID: 0}
  - curve:
      serializedVersion: 2
      m_Curve:
      - time: 0
        value: 0
        inSlope: 60
        outSlope: 60
        tangentMode: 10
      - time: 1.66666663
        value: 100
        inSlope: 60
        outSlope: 60
        tangentMode: 10
      m_PreInfinity: 2
      m_PostInfinity: 2
    attribute: blendShape.blendShape8.bleed_bulge
    path: bleed1/polySurface8
    classID: 137
    script: {fileID: 0}
  - curve:
      serializedVersion: 2
      m_Curve:
      - time: 0
        value: 0
        inSlope: 60
        outSlope: 60
        tangentMode: 10
      - time: 1.66666663
        value: 100
        inSlope: 60
        outSlope: 60
        tangentMode: 10
      m_PreInfinity: 2
      m_PostInfinity: 2
    attribute: blendShape.blendShape8.bleed_bulge
    path: bleed1/polySurface49
    classID: 137
    script: {fileID: 0}
  - curve:
      serializedVersion: 2
      m_Curve:
      - time: 0
        value: 0
        inSlope: 60
        outSlope: 60
        tangentMode: 10
      - time: 1.66666663
        value: 100
        inSlope: 60
        outSlope: 60
        tangentMode: 10
      m_PreInfinity: 2
      m_PostInfinity: 2
    attribute: blendShape.blendShape8.bleed_bulge
    path: bleed1/polySurface43
    classID: 137
    script: {fileID: 0}
  - curve:
      serializedVersion: 2
      m_Curve:
      - time: 0
        value: 20
        inSlope: 0
        outSlope: 0
        tangentMode: 10
      m_PreInfinity: 2
      m_PostInfinity: 2
    attribute: material._SpecInt
    path: group2/ON_GanglionLayer
    classID: 137
    script: {fileID: 0}
  m_EulerEditorCurves: []
  m_Events: []
