%YAML 1.1
%TAG !u! tag:unity3d.com,2011:
--- !u!74 &7400000
AnimationClip:
  m_ObjectHideFlags: 0
  m_PrefabParentObject: {fileID: 0}
  m_PrefabInternal: {fileID: 0}
  m_Name: ALT
  serializedVersion: 4
  m_AnimationType: 2
  m_Compressed: 0
  m_UseHighQualityCurve: 1
  m_RotationCurves: []
  m_CompressedRotationCurves: []
  m_PositionCurves:
  - curve:
      serializedVersion: 2
      m_Curve:
      - time: 1
        value: {x: .12639375, y: .0787018985, z: .0157709941}
        inSlope: {x: .00071567297, y: 1.49011612e-08, z: -.000892644748}
        outSlope: {x: .00071567297, y: 1.49011612e-08, z: -.000892644748}
        tangentMode: 0
      - time: 1.5
        value: {x: .126751587, y: .0787019059, z: .0153246718}
        inSlope: {x: .00071567297, y: 1.49011612e-08, z: -.000892644748}
        outSlope: {x: .00071567297, y: 1.49011612e-08, z: -.000892644748}
        tangentMode: 1425314324
      m_PreInfinity: 2
      m_PostInfinity: 2
    path: lazerrodALT
  m_ScaleCurves:
  - curve:
      serializedVersion: 2
      m_Curve:
      - time: .316666663
        value: {x: 0, y: 0, z: 0}
        inSlope: {x: 47.9999619, y: 47.9999619, z: 47.9999619}
        outSlope: {x: 47.9999619, y: 47.9999619, z: 47.9999619}
        tangentMode: 0
      - time: .333333343
        value: {x: .800000012, y: .800000012, z: .800000012}
        inSlope: {x: 47.9999619, y: 47.9999619, z: 47.9999619}
        outSlope: {x: -0, y: -0, z: -0}
        tangentMode: 0
      - time: 1
        value: {x: .800000012, y: .800000012, z: .800000012}
        inSlope: {x: 0, y: 0, z: 0}
        outSlope: {x: 0, y: 0, z: 0}
        tangentMode: 57
      m_PreInfinity: 2
      m_PostInfinity: 2
    path: lazerrodALT
  m_FloatCurves:
  - curve:
      serializedVersion: 2
      m_Curve:
      - time: 0
        value: 0
        inSlope: 0
        outSlope: 0
        tangentMode: 10
      - time: .316666663
        value: 0
        inSlope: 0
        outSlope: 138.599884
        tangentMode: 21
      - time: .333333343
        value: 2.30999994
        inSlope: 138.599884
        outSlope: -0
        tangentMode: 21
      - time: 1
        value: 2.30999994
        inSlope: 0
        outSlope: -138.600128
        tangentMode: 21
      - time: 1.01666665
        value: 0
        inSlope: -138.600128
        outSlope: 0
        tangentMode: 5
      m_PreInfinity: 2
      m_PostInfinity: 2
    attribute: m_Intensity
    path: Point lightALT
    classID: 108
    script: {fileID: 0}
  - curve:
      serializedVersion: 2
      m_Curve:
      - time: 0
        value: 1
        inSlope: Infinity
        outSlope: Infinity
        tangentMode: 31
      - time: .316666663
        value: 0
        inSlope: -3.15789485
        outSlope: 59.9999504
        tangentMode: 21
      - time: .333333343
        value: 1
        inSlope: 59.9999504
        outSlope: -0
        tangentMode: 21
      - time: 1
        value: 1
        inSlope: 0
        outSlope: -60.0000572
        tangentMode: 21
      - time: 1.01666665
        value: 0
        inSlope: -60.0000572
        outSlope: Infinity
        tangentMode: 21
      m_PreInfinity: 2
      m_PostInfinity: 2
    attribute: m_Enabled
    path: lazerrodALT
    classID: 23
    script: {fileID: 0}
  - curve:
      serializedVersion: 2
      m_Curve:
      - time: .333333343
        value: 0
        inSlope: 150.000015
        outSlope: 150.000015
        tangentMode: 10
      - time: 1
        value: 100
        inSlope: 150.000015
        outSlope: 150.000015
        tangentMode: 10
      m_PreInfinity: 2
      m_PostInfinity: 2
    attribute: blendShape.blendShape1.cm_group17
    path: cm_group3/Mesh
    classID: 137
    script: {fileID: 0}
  m_PPtrCurves: []
  m_SampleRate: 60
  m_WrapMode: 0
  m_Bounds:
    m_Center: {x: 0, y: 0, z: 0}
    m_Extent: {x: 0, y: 0, z: 0}
  m_ClipBindingConstant:
    genericBindings:
    - path: 558080730
      attribute: 1
      script: {fileID: 0}
      classID: 4
      customType: 0
      isPPtrCurve: 0
    - path: 558080730
      attribute: 3
      script: {fileID: 0}
      classID: 4
      customType: 0
      isPPtrCurve: 0
    - path: 2502888355
      attribute: 898800009
      script: {fileID: 0}
      classID: 108
      customType: 0
      isPPtrCurve: 0
    - path: 558080730
      attribute: 3305885265
      script: {fileID: 0}
      classID: 23
      customType: 0
      isPPtrCurve: 0
    - path: 2264988798
      attribute: 4090145942
      script: {fileID: 0}
      classID: 137
      customType: 20
      isPPtrCurve: 0
    pptrCurveMapping: []
  m_AnimationClipSettings:
    serializedVersion: 2
    m_StartTime: 0
    m_StopTime: 1.5
    m_OrientationOffsetY: 0
    m_Level: 0
    m_CycleOffset: 0
    m_LoopTime: 1
    m_LoopBlend: 0
    m_LoopBlendOrientation: 0
    m_LoopBlendPositionY: 0
    m_LoopBlendPositionXZ: 0
    m_KeepOriginalOrientation: 0
    m_KeepOriginalPositionY: 1
    m_KeepOriginalPositionXZ: 0
    m_HeightFromFeet: 0
    m_Mirror: 0
  m_EditorCurves:
  - curve:
      serializedVersion: 2
      m_Curve:
      - time: .316666663
        value: 0
        inSlope: 47.9999619
        outSlope: 47.9999619
        tangentMode: 21
      - time: .333333343
        value: .800000012
        inSlope: 47.9999619
        outSlope: -0
        tangentMode: 21
      - time: 1
        value: .800000012
        inSlope: 0
        outSlope: 0
        tangentMode: 21
      m_PreInfinity: 2
      m_PostInfinity: 2
    attribute: m_LocalScale.x
    path: lazerrodALT
    classID: 4
    script: {fileID: 0}
  - curve:
      serializedVersion: 2
      m_Curve:
      - time: .316666663
        value: 0
        inSlope: 47.9999619
        outSlope: 47.9999619
        tangentMode: 21
      - time: .333333343
        value: .800000012
        inSlope: 47.9999619
        outSlope: -0
        tangentMode: 21
      - time: 1
        value: .800000012
        inSlope: 0
        outSlope: 0
        tangentMode: 21
      m_PreInfinity: 2
      m_PostInfinity: 2
    attribute: m_LocalScale.y
    path: lazerrodALT
    classID: 4
    script: {fileID: 0}
  - curve:
      serializedVersion: 2
      m_Curve:
      - time: .316666663
        value: 0
        inSlope: 47.9999619
        outSlope: 47.9999619
        tangentMode: 21
      - time: .333333343
        value: .800000012
        inSlope: 47.9999619
        outSlope: -0
        tangentMode: 21
      - time: 1
        value: .800000012
        inSlope: 0
        outSlope: 0
        tangentMode: 21
      m_PreInfinity: 2
      m_PostInfinity: 2
    attribute: m_LocalScale.z
    path: lazerrodALT
    classID: 4
    script: {fileID: 0}
  - curve:
      serializedVersion: 2
      m_Curve:
      - time: 0
        value: 0
        inSlope: 0
        outSlope: 0
        tangentMode: 10
      - time: .316666663
        value: 0
        inSlope: 0
        outSlope: 138.599884
        tangentMode: 21
      - time: .333333343
        value: 2.30999994
        inSlope: 138.599884
        outSlope: -0
        tangentMode: 21
      - time: 1
        value: 2.30999994
        inSlope: 0
        outSlope: -138.600128
        tangentMode: 21
      - time: 1.01666665
        value: 0
        inSlope: -138.600128
        outSlope: 0
        tangentMode: 5
      m_PreInfinity: 2
      m_PostInfinity: 2
    attribute: m_Intensity
    path: Point lightALT
    classID: 108
    script: {fileID: 0}
  - curve:
      serializedVersion: 2
      m_Curve:
      - time: 0
        value: 1
        inSlope: Infinity
        outSlope: Infinity
        tangentMode: 31
      - time: .316666663
        value: 0
        inSlope: -3.15789485
        outSlope: 59.9999504
        tangentMode: 21
      - time: .333333343
        value: 1
        inSlope: 59.9999504
        outSlope: -0
        tangentMode: 21
      - time: 1
        value: 1
        inSlope: 0
        outSlope: -60.0000572
        tangentMode: 21
      - time: 1.01666665
        value: 0
        inSlope: -60.0000572
        outSlope: Infinity
        tangentMode: 21
      m_PreInfinity: 2
      m_PostInfinity: 2
    attribute: m_Enabled
    path: lazerrodALT
    classID: 23
    script: {fileID: 0}
  - curve:
      serializedVersion: 2
      m_Curve:
      - time: .333333343
        value: 0
        inSlope: 150.000015
        outSlope: 150.000015
        tangentMode: 10
      - time: 1
        value: 100
        inSlope: 150.000015
        outSlope: 150.000015
        tangentMode: 10
      m_PreInfinity: 2
      m_PostInfinity: 2
    attribute: blendShape.blendShape1.cm_group17
    path: cm_group3/Mesh
    classID: 137
    script: {fileID: 0}
  - curve:
      serializedVersion: 2
      m_Curve:
      - time: 1
        value: .12639375
        inSlope: .00071567297
        outSlope: .00071567297
        tangentMode: 10
      - time: 1.5
        value: .126751587
        inSlope: .00071567297
        outSlope: .00071567297
        tangentMode: 10
      m_PreInfinity: 2
      m_PostInfinity: 2
    attribute: m_LocalPosition.x
    path: lazerrodALT
    classID: 4
    script: {fileID: 0}
  - curve:
      serializedVersion: 2
      m_Curve:
      - time: 1
        value: .0787018985
        inSlope: 1.49011612e-08
        outSlope: 1.49011612e-08
        tangentMode: 10
      - time: 1.5
        value: .0787019059
        inSlope: 1.49011612e-08
        outSlope: 1.49011612e-08
        tangentMode: 10
      m_PreInfinity: 2
      m_PostInfinity: 2
    attribute: m_LocalPosition.y
    path: lazerrodALT
    classID: 4
    script: {fileID: 0}
  - curve:
      serializedVersion: 2
      m_Curve:
      - time: 1
        value: .0157709941
        inSlope: -.000892644748
        outSlope: -.000892644748
        tangentMode: 10
      - time: 1.5
        value: .0153246718
        inSlope: -.000892644748
        outSlope: -.000892644748
        tangentMode: 10
      m_PreInfinity: 2
      m_PostInfinity: 2
    attribute: m_LocalPosition.z
    path: lazerrodALT
    classID: 4
    script: {fileID: 0}
  m_EulerEditorCurves: []
  m_Events: []
