%YAML 1.1
%TAG !u! tag:unity3d.com,2011:
--- !u!74 &7400000
AnimationClip:
  m_ObjectHideFlags: 0
  m_PrefabParentObject: {fileID: 0}
  m_PrefabInternal: {fileID: 0}
  m_Name: Detatchment
  serializedVersion: 4
  m_AnimationType: 2
  m_Compressed: 0
  m_UseHighQualityCurve: 1
  m_RotationCurves: []
  m_CompressedRotationCurves: []
  m_PositionCurves:
  - curve:
      serializedVersion: 2
      m_Curve:
      - time: 0
        value: {x: -.143894106, y: -.140844956, z: .578053534}
        inSlope: {x: .211936891, y: .177294239, z: .120949604}
        outSlope: {x: .211936891, y: .177294239, z: .120949604}
        tangentMode: 64
      - time: 1.66666663
        value: {x: .209334046, y: .154645413, z: .779636204}
        inSlope: {x: .211936891, y: .177294239, z: .120949604}
        outSlope: {x: .211936891, y: .177294239, z: .120949604}
        tangentMode: 1565242656
      m_PreInfinity: 2
      m_PostInfinity: 2
    path: Camera/Plane
  m_ScaleCurves:
  - curve:
      serializedVersion: 2
      m_Curve:
      - time: 1.66666663
        value: {x: .146318734, y: .0875976086, z: .0875976384}
        inSlope: {x: -.393762141, y: 0, z: 0}
        outSlope: {x: -.393762141, y: 0, z: 0}
        tangentMode: 4
      m_PreInfinity: 2
      m_PostInfinity: 2
    path: Camera/Plane
  m_FloatCurves:
  - curve:
      serializedVersion: 2
      m_Curve:
      - time: 0
        value: 1
        inSlope: Infinity
        outSlope: Infinity
        tangentMode: 31
      m_PreInfinity: 2
      m_PostInfinity: 2
    attribute: m_IsActive
    path: Camera/Plane
    classID: 1
    script: {fileID: 0}
  m_PPtrCurves: []
  m_SampleRate: 60
  m_WrapMode: 0
  m_Bounds:
    m_Center: {x: 0, y: 0, z: 0}
    m_Extent: {x: 0, y: 0, z: 0}
  m_ClipBindingConstant:
    genericBindings:
    - path: 1820406394
      attribute: 1
      script: {fileID: 0}
      classID: 4
      customType: 0
      isPPtrCurve: 0
    - path: 1820406394
      attribute: 3
      script: {fileID: 0}
      classID: 4
      customType: 0
      isPPtrCurve: 0
    - path: 1820406394
      attribute: 2086281974
      script: {fileID: 0}
      classID: 1
      customType: 0
      isPPtrCurve: 0
    pptrCurveMapping: []
  m_AnimationClipSettings:
    serializedVersion: 2
    m_StartTime: 0
    m_StopTime: 1.66666663
    m_OrientationOffsetY: 0
    m_Level: 0
    m_CycleOffset: 0
    m_LoopTime: 1
    m_LoopBlend: 0
    m_LoopBlendOrientation: 0
    m_LoopBlendPositionY: 0
    m_LoopBlendPositionXZ: 0
    m_KeepOriginalOrientation: 0
    m_KeepOriginalPositionY: 1
    m_KeepOriginalPositionXZ: 0
    m_HeightFromFeet: 0
    m_Mirror: 0
  m_EditorCurves:
  - curve:
      serializedVersion: 2
      m_Curve:
      - time: 0
        value: -.143894106
        inSlope: .211936891
        outSlope: .211936891
        tangentMode: 10
      - time: 1.66666663
        value: .209334046
        inSlope: .211936891
        outSlope: .211936891
        tangentMode: 10
      m_PreInfinity: 2
      m_PostInfinity: 2
    attribute: m_LocalPosition.x
    path: Camera/Plane
    classID: 4
    script: {fileID: 0}
  - curve:
      serializedVersion: 2
      m_Curve:
      - time: 0
        value: -.140844956
        inSlope: .177294239
        outSlope: .177294239
        tangentMode: 10
      - time: 1.66666663
        value: .154645413
        inSlope: .177294239
        outSlope: .177294239
        tangentMode: 10
      m_PreInfinity: 2
      m_PostInfinity: 2
    attribute: m_LocalPosition.y
    path: Camera/Plane
    classID: 4
    script: {fileID: 0}
  - curve:
      serializedVersion: 2
      m_Curve:
      - time: 0
        value: .578053534
        inSlope: .120949604
        outSlope: .120949604
        tangentMode: 10
      - time: 1.66666663
        value: .779636204
        inSlope: .120949604
        outSlope: .120949604
        tangentMode: 10
      m_PreInfinity: 2
      m_PostInfinity: 2
    attribute: m_LocalPosition.z
    path: Camera/Plane
    classID: 4
    script: {fileID: 0}
  - curve:
      serializedVersion: 2
      m_Curve:
      - time: 1.66666663
        value: .146318734
        inSlope: -.393762141
        outSlope: -.393762141
        tangentMode: 10
      m_PreInfinity: 2
      m_PostInfinity: 2
    attribute: m_LocalScale.x
    path: Camera/Plane
    classID: 4
    script: {fileID: 0}
  - curve:
      serializedVersion: 2
      m_Curve:
      - time: 1.66666663
        value: .0875976086
        inSlope: -.235736176
        outSlope: -.235736176
        tangentMode: 10
      m_PreInfinity: 2
      m_PostInfinity: 2
    attribute: m_LocalScale.y
    path: Camera/Plane
    classID: 4
    script: {fileID: 0}
  - curve:
      serializedVersion: 2
      m_Curve:
      - time: 1.66666663
        value: .0875976384
        inSlope: -.235736266
        outSlope: -.235736266
        tangentMode: 10
      m_PreInfinity: 2
      m_PostInfinity: 2
    attribute: m_LocalScale.z
    path: Camera/Plane
    classID: 4
    script: {fileID: 0}
  - curve:
      serializedVersion: 2
      m_Curve:
      - time: 0
        value: 1
        inSlope: Infinity
        outSlope: Infinity
        tangentMode: 31
      m_PreInfinity: 2
      m_PostInfinity: 2
    attribute: m_IsActive
    path: Camera/Plane
    classID: 1
    script: {fileID: 0}
  m_EulerEditorCurves: []
  m_Events: []
