%YAML 1.1
%TAG !u! tag:unity3d.com,2011:
--- !u!74 &7400000
AnimationClip:
  m_ObjectHideFlags: 0
  m_PrefabParentObject: {fileID: 0}
  m_PrefabInternal: {fileID: 0}
  m_Name: Floaters
  serializedVersion: 4
  m_AnimationType: 2
  m_Compressed: 0
  m_UseHighQualityCurve: 1
  m_RotationCurves: []
  m_CompressedRotationCurves: []
  m_PositionCurves: []
  m_ScaleCurves: []
  m_FloatCurves:
  - curve:
      serializedVersion: 2
      m_Curve:
      - time: 0
        value: 1
        inSlope: Infinity
        outSlope: Infinity
        tangentMode: 31
      - time: 1.66666663
        value: 1
        inSlope: Infinity
        outSlope: Infinity
        tangentMode: 31
      m_PreInfinity: 2
      m_PostInfinity: 2
    attribute: m_IsActive
    path: Camera/Floaters
    classID: 1
    script: {fileID: 0}
  - curve:
      serializedVersion: 2
      m_Curve:
      - time: 0
        value: .99999994
        inSlope: 0
        outSlope: 0
        tangentMode: 10
      - time: 1.66666663
        value: .99999994
        inSlope: 0
        outSlope: 0
        tangentMode: 10
      m_PreInfinity: 2
      m_PostInfinity: 2
    attribute: material._Color.r
    path: Camera/Floaters
    classID: 137
    script: {fileID: 0}
  - curve:
      serializedVersion: 2
      m_Curve:
      - time: 0
        value: .99999994
        inSlope: 0
        outSlope: 0
        tangentMode: 10
      - time: 1.66666663
        value: .99999994
        inSlope: 0
        outSlope: 0
        tangentMode: 10
      m_PreInfinity: 2
      m_PostInfinity: 2
    attribute: material._Color.g
    path: Camera/Floaters
    classID: 137
    script: {fileID: 0}
  - curve:
      serializedVersion: 2
      m_Curve:
      - time: 0
        value: .99999994
        inSlope: 0
        outSlope: 0
        tangentMode: 10
      - time: 1.66666663
        value: .99999994
        inSlope: 0
        outSlope: 0
        tangentMode: 10
      m_PreInfinity: 2
      m_PostInfinity: 2
    attribute: material._Color.b
    path: Camera/Floaters
    classID: 137
    script: {fileID: 0}
  - curve:
      serializedVersion: 2
      m_Curve:
      - time: 0
        value: 0
        inSlope: .362296462
        outSlope: .362296462
        tangentMode: 10
      - time: 1.66666663
        value: .603827417
        inSlope: .362296462
        outSlope: .362296462
        tangentMode: 10
      m_PreInfinity: 2
      m_PostInfinity: 2
    attribute: material._Color.a
    path: Camera/Floaters
    classID: 137
    script: {fileID: 0}
  - curve:
      serializedVersion: 2
      m_Curve:
      - time: 0
        value: 0
        inSlope: Infinity
        outSlope: Infinity
        tangentMode: 31
      - time: .25
        value: 1
        inSlope: Infinity
        outSlope: Infinity
        tangentMode: 31
      - time: .266666681
        value: 0
        inSlope: Infinity
        outSlope: Infinity
        tangentMode: 31
      - time: .583333313
        value: 1
        inSlope: Infinity
        outSlope: Infinity
        tangentMode: 31
      - time: .600000024
        value: 0
        inSlope: Infinity
        outSlope: Infinity
        tangentMode: 31
      - time: .833333313
        value: 1
        inSlope: Infinity
        outSlope: Infinity
        tangentMode: 31
      - time: .850000024
        value: 0
        inSlope: Infinity
        outSlope: Infinity
        tangentMode: 31
      - time: 1.66666663
        value: 0
        inSlope: Infinity
        outSlope: Infinity
        tangentMode: 31
      m_PreInfinity: 2
      m_PostInfinity: 2
    attribute: m_IsActive
    path: Camera/Flash01
    classID: 1
    script: {fileID: 0}
  - curve:
      serializedVersion: 2
      m_Curve:
      - time: 0
        value: 0
        inSlope: Infinity
        outSlope: Infinity
        tangentMode: 31
      - time: .283333331
        value: 1
        inSlope: Infinity
        outSlope: Infinity
        tangentMode: 31
      - time: .300000012
        value: 0
        inSlope: Infinity
        outSlope: Infinity
        tangentMode: 31
      - time: .616666675
        value: 1
        inSlope: Infinity
        outSlope: Infinity
        tangentMode: 31
      - time: .633333325
        value: 0
        inSlope: Infinity
        outSlope: Infinity
        tangentMode: 31
      - time: .866666675
        value: 1
        inSlope: Infinity
        outSlope: Infinity
        tangentMode: 31
      - time: .883333325
        value: 0
        inSlope: Infinity
        outSlope: Infinity
        tangentMode: 31
      - time: 1.66666663
        value: 0
        inSlope: Infinity
        outSlope: Infinity
        tangentMode: 31
      m_PreInfinity: 2
      m_PostInfinity: 2
    attribute: m_IsActive
    path: Camera/Flash02
    classID: 1
    script: {fileID: 0}
  - curve:
      serializedVersion: 2
      m_Curve:
      - time: 0
        value: 0
        inSlope: Infinity
        outSlope: Infinity
        tangentMode: 31
      - time: .316666663
        value: 1
        inSlope: Infinity
        outSlope: Infinity
        tangentMode: 31
      - time: .333333343
        value: 0
        inSlope: Infinity
        outSlope: Infinity
        tangentMode: 31
      - time: .649999976
        value: 1
        inSlope: Infinity
        outSlope: Infinity
        tangentMode: 31
      - time: .666666687
        value: 0
        inSlope: Infinity
        outSlope: Infinity
        tangentMode: 31
      - time: .899999976
        value: 1
        inSlope: Infinity
        outSlope: Infinity
        tangentMode: 31
      - time: .916666687
        value: 0
        inSlope: Infinity
        outSlope: Infinity
        tangentMode: 31
      - time: 1.66666663
        value: 0
        inSlope: Infinity
        outSlope: Infinity
        tangentMode: 31
      m_PreInfinity: 2
      m_PostInfinity: 2
    attribute: m_IsActive
    path: Camera/Flash03
    classID: 1
    script: {fileID: 0}
  m_PPtrCurves: []
  m_SampleRate: 60
  m_WrapMode: 0
  m_Bounds:
    m_Center: {x: 0, y: 0, z: 0}
    m_Extent: {x: 0, y: 0, z: 0}
  m_ClipBindingConstant:
    genericBindings:
    - path: 2715426801
      attribute: 2086281974
      script: {fileID: 0}
      classID: 1
      customType: 0
      isPPtrCurve: 0
    - path: 2715426801
      attribute: 2108656497
      script: {fileID: 0}
      classID: 137
      customType: 22
      isPPtrCurve: 0
    - path: 2095267246
      attribute: 2086281974
      script: {fileID: 0}
      classID: 1
      customType: 0
      isPPtrCurve: 0
    - path: 3857345556
      attribute: 2086281974
      script: {fileID: 0}
      classID: 1
      customType: 0
      isPPtrCurve: 0
    - path: 2465029250
      attribute: 2086281974
      script: {fileID: 0}
      classID: 1
      customType: 0
      isPPtrCurve: 0
    - path: 2715426801
      attribute: 1303350129
      script: {fileID: 0}
      classID: 137
      customType: 22
      isPPtrCurve: 0
    - path: 2715426801
      attribute: 1571785585
      script: {fileID: 0}
      classID: 137
      customType: 22
      isPPtrCurve: 0
    - path: 2715426801
      attribute: 1840221041
      script: {fileID: 0}
      classID: 137
      customType: 22
      isPPtrCurve: 0
    pptrCurveMapping: []
  m_AnimationClipSettings:
    serializedVersion: 2
    m_StartTime: 0
    m_StopTime: 1.66666663
    m_OrientationOffsetY: 0
    m_Level: 0
    m_CycleOffset: 0
    m_LoopTime: 1
    m_LoopBlend: 0
    m_LoopBlendOrientation: 0
    m_LoopBlendPositionY: 0
    m_LoopBlendPositionXZ: 0
    m_KeepOriginalOrientation: 0
    m_KeepOriginalPositionY: 1
    m_KeepOriginalPositionXZ: 0
    m_HeightFromFeet: 0
    m_Mirror: 0
  m_EditorCurves:
  - curve:
      serializedVersion: 2
      m_Curve:
      - time: 0
        value: 1
        inSlope: Infinity
        outSlope: Infinity
        tangentMode: 31
      - time: 1.66666663
        value: 1
        inSlope: Infinity
        outSlope: Infinity
        tangentMode: 31
      m_PreInfinity: 2
      m_PostInfinity: 2
    attribute: m_IsActive
    path: Camera/Floaters
    classID: 1
    script: {fileID: 0}
  - curve:
      serializedVersion: 2
      m_Curve:
      - time: 0
        value: .99999994
        inSlope: 0
        outSlope: 0
        tangentMode: 10
      - time: 1.66666663
        value: .99999994
        inSlope: 0
        outSlope: 0
        tangentMode: 10
      m_PreInfinity: 2
      m_PostInfinity: 2
    attribute: material._Color.r
    path: Camera/Floaters
    classID: 137
    script: {fileID: 0}
  - curve:
      serializedVersion: 2
      m_Curve:
      - time: 0
        value: .99999994
        inSlope: 0
        outSlope: 0
        tangentMode: 10
      - time: 1.66666663
        value: .99999994
        inSlope: 0
        outSlope: 0
        tangentMode: 10
      m_PreInfinity: 2
      m_PostInfinity: 2
    attribute: material._Color.g
    path: Camera/Floaters
    classID: 137
    script: {fileID: 0}
  - curve:
      serializedVersion: 2
      m_Curve:
      - time: 0
        value: .99999994
        inSlope: 0
        outSlope: 0
        tangentMode: 10
      - time: 1.66666663
        value: .99999994
        inSlope: 0
        outSlope: 0
        tangentMode: 10
      m_PreInfinity: 2
      m_PostInfinity: 2
    attribute: material._Color.b
    path: Camera/Floaters
    classID: 137
    script: {fileID: 0}
  - curve:
      serializedVersion: 2
      m_Curve:
      - time: 0
        value: 0
        inSlope: .362296462
        outSlope: .362296462
        tangentMode: 10
      - time: 1.66666663
        value: .603827417
        inSlope: .362296462
        outSlope: .362296462
        tangentMode: 10
      m_PreInfinity: 2
      m_PostInfinity: 2
    attribute: material._Color.a
    path: Camera/Floaters
    classID: 137
    script: {fileID: 0}
  - curve:
      serializedVersion: 2
      m_Curve:
      - time: 0
        value: 0
        inSlope: Infinity
        outSlope: Infinity
        tangentMode: 31
      - time: .25
        value: 1
        inSlope: Infinity
        outSlope: Infinity
        tangentMode: 31
      - time: .266666681
        value: 0
        inSlope: Infinity
        outSlope: Infinity
        tangentMode: 31
      - time: .583333313
        value: 1
        inSlope: Infinity
        outSlope: Infinity
        tangentMode: 31
      - time: .600000024
        value: 0
        inSlope: Infinity
        outSlope: Infinity
        tangentMode: 31
      - time: .833333313
        value: 1
        inSlope: Infinity
        outSlope: Infinity
        tangentMode: 31
      - time: .850000024
        value: 0
        inSlope: Infinity
        outSlope: Infinity
        tangentMode: 31
      - time: 1.66666663
        value: 0
        inSlope: Infinity
        outSlope: Infinity
        tangentMode: 31
      m_PreInfinity: 2
      m_PostInfinity: 2
    attribute: m_IsActive
    path: Camera/Flash01
    classID: 1
    script: {fileID: 0}
  - curve:
      serializedVersion: 2
      m_Curve:
      - time: 0
        value: 0
        inSlope: Infinity
        outSlope: Infinity
        tangentMode: 31
      - time: .283333331
        value: 1
        inSlope: Infinity
        outSlope: Infinity
        tangentMode: 31
      - time: .300000012
        value: 0
        inSlope: Infinity
        outSlope: Infinity
        tangentMode: 31
      - time: .616666675
        value: 1
        inSlope: Infinity
        outSlope: Infinity
        tangentMode: 31
      - time: .633333325
        value: 0
        inSlope: Infinity
        outSlope: Infinity
        tangentMode: 31
      - time: .866666675
        value: 1
        inSlope: Infinity
        outSlope: Infinity
        tangentMode: 31
      - time: .883333325
        value: 0
        inSlope: Infinity
        outSlope: Infinity
        tangentMode: 31
      - time: 1.66666663
        value: 0
        inSlope: Infinity
        outSlope: Infinity
        tangentMode: 31
      m_PreInfinity: 2
      m_PostInfinity: 2
    attribute: m_IsActive
    path: Camera/Flash02
    classID: 1
    script: {fileID: 0}
  - curve:
      serializedVersion: 2
      m_Curve:
      - time: 0
        value: 0
        inSlope: Infinity
        outSlope: Infinity
        tangentMode: 31
      - time: .316666663
        value: 1
        inSlope: Infinity
        outSlope: Infinity
        tangentMode: 31
      - time: .333333343
        value: 0
        inSlope: Infinity
        outSlope: Infinity
        tangentMode: 31
      - time: .649999976
        value: 1
        inSlope: Infinity
        outSlope: Infinity
        tangentMode: 31
      - time: .666666687
        value: 0
        inSlope: Infinity
        outSlope: Infinity
        tangentMode: 31
      - time: .899999976
        value: 1
        inSlope: Infinity
        outSlope: Infinity
        tangentMode: 31
      - time: .916666687
        value: 0
        inSlope: Infinity
        outSlope: Infinity
        tangentMode: 31
      - time: 1.66666663
        value: 0
        inSlope: Infinity
        outSlope: Infinity
        tangentMode: 31
      m_PreInfinity: 2
      m_PostInfinity: 2
    attribute: m_IsActive
    path: Camera/Flash03
    classID: 1
    script: {fileID: 0}
  m_EulerEditorCurves: []
  m_Events: []
