%YAML 1.1
%TAG !u! tag:unity3d.com,2011:
--- !u!74 &7400000
AnimationClip:
  m_ObjectHideFlags: 0
  m_PrefabParentObject: {fileID: 0}
  m_PrefabInternal: {fileID: 0}
  m_Name: Glaucoma
  serializedVersion: 4
  m_AnimationType: 2
  m_Compressed: 0
  m_UseHighQualityCurve: 1
  m_RotationCurves: []
  m_CompressedRotationCurves: []
  m_PositionCurves:
  - curve:
      serializedVersion: 2
      m_Curve:
      - time: 0
        value: {x: -.0639239252, y: -.360377848, z: 2.49260449}
        inSlope: {x: .000243893272, y: .14374584, z: -.0486946106}
        outSlope: {x: .000243893272, y: .14374584, z: -.0486946106}
        tangentMode: 0
      - time: 1.66666663
        value: {x: -.0635174364, y: -.120801456, z: 2.41144681}
        inSlope: {x: .000243893272, y: .14374584, z: -.0486946106}
        outSlope: {x: .000243893272, y: .14374584, z: -.0486946106}
        tangentMode: 3
      m_PreInfinity: 2
      m_PostInfinity: 2
    path: Camera/Glaucoma
  m_ScaleCurves:
  - curve:
      serializedVersion: 2
      m_Curve:
      - time: 0
        value: {x: .670159817, y: .755250216, z: .509536922}
        inSlope: {x: -.241116419, y: -.289535075, z: -.206470013}
        outSlope: {x: -.241116419, y: -.289535075, z: -.206470013}
        tangentMode: 0
      - time: 1.66666663
        value: {x: .268299133, y: .272691756, z: .165420249}
        inSlope: {x: -.241116419, y: -.289535075, z: -.206470013}
        outSlope: {x: -.241116419, y: -.289535075, z: -.206470013}
        tangentMode: 0
      m_PreInfinity: 2
      m_PostInfinity: 2
    path: Camera/Glaucoma
  m_FloatCurves:
  - curve:
      serializedVersion: 2
      m_Curve:
      - time: 0
        value: 1
        inSlope: Infinity
        outSlope: Infinity
        tangentMode: 31
      m_PreInfinity: 2
      m_PostInfinity: 2
    attribute: m_Enabled
    path: Camera/Glaucoma
    classID: 23
    script: {fileID: 0}
  - curve:
      serializedVersion: 2
      m_Curve:
      - time: 0
        value: 1
        inSlope: Infinity
        outSlope: Infinity
        tangentMode: 31
      m_PreInfinity: 2
      m_PostInfinity: 2
    attribute: m_IsActive
    path: Camera/Glaucoma
    classID: 1
    script: {fileID: 0}
  m_PPtrCurves: []
  m_SampleRate: 60
  m_WrapMode: 0
  m_Bounds:
    m_Center: {x: 0, y: 0, z: 0}
    m_Extent: {x: 0, y: 0, z: 0}
  m_ClipBindingConstant:
    genericBindings:
    - path: 1017174651
      attribute: 1
      script: {fileID: 0}
      classID: 4
      customType: 0
      isPPtrCurve: 0
    - path: 1017174651
      attribute: 3
      script: {fileID: 0}
      classID: 4
      customType: 0
      isPPtrCurve: 0
    - path: 1017174651
      attribute: 3305885265
      script: {fileID: 0}
      classID: 23
      customType: 0
      isPPtrCurve: 0
    - path: 1017174651
      attribute: 2086281974
      script: {fileID: 0}
      classID: 1
      customType: 0
      isPPtrCurve: 0
    pptrCurveMapping: []
  m_AnimationClipSettings:
    serializedVersion: 2
    m_StartTime: 0
    m_StopTime: 1.66666663
    m_OrientationOffsetY: 0
    m_Level: 0
    m_CycleOffset: 0
    m_LoopTime: 1
    m_LoopBlend: 0
    m_LoopBlendOrientation: 0
    m_LoopBlendPositionY: 0
    m_LoopBlendPositionXZ: 0
    m_KeepOriginalOrientation: 0
    m_KeepOriginalPositionY: 1
    m_KeepOriginalPositionXZ: 0
    m_HeightFromFeet: 0
    m_Mirror: 0
  m_EditorCurves:
  - curve:
      serializedVersion: 2
      m_Curve:
      - time: 0
        value: 1
        inSlope: Infinity
        outSlope: Infinity
        tangentMode: 31
      m_PreInfinity: 2
      m_PostInfinity: 2
    attribute: m_Enabled
    path: Camera/Glaucoma
    classID: 23
    script: {fileID: 0}
  - curve:
      serializedVersion: 2
      m_Curve:
      - time: 0
        value: .670159817
        inSlope: -.241116419
        outSlope: -.241116419
        tangentMode: 10
      - time: 1.66666663
        value: .268299133
        inSlope: -.241116419
        outSlope: -.241116419
        tangentMode: 10
      m_PreInfinity: 2
      m_PostInfinity: 2
    attribute: m_LocalScale.x
    path: Camera/Glaucoma
    classID: 4
    script: {fileID: 0}
  - curve:
      serializedVersion: 2
      m_Curve:
      - time: 0
        value: .755250216
        inSlope: -.289535075
        outSlope: -.289535075
        tangentMode: 10
      - time: 1.66666663
        value: .272691756
        inSlope: -.289535075
        outSlope: -.289535075
        tangentMode: 10
      m_PreInfinity: 2
      m_PostInfinity: 2
    attribute: m_LocalScale.y
    path: Camera/Glaucoma
    classID: 4
    script: {fileID: 0}
  - curve:
      serializedVersion: 2
      m_Curve:
      - time: 0
        value: .509536922
        inSlope: -.206470013
        outSlope: -.206470013
        tangentMode: 10
      - time: 1.66666663
        value: .165420249
        inSlope: -.206470013
        outSlope: -.206470013
        tangentMode: 10
      m_PreInfinity: 2
      m_PostInfinity: 2
    attribute: m_LocalScale.z
    path: Camera/Glaucoma
    classID: 4
    script: {fileID: 0}
  - curve:
      serializedVersion: 2
      m_Curve:
      - time: 0
        value: -.0639239252
        inSlope: .000243893272
        outSlope: .000243893272
        tangentMode: 10
      - time: 1.66666663
        value: -.0635174364
        inSlope: .000243893272
        outSlope: .000243893272
        tangentMode: 10
      m_PreInfinity: 2
      m_PostInfinity: 2
    attribute: m_LocalPosition.x
    path: Camera/Glaucoma
    classID: 4
    script: {fileID: 0}
  - curve:
      serializedVersion: 2
      m_Curve:
      - time: 0
        value: -.360377848
        inSlope: .14374584
        outSlope: .14374584
        tangentMode: 10
      - time: 1.66666663
        value: -.120801456
        inSlope: .14374584
        outSlope: .14374584
        tangentMode: 10
      m_PreInfinity: 2
      m_PostInfinity: 2
    attribute: m_LocalPosition.y
    path: Camera/Glaucoma
    classID: 4
    script: {fileID: 0}
  - curve:
      serializedVersion: 2
      m_Curve:
      - time: 0
        value: 2.49260449
        inSlope: -.0486946106
        outSlope: -.0486946106
        tangentMode: 10
      - time: 1.66666663
        value: 2.41144681
        inSlope: -.0486946106
        outSlope: -.0486946106
        tangentMode: 10
      m_PreInfinity: 2
      m_PostInfinity: 2
    attribute: m_LocalPosition.z
    path: Camera/Glaucoma
    classID: 4
    script: {fileID: 0}
  - curve:
      serializedVersion: 2
      m_Curve:
      - time: 0
        value: 1
        inSlope: Infinity
        outSlope: Infinity
        tangentMode: 31
      m_PreInfinity: 2
      m_PostInfinity: 2
    attribute: m_IsActive
    path: Camera/Glaucoma
    classID: 1
    script: {fileID: 0}
  m_EulerEditorCurves: []
  m_Events: []
