%YAML 1.1
%TAG !u! tag:unity3d.com,2011:
--- !u!74 &7400000
AnimationClip:
  m_ObjectHideFlags: 0
  m_PrefabParentObject: {fileID: 0}
  m_PrefabInternal: {fileID: 0}
  m_Name: Hyperopia
  serializedVersion: 4
  m_AnimationType: 2
  m_Compressed: 0
  m_UseHighQualityCurve: 1
  m_RotationCurves: []
  m_CompressedRotationCurves: []
  m_PositionCurves:
  - curve:
      serializedVersion: 2
      m_Curve:
      - time: 0
        value: {x: .200000003, y: .0799999982, z: 4.24828911}
        inSlope: {x: -.049999997, y: 0, z: 0}
        outSlope: {x: -.049999997, y: 0, z: 0}
        tangentMode: 862628056
      - time: 1
        value: {x: .200000003, y: .0799999982, z: 4.24828911}
        inSlope: {x: -.049999997, y: 0, z: 0}
        outSlope: {x: -.049999997, y: 0, z: 0}
        tangentMode: 862628056
      m_PreInfinity: 2
      m_PostInfinity: 2
    path: Camera/SmallSpot
  m_ScaleCurves:
  - curve:
      serializedVersion: 2
      m_Curve:
      - time: 0
        value: {x: 50, y: 40, z: 40}
        inSlope: {x: 10, y: 10, z: 10}
        outSlope: {x: 10, y: 10, z: 10}
        tangentMode: 0
      - time: 1
        value: {x: 60, y: 50, z: 50}
        inSlope: {x: 10, y: 10, z: 10}
        outSlope: {x: 10, y: 10, z: 10}
        tangentMode: 0
      m_PreInfinity: 2
      m_PostInfinity: 2
    path: Camera/SmallSpot
  m_FloatCurves:
  - curve:
      serializedVersion: 2
      m_Curve:
      - time: 0
        value: 1
        inSlope: Infinity
        outSlope: Infinity
        tangentMode: 31
      m_PreInfinity: 2
      m_PostInfinity: 2
    attribute: m_IsActive
    path: Camera/SmallSpot
    classID: 1
    script: {fileID: 0}
  - curve:
      serializedVersion: 2
      m_Curve:
      - time: 0
        value: .99999994
        inSlope: 0
        outSlope: 0
        tangentMode: 10
      - time: 1.66666663
        value: .99999994
        inSlope: 0
        outSlope: 0
        tangentMode: 10
      m_PreInfinity: 2
      m_PostInfinity: 2
    attribute: material._Color.r
    path: Camera/SmallSpot
    classID: 137
    script: {fileID: 0}
  - curve:
      serializedVersion: 2
      m_Curve:
      - time: 0
        value: .99999994
        inSlope: 0
        outSlope: 0
        tangentMode: 10
      - time: 1.66666663
        value: .99999994
        inSlope: 0
        outSlope: 0
        tangentMode: 10
      m_PreInfinity: 2
      m_PostInfinity: 2
    attribute: material._Color.g
    path: Camera/SmallSpot
    classID: 137
    script: {fileID: 0}
  - curve:
      serializedVersion: 2
      m_Curve:
      - time: 0
        value: .99999994
        inSlope: 0
        outSlope: 0
        tangentMode: 10
      - time: 1.66666663
        value: .99999994
        inSlope: 0
        outSlope: 0
        tangentMode: 10
      m_PreInfinity: 2
      m_PostInfinity: 2
    attribute: material._Color.b
    path: Camera/SmallSpot
    classID: 137
    script: {fileID: 0}
  - curve:
      serializedVersion: 2
      m_Curve:
      - time: .5
        value: 0
        inSlope: 2
        outSlope: 2
        tangentMode: 10
      - time: 1
        value: 1
        inSlope: 2
        outSlope: 2
        tangentMode: 10
      m_PreInfinity: 2
      m_PostInfinity: 2
    attribute: material._Color.a
    path: Camera/SmallSpot
    classID: 137
    script: {fileID: 0}
  - curve:
      serializedVersion: 2
      m_Curve:
      - time: 0
        value: 1
        inSlope: Infinity
        outSlope: Infinity
        tangentMode: 31
      m_PreInfinity: 2
      m_PostInfinity: 2
    attribute: m_Enabled
    path: Camera
    classID: 114
    script: {fileID: 11500000, guid: a94b781cad112c75d0008dfa8d76c639, type: 3}
  - curve:
      serializedVersion: 2
      m_Curve:
      - time: 0
        value: 0
        inSlope: 100
        outSlope: 100
        tangentMode: 10
      - time: .5
        value: 50
        inSlope: 100
        outSlope: 100
        tangentMode: 10
      m_PreInfinity: 2
      m_PostInfinity: 2
    attribute: angle
    path: Camera
    classID: 114
    script: {fileID: 11500000, guid: a94b781cad112c75d0008dfa8d76c639, type: 3}
  - curve:
      serializedVersion: 2
      m_Curve:
      - time: .5
        value: .0199999996
        inSlope: -.159999996
        outSlope: -.159999996
        tangentMode: 10
      m_PreInfinity: 2
      m_PostInfinity: 2
    attribute: radius.y
    path: Camera
    classID: 114
    script: {fileID: 11500000, guid: a94b781cad112c75d0008dfa8d76c639, type: 3}
  - curve:
      serializedVersion: 2
      m_Curve:
      - time: .5
        value: .0199999996
        inSlope: -.159999996
        outSlope: -.159999996
        tangentMode: 10
      m_PreInfinity: 2
      m_PostInfinity: 2
    attribute: radius.x
    path: Camera
    classID: 114
    script: {fileID: 11500000, guid: a94b781cad112c75d0008dfa8d76c639, type: 3}
  m_PPtrCurves: []
  m_SampleRate: 60
  m_WrapMode: 0
  m_Bounds:
    m_Center: {x: 0, y: 0, z: 0}
    m_Extent: {x: 0, y: 0, z: 0}
  m_ClipBindingConstant:
    genericBindings:
    - path: 3910065939
      attribute: 1
      script: {fileID: 0}
      classID: 4
      customType: 0
      isPPtrCurve: 0
    - path: 3910065939
      attribute: 3
      script: {fileID: 0}
      classID: 4
      customType: 0
      isPPtrCurve: 0
    - path: 3910065939
      attribute: 2086281974
      script: {fileID: 0}
      classID: 1
      customType: 0
      isPPtrCurve: 0
    - path: 3910065939
      attribute: 2108656497
      script: {fileID: 0}
      classID: 137
      customType: 22
      isPPtrCurve: 0
    - path: 1018227507
      attribute: 3305885265
      script: {fileID: 11500000, guid: a94b781cad112c75d0008dfa8d76c639, type: 3}
      classID: 114
      customType: 24
      isPPtrCurve: 0
    - path: 1018227507
      attribute: 8471817
      script: {fileID: 11500000, guid: a94b781cad112c75d0008dfa8d76c639, type: 3}
      classID: 114
      customType: 0
      isPPtrCurve: 0
    - path: 1018227507
      attribute: 2304315574
      script: {fileID: 11500000, guid: a94b781cad112c75d0008dfa8d76c639, type: 3}
      classID: 114
      customType: 0
      isPPtrCurve: 0
    - path: 1018227507
      attribute: 4267581472
      script: {fileID: 11500000, guid: a94b781cad112c75d0008dfa8d76c639, type: 3}
      classID: 114
      customType: 0
      isPPtrCurve: 0
    - path: 3910065939
      attribute: 1303350129
      script: {fileID: 0}
      classID: 137
      customType: 22
      isPPtrCurve: 0
    - path: 3910065939
      attribute: 1571785585
      script: {fileID: 0}
      classID: 137
      customType: 22
      isPPtrCurve: 0
    - path: 3910065939
      attribute: 1840221041
      script: {fileID: 0}
      classID: 137
      customType: 22
      isPPtrCurve: 0
    pptrCurveMapping: []
  m_AnimationClipSettings:
    serializedVersion: 2
    m_StartTime: 0
    m_StopTime: 1.66666663
    m_OrientationOffsetY: 0
    m_Level: 0
    m_CycleOffset: 0
    m_LoopTime: 1
    m_LoopBlend: 0
    m_LoopBlendOrientation: 0
    m_LoopBlendPositionY: 0
    m_LoopBlendPositionXZ: 0
    m_KeepOriginalOrientation: 0
    m_KeepOriginalPositionY: 1
    m_KeepOriginalPositionXZ: 0
    m_HeightFromFeet: 0
    m_Mirror: 0
  m_EditorCurves:
  - curve:
      serializedVersion: 2
      m_Curve:
      - time: 0
        value: 1
        inSlope: Infinity
        outSlope: Infinity
        tangentMode: 31
      m_PreInfinity: 2
      m_PostInfinity: 2
    attribute: m_IsActive
    path: Camera/SmallSpot
    classID: 1
    script: {fileID: 0}
  - curve:
      serializedVersion: 2
      m_Curve:
      - time: 0
        value: 50
        inSlope: 10
        outSlope: 10
        tangentMode: 10
      - time: 1
        value: 60
        inSlope: 10
        outSlope: 10
        tangentMode: 10
      m_PreInfinity: 2
      m_PostInfinity: 2
    attribute: m_LocalScale.x
    path: Camera/SmallSpot
    classID: 4
    script: {fileID: 0}
  - curve:
      serializedVersion: 2
      m_Curve:
      - time: 0
        value: 40
        inSlope: 10
        outSlope: 10
        tangentMode: 10
      - time: 1
        value: 50
        inSlope: 10
        outSlope: 10
        tangentMode: 10
      m_PreInfinity: 2
      m_PostInfinity: 2
    attribute: m_LocalScale.y
    path: Camera/SmallSpot
    classID: 4
    script: {fileID: 0}
  - curve:
      serializedVersion: 2
      m_Curve:
      - time: 0
        value: 40
        inSlope: 10
        outSlope: 10
        tangentMode: 10
      - time: 1
        value: 50
        inSlope: 10
        outSlope: 10
        tangentMode: 10
      m_PreInfinity: 2
      m_PostInfinity: 2
    attribute: m_LocalScale.z
    path: Camera/SmallSpot
    classID: 4
    script: {fileID: 0}
  - curve:
      serializedVersion: 2
      m_Curve:
      - time: 1
        value: .200000003
        inSlope: -.049999997
        outSlope: -.049999997
        tangentMode: 10
      m_PreInfinity: 2
      m_PostInfinity: 2
    attribute: m_LocalPosition.x
    path: Camera/SmallSpot
    classID: 4
    script: {fileID: 0}
  - curve:
      serializedVersion: 2
      m_Curve:
      - time: 1
        value: .0799999982
        inSlope: .0373807512
        outSlope: .0373807512
        tangentMode: 10
      m_PreInfinity: 2
      m_PostInfinity: 2
    attribute: m_LocalPosition.y
    path: Camera/SmallSpot
    classID: 4
    script: {fileID: 0}
  - curve:
      serializedVersion: 2
      m_Curve:
      - time: 0
        value: 4.24828911
        inSlope: 0
        outSlope: 0
        tangentMode: 10
      m_PreInfinity: 2
      m_PostInfinity: 2
    attribute: m_LocalPosition.z
    path: Camera/SmallSpot
    classID: 4
    script: {fileID: 0}
  - curve:
      serializedVersion: 2
      m_Curve:
      - time: 0
        value: .99999994
        inSlope: 0
        outSlope: 0
        tangentMode: 10
      - time: 1.66666663
        value: .99999994
        inSlope: 0
        outSlope: 0
        tangentMode: 10
      m_PreInfinity: 2
      m_PostInfinity: 2
    attribute: material._Color.r
    path: Camera/SmallSpot
    classID: 137
    script: {fileID: 0}
  - curve:
      serializedVersion: 2
      m_Curve:
      - time: 0
        value: .99999994
        inSlope: 0
        outSlope: 0
        tangentMode: 10
      - time: 1.66666663
        value: .99999994
        inSlope: 0
        outSlope: 0
        tangentMode: 10
      m_PreInfinity: 2
      m_PostInfinity: 2
    attribute: material._Color.g
    path: Camera/SmallSpot
    classID: 137
    script: {fileID: 0}
  - curve:
      serializedVersion: 2
      m_Curve:
      - time: 0
        value: .99999994
        inSlope: 0
        outSlope: 0
        tangentMode: 10
      - time: 1.66666663
        value: .99999994
        inSlope: 0
        outSlope: 0
        tangentMode: 10
      m_PreInfinity: 2
      m_PostInfinity: 2
    attribute: material._Color.b
    path: Camera/SmallSpot
    classID: 137
    script: {fileID: 0}
  - curve:
      serializedVersion: 2
      m_Curve:
      - time: .5
        value: 0
        inSlope: 2
        outSlope: 2
        tangentMode: 10
      - time: 1
        value: 1
        inSlope: 2
        outSlope: 2
        tangentMode: 10
      m_PreInfinity: 2
      m_PostInfinity: 2
    attribute: material._Color.a
    path: Camera/SmallSpot
    classID: 137
    script: {fileID: 0}
  - curve:
      serializedVersion: 2
      m_Curve:
      - time: 0
        value: 1
        inSlope: Infinity
        outSlope: Infinity
        tangentMode: 31
      m_PreInfinity: 2
      m_PostInfinity: 2
    attribute: m_Enabled
    path: Camera
    classID: 114
    script: {fileID: 11500000, guid: a94b781cad112c75d0008dfa8d76c639, type: 3}
  - curve:
      serializedVersion: 2
      m_Curve:
      - time: 0
        value: 0
        inSlope: 100
        outSlope: 100
        tangentMode: 10
      - time: .5
        value: 50
        inSlope: 100
        outSlope: 100
        tangentMode: 10
      m_PreInfinity: 2
      m_PostInfinity: 2
    attribute: angle
    path: Camera
    classID: 114
    script: {fileID: 11500000, guid: a94b781cad112c75d0008dfa8d76c639, type: 3}
  - curve:
      serializedVersion: 2
      m_Curve:
      - time: .5
        value: .0199999996
        inSlope: -.159999996
        outSlope: -.159999996
        tangentMode: 10
      m_PreInfinity: 2
      m_PostInfinity: 2
    attribute: radius.y
    path: Camera
    classID: 114
    script: {fileID: 11500000, guid: a94b781cad112c75d0008dfa8d76c639, type: 3}
  - curve:
      serializedVersion: 2
      m_Curve:
      - time: .5
        value: .0199999996
        inSlope: -.159999996
        outSlope: -.159999996
        tangentMode: 10
      m_PreInfinity: 2
      m_PostInfinity: 2
    attribute: radius.x
    path: Camera
    classID: 114
    script: {fileID: 11500000, guid: a94b781cad112c75d0008dfa8d76c639, type: 3}
  m_EulerEditorCurves: []
  m_Events: []
