%YAML 1.1
%TAG !u! tag:unity3d.com,2011:
--- !u!74 &7400000
AnimationClip:
  m_ObjectHideFlags: 0
  m_PrefabParentObject: {fileID: 0}
  m_PrefabInternal: {fileID: 0}
  m_Name: MaculaPucker
  serializedVersion: 4
  m_AnimationType: 2
  m_Compressed: 0
  m_UseHighQualityCurve: 1
  m_RotationCurves: []
  m_CompressedRotationCurves: []
  m_PositionCurves: []
  m_ScaleCurves: []
  m_FloatCurves:
  - curve:
      serializedVersion: 2
      m_Curve:
      - time: 0
        value: 1
        inSlope: Infinity
        outSlope: Infinity
        tangentMode: 31
      - time: 1.66666663
        value: 1
        inSlope: Infinity
        outSlope: Infinity
        tangentMode: 31
      m_PreInfinity: 2
      m_PostInfinity: 2
    attribute: m_Enabled
    path: Camera
    classID: 114
    script: {fileID: 11500000, guid: a94b781cad112c75d0008dfa8d76c639, type: 3}
  - curve:
      serializedVersion: 2
      m_Curve:
      - time: 0
        value: 0
        inSlope: 16.2000008
        outSlope: 16.2000008
        tangentMode: 10
      - time: 1.66666663
        value: 27
        inSlope: 16.2000008
        outSlope: 16.2000008
        tangentMode: 10
      m_PreInfinity: 2
      m_PostInfinity: 2
    attribute: angle
    path: Camera
    classID: 114
    script: {fileID: 11500000, guid: a94b781cad112c75d0008dfa8d76c639, type: 3}
  m_PPtrCurves: []
  m_SampleRate: 60
  m_WrapMode: 0
  m_Bounds:
    m_Center: {x: 0, y: 0, z: 0}
    m_Extent: {x: 0, y: 0, z: 0}
  m_ClipBindingConstant:
    genericBindings:
    - path: 1018227507
      attribute: 3305885265
      script: {fileID: 11500000, guid: a94b781cad112c75d0008dfa8d76c639, type: 3}
      classID: 114
      customType: 24
      isPPtrCurve: 0
    - path: 1018227507
      attribute: 8471817
      script: {fileID: 11500000, guid: a94b781cad112c75d0008dfa8d76c639, type: 3}
      classID: 114
      customType: 0
      isPPtrCurve: 0
    pptrCurveMapping: []
  m_AnimationClipSettings:
    serializedVersion: 2
    m_StartTime: 0
    m_StopTime: 1.66666663
    m_OrientationOffsetY: 0
    m_Level: 0
    m_CycleOffset: 0
    m_LoopTime: 1
    m_LoopBlend: 0
    m_LoopBlendOrientation: 0
    m_LoopBlendPositionY: 0
    m_LoopBlendPositionXZ: 0
    m_KeepOriginalOrientation: 0
    m_KeepOriginalPositionY: 1
    m_KeepOriginalPositionXZ: 0
    m_HeightFromFeet: 0
    m_Mirror: 0
  m_EditorCurves:
  - curve:
      serializedVersion: 2
      m_Curve:
      - time: 0
        value: 1
        inSlope: Infinity
        outSlope: Infinity
        tangentMode: 31
      - time: 1.66666663
        value: 1
        inSlope: Infinity
        outSlope: Infinity
        tangentMode: 31
      m_PreInfinity: 2
      m_PostInfinity: 2
    attribute: m_Enabled
    path: Camera
    classID: 114
    script: {fileID: 11500000, guid: a94b781cad112c75d0008dfa8d76c639, type: 3}
  - curve:
      serializedVersion: 2
      m_Curve:
      - time: 0
        value: 0
        inSlope: 16.2000008
        outSlope: 16.2000008
        tangentMode: 10
      - time: 1.66666663
        value: 27
        inSlope: 16.2000008
        outSlope: 16.2000008
        tangentMode: 10
      m_PreInfinity: 2
      m_PostInfinity: 2
    attribute: angle
    path: Camera
    classID: 114
    script: {fileID: 11500000, guid: a94b781cad112c75d0008dfa8d76c639, type: 3}
  m_EulerEditorCurves: []
  m_Events: []
