%YAML 1.1
%TAG !u! tag:unity3d.com,2011:
--- !u!74 &7400000
AnimationClip:
  m_ObjectHideFlags: 0
  m_PrefabParentObject: {fileID: 0}
  m_PrefabInternal: {fileID: 0}
  m_Name: Oedema
  serializedVersion: 4
  m_AnimationType: 2
  m_Compressed: 0
  m_UseHighQualityCurve: 1
  m_RotationCurves: []
  m_CompressedRotationCurves: []
  m_PositionCurves: []
  m_ScaleCurves: []
  m_FloatCurves:
  - curve:
      serializedVersion: 2
      m_Curve:
      - time: 0
        value: 1
        inSlope: Infinity
        outSlope: Infinity
        tangentMode: 31
      m_PreInfinity: 2
      m_PostInfinity: 2
    attribute: m_Enabled
    path: Camera
    classID: 114
    script: {fileID: 11500000, guid: 34c3946ab5378473cb34bedd1c8194ba, type: 3}
  - curve:
      serializedVersion: 2
      m_Curve:
      - time: 0
        value: .5
        inSlope: .300000012
        outSlope: .300000012
        tangentMode: 10
      - time: 1.66666663
        value: 1
        inSlope: .300000012
        outSlope: .300000012
        tangentMode: 10
      m_PreInfinity: 2
      m_PostInfinity: 2
    attribute: globalFogColor.g
    path: Camera
    classID: 114
    script: {fileID: 11500000, guid: 34c3946ab5378473cb34bedd1c8194ba, type: 3}
  - curve:
      serializedVersion: 2
      m_Curve:
      - time: 0
        value: .5
        inSlope: .300000012
        outSlope: .300000012
        tangentMode: 10
      - time: 1.66666663
        value: 1
        inSlope: .300000012
        outSlope: .300000012
        tangentMode: 10
      m_PreInfinity: 2
      m_PostInfinity: 2
    attribute: globalFogColor.b
    path: Camera
    classID: 114
    script: {fileID: 11500000, guid: 34c3946ab5378473cb34bedd1c8194ba, type: 3}
  - curve:
      serializedVersion: 2
      m_Curve:
      - time: 0
        value: .5
        inSlope: .300000012
        outSlope: .300000012
        tangentMode: 10
      - time: 1.66666663
        value: 1
        inSlope: .300000012
        outSlope: .300000012
        tangentMode: 10
      m_PreInfinity: 2
      m_PostInfinity: 2
    attribute: globalFogColor.r
    path: Camera
    classID: 114
    script: {fileID: 11500000, guid: 34c3946ab5378473cb34bedd1c8194ba, type: 3}
  - curve:
      serializedVersion: 2
      m_Curve:
      - time: 0
        value: 0
        inSlope: .0120000001
        outSlope: .0120000001
        tangentMode: 10
      - time: 1.66666663
        value: .0199999996
        inSlope: .0120000001
        outSlope: .0120000001
        tangentMode: 10
      m_PreInfinity: 2
      m_PostInfinity: 2
    attribute: globalDensity
    path: Camera
    classID: 114
    script: {fileID: 11500000, guid: 34c3946ab5378473cb34bedd1c8194ba, type: 3}
  - curve:
      serializedVersion: 2
      m_Curve:
      - time: 0
        value: 1
        inSlope: Infinity
        outSlope: Infinity
        tangentMode: 31
      - time: 1.66666663
        value: 1
        inSlope: Infinity
        outSlope: Infinity
        tangentMode: 31
      m_PreInfinity: 2
      m_PostInfinity: 2
    attribute: m_Enabled
    path: Camera
    classID: 114
    script: {fileID: 11500000, guid: d35a90bed98554f4d8b92c9cd3cfbafa, type: 3}
  - curve:
      serializedVersion: 2
      m_Curve:
      - time: 0
        value: 0
        inSlope: 2.08800006
        outSlope: 2.08800006
        tangentMode: 10
      - time: 1.66666663
        value: 3.48000002
        inSlope: 2.08800006
        outSlope: 2.08800006
        tangentMode: 10
      m_PreInfinity: 2
      m_PostInfinity: 2
    attribute: bloomIntensity
    path: Camera
    classID: 114
    script: {fileID: 11500000, guid: d35a90bed98554f4d8b92c9cd3cfbafa, type: 3}
  - curve:
      serializedVersion: 2
      m_Curve:
      - time: 0
        value: 0
        inSlope: Infinity
        outSlope: Infinity
        tangentMode: 31
      - time: .833333313
        value: 0
        inSlope: Infinity
        outSlope: Infinity
        tangentMode: 31
      m_PreInfinity: 2
      m_PostInfinity: 2
    attribute: visualizeFocus
    path: Camera
    classID: 114
    script: {fileID: 11500000, guid: f202adaee27c646fa9d90739bb84aa42, type: 3}
  - curve:
      serializedVersion: 2
      m_Curve:
      - time: 0
        value: 0
        inSlope: 0
        outSlope: 0
        tangentMode: 10
      - time: .833333313
        value: 0
        inSlope: 2.22000003
        outSlope: 2.22000003
        tangentMode: 10
      - time: 1.66666663
        value: 3.70000005
        inSlope: 4.44000006
        outSlope: 4.44000006
        tangentMode: 10
      m_PreInfinity: 2
      m_PostInfinity: 2
    attribute: aperture
    path: Camera
    classID: 114
    script: {fileID: 11500000, guid: f202adaee27c646fa9d90739bb84aa42, type: 3}
  - curve:
      serializedVersion: 2
      m_Curve:
      - time: 0
        value: 31
        inSlope: -56.1720047
        outSlope: -56.1720047
        tangentMode: 10
      - time: .833333313
        value: -15.8100004
        inSlope: -56.1720047
        outSlope: -56.1720047
        tangentMode: 10
      m_PreInfinity: 2
      m_PostInfinity: 2
    attribute: focalLength
    path: Camera
    classID: 114
    script: {fileID: 11500000, guid: f202adaee27c646fa9d90739bb84aa42, type: 3}
  m_PPtrCurves: []
  m_SampleRate: 60
  m_WrapMode: 0
  m_Bounds:
    m_Center: {x: 0, y: 0, z: 0}
    m_Extent: {x: 0, y: 0, z: 0}
  m_ClipBindingConstant:
    genericBindings:
    - path: 1018227507
      attribute: 3305885265
      script: {fileID: 11500000, guid: 34c3946ab5378473cb34bedd1c8194ba, type: 3}
      classID: 114
      customType: 24
      isPPtrCurve: 0
    - path: 1018227507
      attribute: 2217073753
      script: {fileID: 11500000, guid: 34c3946ab5378473cb34bedd1c8194ba, type: 3}
      classID: 114
      customType: 0
      isPPtrCurve: 0
    - path: 1018227507
      attribute: 4098828502
      script: {fileID: 11500000, guid: 34c3946ab5378473cb34bedd1c8194ba, type: 3}
      classID: 114
      customType: 0
      isPPtrCurve: 0
    - path: 1018227507
      attribute: 3925358770
      script: {fileID: 11500000, guid: 34c3946ab5378473cb34bedd1c8194ba, type: 3}
      classID: 114
      customType: 0
      isPPtrCurve: 0
    - path: 1018227507
      attribute: 431464885
      script: {fileID: 11500000, guid: 34c3946ab5378473cb34bedd1c8194ba, type: 3}
      classID: 114
      customType: 0
      isPPtrCurve: 0
    - path: 1018227507
      attribute: 3305885265
      script: {fileID: 11500000, guid: d35a90bed98554f4d8b92c9cd3cfbafa, type: 3}
      classID: 114
      customType: 24
      isPPtrCurve: 0
    - path: 1018227507
      attribute: 418931006
      script: {fileID: 11500000, guid: d35a90bed98554f4d8b92c9cd3cfbafa, type: 3}
      classID: 114
      customType: 0
      isPPtrCurve: 0
    - path: 1018227507
      attribute: 2818955557
      script: {fileID: 11500000, guid: f202adaee27c646fa9d90739bb84aa42, type: 3}
      classID: 114
      customType: 0
      isPPtrCurve: 0
    - path: 1018227507
      attribute: 3633746418
      script: {fileID: 11500000, guid: f202adaee27c646fa9d90739bb84aa42, type: 3}
      classID: 114
      customType: 0
      isPPtrCurve: 0
    - path: 1018227507
      attribute: 1906357144
      script: {fileID: 11500000, guid: f202adaee27c646fa9d90739bb84aa42, type: 3}
      classID: 114
      customType: 0
      isPPtrCurve: 0
    pptrCurveMapping: []
  m_AnimationClipSettings:
    serializedVersion: 2
    m_StartTime: 0
    m_StopTime: 1.66666663
    m_OrientationOffsetY: 0
    m_Level: 0
    m_CycleOffset: 0
    m_LoopTime: 1
    m_LoopBlend: 0
    m_LoopBlendOrientation: 0
    m_LoopBlendPositionY: 0
    m_LoopBlendPositionXZ: 0
    m_KeepOriginalOrientation: 0
    m_KeepOriginalPositionY: 1
    m_KeepOriginalPositionXZ: 0
    m_HeightFromFeet: 0
    m_Mirror: 0
  m_EditorCurves:
  - curve:
      serializedVersion: 2
      m_Curve:
      - time: 0
        value: 1
        inSlope: Infinity
        outSlope: Infinity
        tangentMode: 31
      m_PreInfinity: 2
      m_PostInfinity: 2
    attribute: m_Enabled
    path: Camera
    classID: 114
    script: {fileID: 11500000, guid: 34c3946ab5378473cb34bedd1c8194ba, type: 3}
  - curve:
      serializedVersion: 2
      m_Curve:
      - time: 0
        value: .5
        inSlope: .300000012
        outSlope: .300000012
        tangentMode: 10
      - time: 1.66666663
        value: 1
        inSlope: .300000012
        outSlope: .300000012
        tangentMode: 10
      m_PreInfinity: 2
      m_PostInfinity: 2
    attribute: globalFogColor.g
    path: Camera
    classID: 114
    script: {fileID: 11500000, guid: 34c3946ab5378473cb34bedd1c8194ba, type: 3}
  - curve:
      serializedVersion: 2
      m_Curve:
      - time: 0
        value: .5
        inSlope: .300000012
        outSlope: .300000012
        tangentMode: 10
      - time: 1.66666663
        value: 1
        inSlope: .300000012
        outSlope: .300000012
        tangentMode: 10
      m_PreInfinity: 2
      m_PostInfinity: 2
    attribute: globalFogColor.b
    path: Camera
    classID: 114
    script: {fileID: 11500000, guid: 34c3946ab5378473cb34bedd1c8194ba, type: 3}
  - curve:
      serializedVersion: 2
      m_Curve:
      - time: 0
        value: .5
        inSlope: .300000012
        outSlope: .300000012
        tangentMode: 10
      - time: 1.66666663
        value: 1
        inSlope: .300000012
        outSlope: .300000012
        tangentMode: 10
      m_PreInfinity: 2
      m_PostInfinity: 2
    attribute: globalFogColor.r
    path: Camera
    classID: 114
    script: {fileID: 11500000, guid: 34c3946ab5378473cb34bedd1c8194ba, type: 3}
  - curve:
      serializedVersion: 2
      m_Curve:
      - time: 0
        value: 0
        inSlope: .0120000001
        outSlope: .0120000001
        tangentMode: 10
      - time: 1.66666663
        value: .0199999996
        inSlope: .0120000001
        outSlope: .0120000001
        tangentMode: 10
      m_PreInfinity: 2
      m_PostInfinity: 2
    attribute: globalDensity
    path: Camera
    classID: 114
    script: {fileID: 11500000, guid: 34c3946ab5378473cb34bedd1c8194ba, type: 3}
  - curve:
      serializedVersion: 2
      m_Curve:
      - time: 0
        value: 1
        inSlope: Infinity
        outSlope: Infinity
        tangentMode: 31
      - time: 1.66666663
        value: 1
        inSlope: Infinity
        outSlope: Infinity
        tangentMode: 31
      m_PreInfinity: 2
      m_PostInfinity: 2
    attribute: m_Enabled
    path: Camera
    classID: 114
    script: {fileID: 11500000, guid: d35a90bed98554f4d8b92c9cd3cfbafa, type: 3}
  - curve:
      serializedVersion: 2
      m_Curve:
      - time: 0
        value: 0
        inSlope: 2.08800006
        outSlope: 2.08800006
        tangentMode: 10
      - time: 1.66666663
        value: 3.48000002
        inSlope: 2.08800006
        outSlope: 2.08800006
        tangentMode: 10
      m_PreInfinity: 2
      m_PostInfinity: 2
    attribute: bloomIntensity
    path: Camera
    classID: 114
    script: {fileID: 11500000, guid: d35a90bed98554f4d8b92c9cd3cfbafa, type: 3}
  - curve:
      serializedVersion: 2
      m_Curve:
      - time: 0
        value: 0
        inSlope: Infinity
        outSlope: Infinity
        tangentMode: 31
      - time: .833333313
        value: 0
        inSlope: Infinity
        outSlope: Infinity
        tangentMode: 31
      m_PreInfinity: 2
      m_PostInfinity: 2
    attribute: visualizeFocus
    path: Camera
    classID: 114
    script: {fileID: 11500000, guid: f202adaee27c646fa9d90739bb84aa42, type: 3}
  - curve:
      serializedVersion: 2
      m_Curve:
      - time: 0
        value: 0
        inSlope: 0
        outSlope: 0
        tangentMode: 10
      - time: .833333313
        value: 0
        inSlope: 2.22000003
        outSlope: 2.22000003
        tangentMode: 10
      - time: 1.66666663
        value: 3.70000005
        inSlope: 4.44000006
        outSlope: 4.44000006
        tangentMode: 10
      m_PreInfinity: 2
      m_PostInfinity: 2
    attribute: aperture
    path: Camera
    classID: 114
    script: {fileID: 11500000, guid: f202adaee27c646fa9d90739bb84aa42, type: 3}
  - curve:
      serializedVersion: 2
      m_Curve:
      - time: 0
        value: 31
        inSlope: -56.1720047
        outSlope: -56.1720047
        tangentMode: 10
      - time: .833333313
        value: -15.8100004
        inSlope: -56.1720047
        outSlope: -56.1720047
        tangentMode: 10
      m_PreInfinity: 2
      m_PostInfinity: 2
    attribute: focalLength
    path: Camera
    classID: 114
    script: {fileID: 11500000, guid: f202adaee27c646fa9d90739bb84aa42, type: 3}
  m_EulerEditorCurves: []
  m_Events: []
