%YAML 1.1
%TAG !u! tag:unity3d.com,2011:
--- !u!74 &7400000
AnimationClip:
  m_ObjectHideFlags: 0
  m_PrefabParentObject: {fileID: 0}
  m_PrefabInternal: {fileID: 0}
  m_Name: Accommodation
  serializedVersion: 4
  m_AnimationType: 2
  m_Compressed: 0
  m_UseHighQualityCurve: 1
  m_RotationCurves: []
  m_CompressedRotationCurves: []
  m_PositionCurves: []
  m_ScaleCurves: []
  m_FloatCurves:
  - curve:
      serializedVersion: 2
      m_Curve:
      - time: 0
        value: 0
        inSlope: 0
        outSlope: 60
        tangentMode: 21
      - time: 1.66666663
        value: 100
        inSlope: 60
        outSlope: -6000.00586
        tangentMode: 21
      m_PreInfinity: 2
      m_PostInfinity: 2
    attribute: blendShape.blendShape1.Focus
    path: MainHalfEye/RetinaIris
    classID: 137
    script: {fileID: 0}
  - curve:
      serializedVersion: 2
      m_Curve:
      - time: 0
        value: 0
        inSlope: 101.694916
        outSlope: 60
        tangentMode: 21
      - time: 1.66666663
        value: 100
        inSlope: 60
        outSlope: -6000.00586
        tangentMode: 21
      m_PreInfinity: 2
      m_PostInfinity: 2
    attribute: blendShape.blendShape1.Focus
    path: MainHalfEye/Lens
    classID: 137
    script: {fileID: 0}
  - curve:
      serializedVersion: 2
      m_Curve:
      - time: 0
        value: 0
        inSlope: 101.694916
        outSlope: 60
        tangentMode: 21
      - time: 1.66666663
        value: 100
        inSlope: 60
        outSlope: -6000.00586
        tangentMode: 21
      m_PreInfinity: 2
      m_PostInfinity: 2
    attribute: blendShape.blendShape1.Focus
    path: MainHalfEye/CilliaryMuscle
    classID: 137
    script: {fileID: 0}
  - curve:
      serializedVersion: 2
      m_Curve:
      - time: 0
        value: 0
        inSlope: 101.694916
        outSlope: 60
        tangentMode: 21
      - time: 1.66666663
        value: 100
        inSlope: 60
        outSlope: -6000.00586
        tangentMode: 21
      m_PreInfinity: 2
      m_PostInfinity: 2
    attribute: blendShape.blendShape1.Focus
    path: MainHalfEye/Zonules
    classID: 137
    script: {fileID: 0}
  - curve:
      serializedVersion: 2
      m_Curve:
      - time: 0
        value: 0
        inSlope: 101.694916
        outSlope: 60
        tangentMode: 21
      - time: 1.66666663
        value: 100
        inSlope: 60
        outSlope: -6000.00586
        tangentMode: 21
      m_PreInfinity: 2
      m_PostInfinity: 2
    attribute: blendShape.blendShape1.Focus
    path: MainHalfEye/Vitrious
    classID: 137
    script: {fileID: 0}
  m_PPtrCurves: []
  m_SampleRate: 60
  m_WrapMode: 0
  m_Bounds:
    m_Center: {x: 0, y: 0, z: 0}
    m_Extent: {x: 0, y: 0, z: 0}
  m_ClipBindingConstant:
    genericBindings:
    - path: 2031506529
      attribute: 2836290727
      script: {fileID: 0}
      classID: 137
      customType: 20
      isPPtrCurve: 0
    - path: 197829872
      attribute: 2836290727
      script: {fileID: 0}
      classID: 137
      customType: 20
      isPPtrCurve: 0
    - path: 182755239
      attribute: 2836290727
      script: {fileID: 0}
      classID: 137
      customType: 20
      isPPtrCurve: 0
    - path: 3958022372
      attribute: 2836290727
      script: {fileID: 0}
      classID: 137
      customType: 20
      isPPtrCurve: 0
    - path: 4102229040
      attribute: 2836290727
      script: {fileID: 0}
      classID: 137
      customType: 20
      isPPtrCurve: 0
    pptrCurveMapping: []
  m_AnimationClipSettings:
    serializedVersion: 2
    m_StartTime: 0
    m_StopTime: 1.66666663
    m_OrientationOffsetY: 0
    m_Level: 0
    m_CycleOffset: 0
    m_LoopTime: 1
    m_LoopBlend: 0
    m_LoopBlendOrientation: 0
    m_LoopBlendPositionY: 0
    m_LoopBlendPositionXZ: 0
    m_KeepOriginalOrientation: 0
    m_KeepOriginalPositionY: 1
    m_KeepOriginalPositionXZ: 0
    m_HeightFromFeet: 0
    m_Mirror: 0
  m_EditorCurves:
  - curve:
      serializedVersion: 2
      m_Curve:
      - time: 0
        value: 0
        inSlope: 0
        outSlope: 60
        tangentMode: 21
      - time: 1.66666663
        value: 100
        inSlope: 60
        outSlope: -6000.00586
        tangentMode: 21
      m_PreInfinity: 2
      m_PostInfinity: 2
    attribute: blendShape.blendShape1.Focus
    path: MainHalfEye/RetinaIris
    classID: 137
    script: {fileID: 0}
  - curve:
      serializedVersion: 2
      m_Curve:
      - time: 0
        value: 0
        inSlope: 101.694916
        outSlope: 60
        tangentMode: 21
      - time: 1.66666663
        value: 100
        inSlope: 60
        outSlope: -6000.00586
        tangentMode: 21
      m_PreInfinity: 2
      m_PostInfinity: 2
    attribute: blendShape.blendShape1.Focus
    path: MainHalfEye/Lens
    classID: 137
    script: {fileID: 0}
  - curve:
      serializedVersion: 2
      m_Curve:
      - time: 0
        value: 0
        inSlope: 101.694916
        outSlope: 60
        tangentMode: 21
      - time: 1.66666663
        value: 100
        inSlope: 60
        outSlope: -6000.00586
        tangentMode: 21
      m_PreInfinity: 2
      m_PostInfinity: 2
    attribute: blendShape.blendShape1.Focus
    path: MainHalfEye/CilliaryMuscle
    classID: 137
    script: {fileID: 0}
  - curve:
      serializedVersion: 2
      m_Curve:
      - time: 0
        value: 0
        inSlope: 101.694916
        outSlope: 60
        tangentMode: 21
      - time: 1.66666663
        value: 100
        inSlope: 60
        outSlope: -6000.00586
        tangentMode: 21
      m_PreInfinity: 2
      m_PostInfinity: 2
    attribute: blendShape.blendShape1.Focus
    path: MainHalfEye/Zonules
    classID: 137
    script: {fileID: 0}
  - curve:
      serializedVersion: 2
      m_Curve:
      - time: 0
        value: 0
        inSlope: 101.694916
        outSlope: 60
        tangentMode: 21
      - time: 1.66666663
        value: 100
        inSlope: 60
        outSlope: -6000.00586
        tangentMode: 21
      m_PreInfinity: 2
      m_PostInfinity: 2
    attribute: blendShape.blendShape1.Focus
    path: MainHalfEye/Vitrious
    classID: 137
    script: {fileID: 0}
  m_EulerEditorCurves: []
  m_Events: []
